{"meta":{"goldenCopy":{"publishDate":"2025-05-15T00:00:00Z"},"pagination":{"currentPage":1,"perPage":15,"from":1,"to":15,"total":69,"lastPage":5}},"links":{"first":"https:\/\/api.gleif.org\/api\/v1\/lei-records\/254900LNRYNOQ9YPU758\/field-modifications?page%5Bnumber%5D=1&page%5Bsize%5D=15","next":"https:\/\/api.gleif.org\/api\/v1\/lei-records\/254900LNRYNOQ9YPU758\/field-modifications?page%5Bnumber%5D=2&page%5Bsize%5D=15","last":"https:\/\/api.gleif.org\/api\/v1\/lei-records\/254900LNRYNOQ9YPU758\/field-modifications?page%5Bnumber%5D=5&page%5Bsize%5D=15"},"data":[{"type":"field-modifications","id":"4dcfee8b-f89b-430e-afcc-a824f7734f76","attributes":{"lei":"254900LNRYNOQ9YPU758","recordType":"LEI","modificationType":"UPDATE","field":"\/lei:LEIData\/lei:LEIRecords\/lei:LEIRecord\/lei:Registration\/lei:NextRenewalDate","date":"2025-04-22T00:00:00Z","valueOld":"2025-05-20T12:52:09.862Z","valueNew":"2026-05-20T12:52:09.862Z","context":null}},{"type":"field-modifications","id":"135bce11-7d4c-4b66-b90d-59ab38999044","attributes":{"lei":"254900LNRYNOQ9YPU758","recordType":"RR","modificationType":"UPDATE","field":"\/rr:RelationshipData\/rr:RelationshipRecords\/rr:RelationshipRecord\/rr:Registration\/rr:NextRenewalDate","date":"2025-04-22T00:00:00Z","valueOld":"2025-05-20T12:52:09.862Z","valueNew":"2026-05-20T12:52:09.862Z","context":{"relationshipType":"IS_ULTIMATELY_CONSOLIDATED_BY","endNode":"ZXTILKJKG63JELOEG630"}}},{"type":"field-modifications","id":"e38e2e1f-4d17-42be-b5ae-051531697f23","attributes":{"lei":"254900LNRYNOQ9YPU758","recordType":"LEI","modificationType":"UPDATE","field":"\/lei:LEIData\/lei:LEIRecords\/lei:LEIRecord\/lei:Registration\/lei:LastUpdateDate","date":"2025-04-22T00:00:00Z","valueOld":"2024-05-20T12:52:09.861Z","valueNew":"2025-04-21T10:50:46.805Z","context":null}},{"type":"field-modifications","id":"439e348b-bb40-4c5d-9c89-7bd818ad9cd1","attributes":{"lei":"254900LNRYNOQ9YPU758","recordType":"RR","modificationType":"UPDATE","field":"\/rr:RelationshipData\/rr:RelationshipRecords\/rr:RelationshipRecord\/rr:Registration\/rr:LastUpdateDate","date":"2025-04-22T00:00:00Z","valueOld":"2024-05-20T12:52:09.876Z","valueNew":"2025-04-21T10:50:46.822Z","context":{"relationshipType":"IS_ULTIMATELY_CONSOLIDATED_BY","endNode":"ZXTILKJKG63JELOEG630"}}},{"type":"field-modifications","id":"bfcc8d10-6adb-46e9-8ff1-6473a489c909","attributes":{"lei":"254900LNRYNOQ9YPU758","recordType":"LEI","modificationType":"INITIAL","field":"\/lei:LEIData\/lei:LEIRecords\/lei:LEIRecord\/lei:Registration\/lei:ValidationAuthority\/lei:ValidationAuthorityEntityID","date":"2024-05-21T00:00:00Z","valueOld":null,"valueNew":"06528297","context":null}},{"type":"field-modifications","id":"afca0cf3-946a-49cc-aee2-54a573eff605","attributes":{"lei":"254900LNRYNOQ9YPU758","recordType":"LEI","modificationType":"INITIAL","field":"\/lei:LEIData\/lei:LEIRecords\/lei:LEIRecord\/lei:Registration\/lei:ValidationAuthority\/lei:ValidationAuthorityID","date":"2024-05-21T00:00:00Z","valueOld":null,"valueNew":"RA000585","context":null}},{"type":"field-modifications","id":"672888e1-e0af-49e0-85bf-df5c69402d3c","attributes":{"lei":"254900LNRYNOQ9YPU758","recordType":"LEI","modificationType":"INITIAL","field":"\/lei:LEIData\/lei:LEIRecords\/lei:LEIRecord\/lei:Registration\/lei:ValidationSources","date":"2024-05-21T00:00:00Z","valueOld":null,"valueNew":"FULLY_CORROBORATED","context":null}},{"type":"field-modifications","id":"28d9c099-30b4-46b3-a59f-6a1839592450","attributes":{"lei":"254900LNRYNOQ9YPU758","recordType":"LEI","modificationType":"INITIAL","field":"\/lei:LEIData\/lei:LEIRecords\/lei:LEIRecord\/lei:Registration\/lei:ManagingLOU","date":"2024-05-21T00:00:00Z","valueOld":null,"valueNew":"5493001KJTIIGC8Y1R12","context":null}},{"type":"field-modifications","id":"368a7e21-a0da-41db-8540-ccfd46f44339","attributes":{"lei":"254900LNRYNOQ9YPU758","recordType":"LEI","modificationType":"INITIAL","field":"\/lei:LEIData\/lei:LEIRecords\/lei:LEIRecord\/lei:Registration\/lei:NextRenewalDate","date":"2024-05-21T00:00:00Z","valueOld":null,"valueNew":"2025-05-20T12:52:09.862Z","context":null}},{"type":"field-modifications","id":"d8f248c0-70d5-4f32-850a-f99fe156e12d","attributes":{"lei":"254900LNRYNOQ9YPU758","recordType":"LEI","modificationType":"INITIAL","field":"\/lei:LEIData\/lei:LEIRecords\/lei:LEIRecord\/lei:Registration\/lei:RegistrationStatus","date":"2024-05-21T00:00:00Z","valueOld":null,"valueNew":"ISSUED","context":null}},{"type":"field-modifications","id":"b82e7dc0-c4c9-44bd-8cbb-d6f155578904","attributes":{"lei":"254900LNRYNOQ9YPU758","recordType":"LEI","modificationType":"INITIAL","field":"\/lei:LEIData\/lei:LEIRecords\/lei:LEIRecord\/lei:Registration\/lei:LastUpdateDate","date":"2024-05-21T00:00:00Z","valueOld":null,"valueNew":"2024-05-20T12:52:09.861Z","context":null}},{"type":"field-modifications","id":"5b6a6c76-4d63-42cf-bd8d-daed5b6db91e","attributes":{"lei":"254900LNRYNOQ9YPU758","recordType":"LEI","modificationType":"INITIAL","field":"\/lei:LEIData\/lei:LEIRecords\/lei:LEIRecord\/lei:Registration\/lei:InitialRegistrationDate","date":"2024-05-21T00:00:00Z","valueOld":null,"valueNew":"2024-05-20T12:52:09.861Z","context":null}},{"type":"field-modifications","id":"b60775c2-8d54-4a6b-94a2-6e31c7e89efe","attributes":{"lei":"254900LNRYNOQ9YPU758","recordType":"LEI","modificationType":"INITIAL","field":"\/lei:LEIData\/lei:LEIRecords\/lei:LEIRecord\/lei:Entity\/lei:EntityCreationDate","date":"2024-05-21T00:00:00Z","valueOld":null,"valueNew":"2008-03-08T00:00:00.000Z","context":null}},{"type":"field-modifications","id":"f0c3679b-9d7d-4965-9090-99ff4a884848","attributes":{"lei":"254900LNRYNOQ9YPU758","recordType":"LEI","modificationType":"INITIAL","field":"\/lei:LEIData\/lei:LEIRecords\/lei:LEIRecord\/lei:Entity\/lei:EntityStatus","date":"2024-05-21T00:00:00Z","valueOld":null,"valueNew":"ACTIVE","context":null}},{"type":"field-modifications","id":"458cb69d-c2f7-4a44-af65-90521f813038","attributes":{"lei":"254900LNRYNOQ9YPU758","recordType":"LEI","modificationType":"INITIAL","field":"\/lei:LEIData\/lei:LEIRecords\/lei:LEIRecord\/lei:Entity\/lei:LegalForm\/lei:EntityLegalFormCode","date":"2024-05-21T00:00:00Z","valueOld":null,"valueNew":"H0PO","context":null}}]}