{"meta":{"goldenCopy":{"publishDate":"2025-05-11T00:00:00Z"},"pagination":{"currentPage":1,"perPage":15,"from":1,"to":15,"total":42,"lastPage":3}},"links":{"first":"https:\/\/api.gleif.org\/api\/v1\/lei-records\/984500983AD71E4FBC41\/field-modifications?page%5Bnumber%5D=1&page%5Bsize%5D=15","next":"https:\/\/api.gleif.org\/api\/v1\/lei-records\/984500983AD71E4FBC41\/field-modifications?page%5Bnumber%5D=2&page%5Bsize%5D=15","last":"https:\/\/api.gleif.org\/api\/v1\/lei-records\/984500983AD71E4FBC41\/field-modifications?page%5Bnumber%5D=3&page%5Bsize%5D=15"},"data":[{"type":"field-modifications","id":"c22e9874-c45c-46a6-a399-e98bbce0ee55","attributes":{"lei":"984500983AD71E4FBC41","recordType":"LEI","modificationType":"UPDATE","field":"\/lei:LEIData\/lei:LEIRecords\/lei:LEIRecord\/lei:Registration\/lei:NextRenewalDate","date":"2024-06-18T16:00:00Z","valueOld":"2024-08-05T15:01:32+00:00","valueNew":"2025-08-05T15:01:32+00:00","context":null}},{"type":"field-modifications","id":"ae56dbfe-a9f1-4167-b7fd-c3d0071da6c3","attributes":{"lei":"984500983AD71E4FBC41","recordType":"LEI","modificationType":"UPDATE","field":"\/lei:LEIData\/lei:LEIRecords\/lei:LEIRecord\/lei:Registration\/lei:LastUpdateDate","date":"2024-06-18T16:00:00Z","valueOld":"2023-06-20T18:56:10+00:00","valueNew":"2024-06-18T14:25:49+00:00","context":null}},{"type":"field-modifications","id":"5fac643b-f8ab-4ad8-b1cd-3f260f41c061","attributes":{"lei":"984500983AD71E4FBC41","recordType":"LEI","modificationType":"UPDATE","field":"\/lei:LEIData\/lei:LEIRecords\/lei:LEIRecord\/lei:Registration\/lei:NextRenewalDate","date":"2023-06-21T00:00:00Z","valueOld":"2023-08-05T15:01:32+00:00","valueNew":"2024-08-05T15:01:32+00:00","context":null}},{"type":"field-modifications","id":"db6a6eff-215f-4b26-a73c-d37a58c808c2","attributes":{"lei":"984500983AD71E4FBC41","recordType":"LEI","modificationType":"UPDATE","field":"\/lei:LEIData\/lei:LEIRecords\/lei:LEIRecord\/lei:Registration\/lei:LastUpdateDate","date":"2023-06-21T00:00:00Z","valueOld":"2022-08-05T15:01:38+00:00","valueNew":"2023-06-20T18:56:10+00:00","context":null}},{"type":"field-modifications","id":"45ac0bb3-a603-45fb-a79a-f9d0b8ead95a","attributes":{"lei":"984500983AD71E4FBC41","recordType":"LEI","modificationType":"INITIAL","field":"\/lei:LEIData\/lei:LEIRecords\/lei:LEIRecord\/lei:Registration\/lei:ValidationAuthority\/lei:ValidationAuthorityEntityID","date":"2022-08-05T16:00:00Z","valueOld":null,"valueNew":"4763016","context":null}},{"type":"field-modifications","id":"e8cd7cd4-e315-4f84-8f73-156fb5113312","attributes":{"lei":"984500983AD71E4FBC41","recordType":"LEI","modificationType":"INITIAL","field":"\/lei:LEIData\/lei:LEIRecords\/lei:LEIRecord\/lei:Registration\/lei:ValidationAuthority\/lei:ValidationAuthorityID","date":"2022-08-05T16:00:00Z","valueOld":null,"valueNew":"RA000602","context":null}},{"type":"field-modifications","id":"5f24d624-cd19-406b-a7b3-07a6a35d7ee1","attributes":{"lei":"984500983AD71E4FBC41","recordType":"LEI","modificationType":"INITIAL","field":"\/lei:LEIData\/lei:LEIRecords\/lei:LEIRecord\/lei:Registration\/lei:ValidationSources","date":"2022-08-05T16:00:00Z","valueOld":null,"valueNew":"FULLY_CORROBORATED","context":null}},{"type":"field-modifications","id":"87824329-3271-48ad-8deb-a95c7d54f5c9","attributes":{"lei":"984500983AD71E4FBC41","recordType":"LEI","modificationType":"INITIAL","field":"\/lei:LEIData\/lei:LEIRecords\/lei:LEIRecord\/lei:Registration\/lei:ManagingLOU","date":"2022-08-05T16:00:00Z","valueOld":null,"valueNew":"529900T8BM49AURSDO55","context":null}},{"type":"field-modifications","id":"7a29e4c4-78f1-4c7c-815c-2fb13447fddf","attributes":{"lei":"984500983AD71E4FBC41","recordType":"LEI","modificationType":"INITIAL","field":"\/lei:LEIData\/lei:LEIRecords\/lei:LEIRecord\/lei:Registration\/lei:NextRenewalDate","date":"2022-08-05T16:00:00Z","valueOld":null,"valueNew":"2023-08-05T15:01:32+00:00","context":null}},{"type":"field-modifications","id":"e26d894b-817e-496b-9e7a-d651ef78efb9","attributes":{"lei":"984500983AD71E4FBC41","recordType":"LEI","modificationType":"INITIAL","field":"\/lei:LEIData\/lei:LEIRecords\/lei:LEIRecord\/lei:Registration\/lei:RegistrationStatus","date":"2022-08-05T16:00:00Z","valueOld":null,"valueNew":"ISSUED","context":null}},{"type":"field-modifications","id":"049affa5-cc5e-407a-8c15-19d8cf89d8da","attributes":{"lei":"984500983AD71E4FBC41","recordType":"LEI","modificationType":"INITIAL","field":"\/lei:LEIData\/lei:LEIRecords\/lei:LEIRecord\/lei:Registration\/lei:LastUpdateDate","date":"2022-08-05T16:00:00Z","valueOld":null,"valueNew":"2022-08-05T15:01:38+00:00","context":null}},{"type":"field-modifications","id":"7d3d80ef-078e-4c14-b6a9-45498617c49e","attributes":{"lei":"984500983AD71E4FBC41","recordType":"LEI","modificationType":"INITIAL","field":"\/lei:LEIData\/lei:LEIRecords\/lei:LEIRecord\/lei:Registration\/lei:InitialRegistrationDate","date":"2022-08-05T16:00:00Z","valueOld":null,"valueNew":"2022-08-05T14:48:36+00:00","context":null}},{"type":"field-modifications","id":"9038c362-1a39-48f2-aacd-948d8249020a","attributes":{"lei":"984500983AD71E4FBC41","recordType":"LEI","modificationType":"INITIAL","field":"\/lei:LEIData\/lei:LEIRecords\/lei:LEIRecord\/lei:Entity\/lei:EntityCreationDate","date":"2022-08-05T16:00:00Z","valueOld":null,"valueNew":"2021-01-19T00:00:00+00:00","context":null}},{"type":"field-modifications","id":"fbcfa7eb-75ae-401e-8598-ab7bf9845184","attributes":{"lei":"984500983AD71E4FBC41","recordType":"LEI","modificationType":"INITIAL","field":"\/lei:LEIData\/lei:LEIRecords\/lei:LEIRecord\/lei:Entity\/lei:EntityStatus","date":"2022-08-05T16:00:00Z","valueOld":null,"valueNew":"ACTIVE","context":null}},{"type":"field-modifications","id":"c368c866-7c66-440e-aa42-fe59bee15ad2","attributes":{"lei":"984500983AD71E4FBC41","recordType":"LEI","modificationType":"INITIAL","field":"\/lei:LEIData\/lei:LEIRecords\/lei:LEIRecord\/lei:Entity\/lei:LegalForm\/lei:EntityLegalFormCode","date":"2022-08-05T16:00:00Z","valueOld":null,"valueNew":"XTIQ","context":null}}]}