{"meta":{"goldenCopy":{"publishDate":"2025-05-11T00:00:00Z"},"pagination":{"currentPage":1,"perPage":15,"from":1,"to":15,"total":189,"lastPage":13}},"links":{"first":"https:\/\/api.gleif.org\/api\/v1\/lei-records\/549300O897ZC5H7CY412\/field-modifications?page%5Bnumber%5D=1&page%5Bsize%5D=15","next":"https:\/\/api.gleif.org\/api\/v1\/lei-records\/549300O897ZC5H7CY412\/field-modifications?page%5Bnumber%5D=2&page%5Bsize%5D=15","last":"https:\/\/api.gleif.org\/api\/v1\/lei-records\/549300O897ZC5H7CY412\/field-modifications?page%5Bnumber%5D=13&page%5Bsize%5D=15"},"data":[{"type":"field-modifications","id":"bad6df32-ac4b-4c8b-aa9b-6834fcbb4241","attributes":{"lei":"549300O897ZC5H7CY412","recordType":"LEI","modificationType":"UPDATE","field":"\/lei:LEIData\/lei:LEIRecords\/lei:LEIRecord\/lei:Registration\/lei:NextRenewalDate","date":"2025-04-11T08:00:00Z","valueOld":"2025-05-24T07:13:00Z","valueNew":"2026-05-24T07:13:00Z","context":null}},{"type":"field-modifications","id":"f7e4e64c-9592-4776-a6c3-f2d88fdbcfae","attributes":{"lei":"549300O897ZC5H7CY412","recordType":"LEI","modificationType":"UPDATE","field":"\/lei:LEIData\/lei:LEIRecords\/lei:LEIRecord\/lei:Registration\/lei:LastUpdateDate","date":"2025-04-11T08:00:00Z","valueOld":"2025-01-27T13:47:00Z","valueNew":"2025-04-11T05:58:00Z","context":null}},{"type":"field-modifications","id":"e81416b3-c27f-4cb5-bd50-a0c4ff65950a","attributes":{"lei":"549300O897ZC5H7CY412","recordType":"RR","modificationType":"UPDATE","field":"\/rr:RelationshipData\/rr:RelationshipRecords\/rr:RelationshipRecord\/rr:Registration\/rr:NextRenewalDate","date":"2025-04-11T08:00:00Z","valueOld":"2025-05-24T07:13:00Z","valueNew":"2026-05-24T07:13:00Z","context":{"relationshipType":"IS_DIRECTLY_CONSOLIDATED_BY","endNode":"549300OWK6ZGNYP4G142"}}},{"type":"field-modifications","id":"7284c60c-f125-4eef-bb12-28bcc87fd3e8","attributes":{"lei":"549300O897ZC5H7CY412","recordType":"RR","modificationType":"UPDATE","field":"\/rr:RelationshipData\/rr:RelationshipRecords\/rr:RelationshipRecord\/rr:Registration\/rr:NextRenewalDate","date":"2025-04-11T08:00:00Z","valueOld":"2025-05-24T07:13:00Z","valueNew":"2026-05-24T07:13:00Z","context":{"relationshipType":"IS_ULTIMATELY_CONSOLIDATED_BY","endNode":"549300OWK6ZGNYP4G142"}}},{"type":"field-modifications","id":"8899307f-1b4c-4b3e-b39a-635535891f5b","attributes":{"lei":"549300O897ZC5H7CY412","recordType":"LEI","modificationType":"UPDATE","field":"\/lei:LEIData\/lei:LEIRecords\/lei:LEIRecord\/lei:Entity\/lei:EntityCreationDate","date":"2025-04-11T08:00:00Z","valueOld":"2006-08-08T04:00:00+02:00","valueNew":"2006-08-08T02:00:00+02:00","context":null}},{"type":"field-modifications","id":"7a08c228-826c-4bac-b242-80df702e5bb9","attributes":{"lei":"549300O897ZC5H7CY412","recordType":"RR","modificationType":"UPDATE","field":"\/rr:RelationshipData\/rr:RelationshipRecords\/rr:RelationshipRecord\/rr:Registration\/rr:LastUpdateDate","date":"2025-04-11T08:00:00Z","valueOld":"2025-01-27T13:47:00Z","valueNew":"2025-04-11T05:58:00Z","context":{"relationshipType":"IS_DIRECTLY_CONSOLIDATED_BY","endNode":"549300OWK6ZGNYP4G142"}}},{"type":"field-modifications","id":"05e41dd9-fef2-4a81-9bfb-2af279ce726b","attributes":{"lei":"549300O897ZC5H7CY412","recordType":"RR","modificationType":"UPDATE","field":"\/rr:RelationshipData\/rr:RelationshipRecords\/rr:RelationshipRecord\/rr:Registration\/rr:LastUpdateDate","date":"2025-04-11T08:00:00Z","valueOld":"2025-01-27T13:47:00Z","valueNew":"2025-04-11T05:58:00Z","context":{"relationshipType":"IS_ULTIMATELY_CONSOLIDATED_BY","endNode":"549300OWK6ZGNYP4G142"}}},{"type":"field-modifications","id":"21a6c938-cf8c-4cdc-a39e-75330bba24b5","attributes":{"lei":"549300O897ZC5H7CY412","recordType":"RR","modificationType":"INSERT","field":"\/rr:RelationshipData\/rr:RelationshipRecords\/rr:RelationshipRecord\/rr:Registration\/rr:ValidationReference","date":"2025-01-27T16:00:00Z","valueOld":null,"valueNew":"https:\/\/www.allabolag.se\/bokslut\/la-gare-holding-ab\/stockholm\/finansbolag-finansiella-tj%C3%A4nster\/2K1WSQYI5YE9Q","context":{"relationshipType":"IS_DIRECTLY_CONSOLIDATED_BY","endNode":"549300OWK6ZGNYP4G142"}}},{"type":"field-modifications","id":"9ab72faa-87a2-46e7-b2d5-f29784089cb4","attributes":{"lei":"549300O897ZC5H7CY412","recordType":"RR","modificationType":"INSERT","field":"\/rr:RelationshipData\/rr:RelationshipRecords\/rr:RelationshipRecord\/rr:Registration\/rr:ValidationReference","date":"2025-01-27T16:00:00Z","valueOld":null,"valueNew":"https:\/\/www.allabolag.se\/bokslut\/la-gare-holding-ab\/stockholm\/finansbolag-finansiella-tj%C3%A4nster\/2K1WSQYI5YE9Q","context":{"relationshipType":"IS_ULTIMATELY_CONSOLIDATED_BY","endNode":"549300OWK6ZGNYP4G142"}}},{"type":"field-modifications","id":"9d64a537-3f4c-4442-8297-662e43d75ccf","attributes":{"lei":"549300O897ZC5H7CY412","recordType":"RR","modificationType":"UPDATE","field":"\/rr:RelationshipData\/rr:RelationshipRecords\/rr:RelationshipRecord\/rr:Registration\/rr:ValidationDocuments","date":"2025-01-27T16:00:00Z","valueOld":"SUPPORTING_DOCUMENTS","valueNew":"ACCOUNTS_FILING","context":{"relationshipType":"IS_DIRECTLY_CONSOLIDATED_BY","endNode":"549300OWK6ZGNYP4G142"}}},{"type":"field-modifications","id":"7ca9c069-7f83-4ece-a469-40a60e4ab68b","attributes":{"lei":"549300O897ZC5H7CY412","recordType":"RR","modificationType":"UPDATE","field":"\/rr:RelationshipData\/rr:RelationshipRecords\/rr:RelationshipRecord\/rr:Registration\/rr:ValidationDocuments","date":"2025-01-27T16:00:00Z","valueOld":"SUPPORTING_DOCUMENTS","valueNew":"ACCOUNTS_FILING","context":{"relationshipType":"IS_ULTIMATELY_CONSOLIDATED_BY","endNode":"549300OWK6ZGNYP4G142"}}},{"type":"field-modifications","id":"664ecf90-211b-429f-9fab-32ba0012a0ae","attributes":{"lei":"549300O897ZC5H7CY412","recordType":"RR","modificationType":"UPDATE","field":"\/rr:RelationshipData\/rr:RelationshipRecords\/rr:RelationshipRecord\/rr:Registration\/rr:NextRenewalDate","date":"2025-01-27T16:00:00Z","valueOld":"2023-05-24T07:13:00Z","valueNew":"2025-05-24T07:13:00Z","context":{"relationshipType":"IS_DIRECTLY_CONSOLIDATED_BY","endNode":"549300OWK6ZGNYP4G142"}}},{"type":"field-modifications","id":"67590e6a-0db0-401d-bb68-d750f9fccb63","attributes":{"lei":"549300O897ZC5H7CY412","recordType":"RR","modificationType":"UPDATE","field":"\/rr:RelationshipData\/rr:RelationshipRecords\/rr:RelationshipRecord\/rr:Registration\/rr:NextRenewalDate","date":"2025-01-27T16:00:00Z","valueOld":"2023-05-24T07:13:00Z","valueNew":"2025-05-24T07:13:00Z","context":{"relationshipType":"IS_ULTIMATELY_CONSOLIDATED_BY","endNode":"549300OWK6ZGNYP4G142"}}},{"type":"field-modifications","id":"7cab6545-7168-4c5b-84c0-4169649c9472","attributes":{"lei":"549300O897ZC5H7CY412","recordType":"RR","modificationType":"UPDATE","field":"\/rr:RelationshipData\/rr:RelationshipRecords\/rr:RelationshipRecord\/rr:Registration\/rr:LastUpdateDate","date":"2025-01-27T16:00:00Z","valueOld":"2022-05-17T10:06:00Z","valueNew":"2025-01-27T13:47:00Z","context":{"relationshipType":"IS_DIRECTLY_CONSOLIDATED_BY","endNode":"549300OWK6ZGNYP4G142"}}},{"type":"field-modifications","id":"0f8420f5-97ef-4545-92d4-5011368f0975","attributes":{"lei":"549300O897ZC5H7CY412","recordType":"RR","modificationType":"UPDATE","field":"\/rr:RelationshipData\/rr:RelationshipRecords\/rr:RelationshipRecord\/rr:Registration\/rr:LastUpdateDate","date":"2025-01-27T16:00:00Z","valueOld":"2022-05-17T10:06:00Z","valueNew":"2025-01-27T13:47:00Z","context":{"relationshipType":"IS_ULTIMATELY_CONSOLIDATED_BY","endNode":"549300OWK6ZGNYP4G142"}}}]}