{"meta":{"goldenCopy":{"publishDate":"2025-05-11T00:00:00Z"},"pagination":{"currentPage":1,"perPage":15,"from":1,"to":15,"total":71,"lastPage":5}},"links":{"first":"https:\/\/api.gleif.org\/api\/v1\/lei-records\/5299001ERX0K10IZUL40\/field-modifications?page%5Bnumber%5D=1&page%5Bsize%5D=15","next":"https:\/\/api.gleif.org\/api\/v1\/lei-records\/5299001ERX0K10IZUL40\/field-modifications?page%5Bnumber%5D=2&page%5Bsize%5D=15","last":"https:\/\/api.gleif.org\/api\/v1\/lei-records\/5299001ERX0K10IZUL40\/field-modifications?page%5Bnumber%5D=5&page%5Bsize%5D=15"},"data":[{"type":"field-modifications","id":"f83f9a47-de6a-4991-9a95-0f82bae0f473","attributes":{"lei":"5299001ERX0K10IZUL40","recordType":"LEI","modificationType":"UPDATE","field":"\/lei:LEIData\/lei:LEIRecords\/lei:LEIRecord\/lei:Registration\/lei:NextRenewalDate","date":"2025-04-10T08:00:00Z","valueOld":"2025-06-03T15:29:41+02:00","valueNew":"2026-06-03T15:29:41+02:00","context":null}},{"type":"field-modifications","id":"3d4e125b-4e44-4226-a393-0161ee3ae827","attributes":{"lei":"5299001ERX0K10IZUL40","recordType":"LEI","modificationType":"UPDATE","field":"\/lei:LEIData\/lei:LEIRecords\/lei:LEIRecord\/lei:Registration\/lei:LastUpdateDate","date":"2025-04-10T08:00:00Z","valueOld":"2024-04-27T12:15:30+02:00","valueNew":"2025-04-09T10:12:40+02:00","context":null}},{"type":"field-modifications","id":"f01ba705-cf96-4493-9dec-055640b8e8fd","attributes":{"lei":"5299001ERX0K10IZUL40","recordType":"LEI","modificationType":"UPDATE","field":"\/lei:LEIData\/lei:LEIRecords\/lei:LEIRecord\/lei:Entity\/lei:HeadquartersAddress\/@xml:lang","date":"2025-04-10T08:00:00Z","valueOld":"de-DE","valueNew":"de","context":null}},{"type":"field-modifications","id":"67e57ba6-b2f2-4303-9454-330a67897621","attributes":{"lei":"5299001ERX0K10IZUL40","recordType":"LEI","modificationType":"UPDATE","field":"\/lei:LEIData\/lei:LEIRecords\/lei:LEIRecord\/lei:Entity\/lei:LegalAddress\/@xml:lang","date":"2025-04-10T08:00:00Z","valueOld":"de-DE","valueNew":"de","context":null}},{"type":"field-modifications","id":"aa67b97b-9a49-4a03-a53b-6c98a4b639af","attributes":{"lei":"5299001ERX0K10IZUL40","recordType":"LEI","modificationType":"UPDATE","field":"\/lei:LEIData\/lei:LEIRecords\/lei:LEIRecord\/lei:Entity\/lei:LegalName\/@xml:lang","date":"2025-04-10T08:00:00Z","valueOld":"de-DE","valueNew":"de","context":null}},{"type":"field-modifications","id":"1ce73c3f-1e18-4b86-b0cd-2fbb67bd0c31","attributes":{"lei":"5299001ERX0K10IZUL40","recordType":"LEI","modificationType":"UPDATE","field":"\/lei:LEIData\/lei:LEIRecords\/lei:LEIRecord\/lei:Registration\/lei:NextRenewalDate","date":"2024-04-28T08:00:00Z","valueOld":"2024-06-03T15:29:41+02:00","valueNew":"2025-06-03T15:29:41+02:00","context":null}},{"type":"field-modifications","id":"77341d35-914b-4a0e-b276-75d2f35117b2","attributes":{"lei":"5299001ERX0K10IZUL40","recordType":"LEI","modificationType":"UPDATE","field":"\/lei:LEIData\/lei:LEIRecords\/lei:LEIRecord\/lei:Registration\/lei:LastUpdateDate","date":"2024-04-28T08:00:00Z","valueOld":"2023-04-19T11:49:51+02:00","valueNew":"2024-04-27T12:15:30+02:00","context":null}},{"type":"field-modifications","id":"9144badf-78ae-489d-98eb-5c4490bc89c5","attributes":{"lei":"5299001ERX0K10IZUL40","recordType":"LEI","modificationType":"INSERT","field":"\/lei:LEIData\/lei:LEIRecords\/lei:LEIRecord\/lei:Entity\/lei:LegalEntityEvents\/lei:LegalEntityEvent\/lei:ValidationDocuments","date":"2024-04-28T08:00:00Z","valueOld":null,"valueNew":"SUPPORTING_DOCUMENTS","context":null}},{"type":"field-modifications","id":"c1be19b9-c24d-40ba-add3-25ca09a34463","attributes":{"lei":"5299001ERX0K10IZUL40","recordType":"LEI","modificationType":"INSERT","field":"\/lei:LEIData\/lei:LEIRecords\/lei:LEIRecord\/lei:Entity\/lei:LegalEntityEvents\/lei:LegalEntityEvent\/lei:LegalEntityEventRecordedDate","date":"2024-04-28T08:00:00Z","valueOld":null,"valueNew":"2024-04-27T12:15:30+02:00","context":null}},{"type":"field-modifications","id":"eac9ec75-dd5e-4d32-b6dd-4c5fb4d11c3b","attributes":{"lei":"5299001ERX0K10IZUL40","recordType":"LEI","modificationType":"INSERT","field":"\/lei:LEIData\/lei:LEIRecords\/lei:LEIRecord\/lei:Entity\/lei:LegalEntityEvents\/lei:LegalEntityEvent\/lei:LegalEntityEventEffectiveDate","date":"2024-04-28T08:00:00Z","valueOld":null,"valueNew":"2024-04-27T00:00:00+02:00","context":null}},{"type":"field-modifications","id":"b04a2ca9-57e5-4a51-b318-6762ccbf9f7c","attributes":{"lei":"5299001ERX0K10IZUL40","recordType":"LEI","modificationType":"INSERT","field":"\/lei:LEIData\/lei:LEIRecords\/lei:LEIRecord\/lei:Entity\/lei:LegalEntityEvents\/lei:LegalEntityEvent\/lei:LegalEntityEventType","date":"2024-04-28T08:00:00Z","valueOld":null,"valueNew":"CHANGE_HQ_ADDRESS","context":null}},{"type":"field-modifications","id":"e78c3f8d-5556-422b-97f6-11dcacb45805","attributes":{"lei":"5299001ERX0K10IZUL40","recordType":"LEI","modificationType":"INSERT","field":"\/lei:LEIData\/lei:LEIRecords\/lei:LEIRecord\/lei:Entity\/lei:LegalEntityEvents\/lei:LegalEntityEvent\/@event_status","date":"2024-04-28T08:00:00Z","valueOld":null,"valueNew":"COMPLETED","context":null}},{"type":"field-modifications","id":"3cb6b9c8-dee8-420e-9278-bef1975991e7","attributes":{"lei":"5299001ERX0K10IZUL40","recordType":"LEI","modificationType":"INSERT","field":"\/lei:LEIData\/lei:LEIRecords\/lei:LEIRecord\/lei:Entity\/lei:LegalEntityEvents\/lei:LegalEntityEvent\/@group_type","date":"2024-04-28T08:00:00Z","valueOld":null,"valueNew":"STANDALONE","context":null}},{"type":"field-modifications","id":"6c605dec-ee0b-4756-afec-051ee37bcd45","attributes":{"lei":"5299001ERX0K10IZUL40","recordType":"LEI","modificationType":"UPDATE","field":"\/lei:LEIData\/lei:LEIRecords\/lei:LEIRecord\/lei:Entity\/lei:HeadquartersAddress\/lei:FirstAddressLine","date":"2024-04-28T08:00:00Z","valueOld":"Flughafen, Geb. 162","valueNew":"Flughafen,Geb. 178","context":null}},{"type":"field-modifications","id":"f0c14359-04b5-4ff1-8216-f5727f1a8a5a","attributes":{"lei":"5299001ERX0K10IZUL40","recordType":"LEI","modificationType":"UPDATE","field":"\/lei:LEIData\/lei:LEIRecords\/lei:LEIRecord\/lei:Entity\/lei:LegalAddress\/lei:FirstAddressLine","date":"2024-04-28T08:00:00Z","valueOld":"Flughafen, Geb. 178","valueNew":"Flughafen,Geb. 178","context":null}}]}