{"meta":{"goldenCopy":{"publishDate":"2025-05-11T00:00:00Z"},"pagination":{"currentPage":1,"perPage":15,"from":1,"to":15,"total":110,"lastPage":8}},"links":{"first":"https:\/\/api.gleif.org\/api\/v1\/lei-records\/INR2EJN1ERAN0W5ZP974\/field-modifications?page%5Bnumber%5D=1&page%5Bsize%5D=15","next":"https:\/\/api.gleif.org\/api\/v1\/lei-records\/INR2EJN1ERAN0W5ZP974\/field-modifications?page%5Bnumber%5D=2&page%5Bsize%5D=15","last":"https:\/\/api.gleif.org\/api\/v1\/lei-records\/INR2EJN1ERAN0W5ZP974\/field-modifications?page%5Bnumber%5D=8&page%5Bsize%5D=15"},"data":[{"type":"field-modifications","id":"f428b5fb-c4a7-4b0a-9b02-0ed3c34862f4","attributes":{"lei":"INR2EJN1ERAN0W5ZP974","recordType":"LEI","modificationType":"UPDATE","field":"\/lei:LEIData\/lei:LEIRecords\/lei:LEIRecord\/lei:Registration\/lei:NextRenewalDate","date":"2025-03-29T00:00:00Z","valueOld":"2025-05-04T00:00:00Z","valueNew":"2026-05-04T00:00:00Z","context":null}},{"type":"field-modifications","id":"acb04d64-f6b5-4259-a520-a8adbefa3f35","attributes":{"lei":"INR2EJN1ERAN0W5ZP974","recordType":"LEI","modificationType":"UPDATE","field":"\/lei:LEIData\/lei:LEIRecords\/lei:LEIRecord\/lei:Registration\/lei:LastUpdateDate","date":"2025-03-29T00:00:00Z","valueOld":"2024-04-09T10:30:37.073Z","valueNew":"2025-03-28T08:58:24.047Z","context":null}},{"type":"field-modifications","id":"8a607d67-a003-494e-9842-2650745a5d35","attributes":{"lei":"INR2EJN1ERAN0W5ZP974","recordType":"LEI","modificationType":"UPDATE","field":"\/lei:LEIData\/lei:LEIRecords\/lei:LEIRecord\/lei:Registration\/lei:NextRenewalDate","date":"2024-04-10T00:00:00Z","valueOld":"2024-05-04T00:00:00Z","valueNew":"2025-05-04T00:00:00Z","context":null}},{"type":"field-modifications","id":"47beab61-d407-4afa-accc-91f6e81c507a","attributes":{"lei":"INR2EJN1ERAN0W5ZP974","recordType":"LEI","modificationType":"UPDATE","field":"\/lei:LEIData\/lei:LEIRecords\/lei:LEIRecord\/lei:Registration\/lei:LastUpdateDate","date":"2024-04-10T00:00:00Z","valueOld":"2023-09-14T06:48:51.893Z","valueNew":"2024-04-09T10:30:37.073Z","context":null}},{"type":"field-modifications","id":"47f2a404-7d9b-4430-854a-0a727f790e77","attributes":{"lei":"INR2EJN1ERAN0W5ZP974","recordType":"REPEX","modificationType":"UPDATE","field":"\/repex:ReportingExceptionData\/repex:ReportingExceptions\/repex:Exception\/repex:ExceptionReason","date":"2024-04-10T00:00:00Z","valueOld":"NO_KNOWN_PERSON","valueNew":"NON_CONSOLIDATING","context":{"exceptionCategory":"ULTIMATE_ACCOUNTING_CONSOLIDATION_PARENT"}}},{"type":"field-modifications","id":"646f5619-83c3-4ae6-b569-5d6a20b6af0b","attributes":{"lei":"INR2EJN1ERAN0W5ZP974","recordType":"REPEX","modificationType":"UPDATE","field":"\/repex:ReportingExceptionData\/repex:ReportingExceptions\/repex:Exception\/repex:ExceptionReason","date":"2024-04-10T00:00:00Z","valueOld":"NO_KNOWN_PERSON","valueNew":"NON_CONSOLIDATING","context":{"exceptionCategory":"DIRECT_ACCOUNTING_CONSOLIDATION_PARENT"}}},{"type":"field-modifications","id":"7f9b0e97-6b66-4f0a-bb2c-f1d2ba56a078","attributes":{"lei":"INR2EJN1ERAN0W5ZP974","recordType":"LEI","modificationType":"UPDATE","field":"\/lei:LEIData\/lei:LEIRecords\/lei:LEIRecord\/lei:Registration\/lei:ManagingLOU","date":"2023-09-15T00:00:00Z","valueOld":"5493001KJTIIGC8Y1R12","valueNew":"213800WAVVOPS85N2205","context":null}},{"type":"field-modifications","id":"7b0a655a-8e3d-47ab-a0fd-30ea025cdb5f","attributes":{"lei":"INR2EJN1ERAN0W5ZP974","recordType":"LEI","modificationType":"UPDATE","field":"\/lei:LEIData\/lei:LEIRecords\/lei:LEIRecord\/lei:Registration\/lei:NextRenewalDate","date":"2023-09-15T00:00:00Z","valueOld":"2024-05-04T17:44:46.483Z","valueNew":"2024-05-04T00:00:00Z","context":null}},{"type":"field-modifications","id":"5ae57e7b-1d4e-4f93-9f34-59147bce7405","attributes":{"lei":"INR2EJN1ERAN0W5ZP974","recordType":"LEI","modificationType":"UPDATE","field":"\/lei:LEIData\/lei:LEIRecords\/lei:LEIRecord\/lei:Registration\/lei:RegistrationStatus","date":"2023-09-15T00:00:00Z","valueOld":"PENDING_ARCHIVAL","valueNew":"ISSUED","context":null}},{"type":"field-modifications","id":"f5f029b3-e3ba-41f3-82c3-197856292a02","attributes":{"lei":"INR2EJN1ERAN0W5ZP974","recordType":"LEI","modificationType":"UPDATE","field":"\/lei:LEIData\/lei:LEIRecords\/lei:LEIRecord\/lei:Registration\/lei:LastUpdateDate","date":"2023-09-15T00:00:00Z","valueOld":"2023-08-28T14:17:30.415Z","valueNew":"2023-09-14T06:48:51.893Z","context":null}},{"type":"field-modifications","id":"fbf79e96-4df8-4a1e-b758-1bf0b7bdbcc8","attributes":{"lei":"INR2EJN1ERAN0W5ZP974","recordType":"LEI","modificationType":"UPDATE","field":"\/lei:LEIData\/lei:LEIRecords\/lei:LEIRecord\/lei:Registration\/lei:InitialRegistrationDate","date":"2023-09-15T00:00:00Z","valueOld":"2012-06-06T15:55:00.000Z","valueNew":"2012-06-06T15:55:00Z","context":null}},{"type":"field-modifications","id":"841f4d50-f845-4020-bdfb-3c0bc088e7ca","attributes":{"lei":"INR2EJN1ERAN0W5ZP974","recordType":"LEI","modificationType":"UPDATE","field":"\/lei:LEIData\/lei:LEIRecords\/lei:LEIRecord\/lei:Entity\/lei:EntityCreationDate","date":"2023-09-15T00:00:00Z","valueOld":"1993-09-21T05:00:00.000Z","valueNew":"1993-09-22T00:00:00Z","context":null}},{"type":"field-modifications","id":"094afc6c-96d6-4dd7-a99b-fae99d35261e","attributes":{"lei":"INR2EJN1ERAN0W5ZP974","recordType":"LEI","modificationType":"UPDATE","field":"\/lei:LEIData\/lei:LEIRecords\/lei:LEIRecord\/lei:Entity\/lei:HeadquartersAddress\/lei:City","date":"2023-09-15T00:00:00Z","valueOld":"Redmond","valueNew":"REDMOND","context":null}},{"type":"field-modifications","id":"8828683c-ab7a-4fd1-b147-77ab424d594d","attributes":{"lei":"INR2EJN1ERAN0W5ZP974","recordType":"LEI","modificationType":"UPDATE","field":"\/lei:LEIData\/lei:LEIRecords\/lei:LEIRecord\/lei:Entity\/lei:HeadquartersAddress\/lei:FirstAddressLine","date":"2023-09-15T00:00:00Z","valueOld":"1 Microsoft Way","valueNew":"ONE MICROSOFT WAY","context":null}},{"type":"field-modifications","id":"7d5480b7-0f07-4dcd-bbeb-8968a742bc28","attributes":{"lei":"INR2EJN1ERAN0W5ZP974","recordType":"LEI","modificationType":"UPDATE","field":"\/lei:LEIData\/lei:LEIRecords\/lei:LEIRecord\/lei:Registration\/lei:RegistrationStatus","date":"2023-08-29T00:00:00Z","valueOld":"PENDING_TRANSFER","valueNew":"PENDING_ARCHIVAL","context":null}}]}