{"meta":{"goldenCopy":{"publishDate":"2025-05-15T00:00:00Z"},"pagination":{"currentPage":1,"perPage":15,"from":1,"to":15,"total":39,"lastPage":3}},"links":{"first":"https:\/\/api.gleif.org\/api\/v1\/lei-records\/335800CCCPHKUOXPC332\/field-modifications?page%5Bnumber%5D=1&page%5Bsize%5D=15","next":"https:\/\/api.gleif.org\/api\/v1\/lei-records\/335800CCCPHKUOXPC332\/field-modifications?page%5Bnumber%5D=2&page%5Bsize%5D=15","last":"https:\/\/api.gleif.org\/api\/v1\/lei-records\/335800CCCPHKUOXPC332\/field-modifications?page%5Bnumber%5D=3&page%5Bsize%5D=15"},"data":[{"type":"field-modifications","id":"28b02c17-d9b4-4d94-a44d-698c96c9615a","attributes":{"lei":"335800CCCPHKUOXPC332","recordType":"LEI","modificationType":"UPDATE","field":"\/lei:LEIData\/lei:LEIRecords\/lei:LEIRecord\/lei:Registration\/lei:RegistrationStatus","date":"2025-05-11T08:00:00Z","valueOld":"ISSUED","valueNew":"LAPSED","context":null}},{"type":"field-modifications","id":"8bc754f2-307c-4d75-9939-9f04945a31a8","attributes":{"lei":"335800CCCPHKUOXPC332","recordType":"LEI","modificationType":"INITIAL","field":"\/lei:LEIData\/lei:LEIRecords\/lei:LEIRecord\/lei:Registration\/lei:ValidationAuthority\/lei:ValidationAuthorityEntityID","date":"2024-05-10T16:00:00Z","valueOld":null,"valueNew":"33AFNPA6606E1ZV","context":null}},{"type":"field-modifications","id":"1ce264c9-b249-4576-ba6c-3808a754d477","attributes":{"lei":"335800CCCPHKUOXPC332","recordType":"LEI","modificationType":"INITIAL","field":"\/lei:LEIData\/lei:LEIRecords\/lei:LEIRecord\/lei:Registration\/lei:ValidationAuthority\/lei:ValidationAuthorityID","date":"2024-05-10T16:00:00Z","valueOld":null,"valueNew":"RA000754","context":null}},{"type":"field-modifications","id":"e886be7c-790f-4a5e-8c17-e26a0e42395a","attributes":{"lei":"335800CCCPHKUOXPC332","recordType":"LEI","modificationType":"INITIAL","field":"\/lei:LEIData\/lei:LEIRecords\/lei:LEIRecord\/lei:Registration\/lei:ValidationSources","date":"2024-05-10T16:00:00Z","valueOld":null,"valueNew":"FULLY_CORROBORATED","context":null}},{"type":"field-modifications","id":"7fcd47df-b45a-433b-858d-87f7b386ac1d","attributes":{"lei":"335800CCCPHKUOXPC332","recordType":"LEI","modificationType":"INITIAL","field":"\/lei:LEIData\/lei:LEIRecords\/lei:LEIRecord\/lei:Registration\/lei:ManagingLOU","date":"2024-05-10T16:00:00Z","valueOld":null,"valueNew":"335800FVH4MOKZS9VH40","context":null}},{"type":"field-modifications","id":"bb939eac-85d7-4db6-8e09-bfd63b2c2eaf","attributes":{"lei":"335800CCCPHKUOXPC332","recordType":"LEI","modificationType":"INITIAL","field":"\/lei:LEIData\/lei:LEIRecords\/lei:LEIRecord\/lei:Registration\/lei:NextRenewalDate","date":"2024-05-10T16:00:00Z","valueOld":null,"valueNew":"2025-05-10T10:37:03.15Z","context":null}},{"type":"field-modifications","id":"d643f6b8-f2ce-413f-abbe-770a69bea0bd","attributes":{"lei":"335800CCCPHKUOXPC332","recordType":"LEI","modificationType":"INITIAL","field":"\/lei:LEIData\/lei:LEIRecords\/lei:LEIRecord\/lei:Registration\/lei:RegistrationStatus","date":"2024-05-10T16:00:00Z","valueOld":null,"valueNew":"ISSUED","context":null}},{"type":"field-modifications","id":"228f25a9-7560-4e97-aea6-74f4715212fc","attributes":{"lei":"335800CCCPHKUOXPC332","recordType":"LEI","modificationType":"INITIAL","field":"\/lei:LEIData\/lei:LEIRecords\/lei:LEIRecord\/lei:Registration\/lei:LastUpdateDate","date":"2024-05-10T16:00:00Z","valueOld":null,"valueNew":"2024-05-10T10:37:03.15Z","context":null}},{"type":"field-modifications","id":"c5052ab8-45aa-4abf-b9da-0e7e444b4ab3","attributes":{"lei":"335800CCCPHKUOXPC332","recordType":"LEI","modificationType":"INITIAL","field":"\/lei:LEIData\/lei:LEIRecords\/lei:LEIRecord\/lei:Registration\/lei:InitialRegistrationDate","date":"2024-05-10T16:00:00Z","valueOld":null,"valueNew":"2024-05-10T10:37:03.15Z","context":null}},{"type":"field-modifications","id":"c7178f46-7be5-4891-813e-b95cd62dc365","attributes":{"lei":"335800CCCPHKUOXPC332","recordType":"LEI","modificationType":"INITIAL","field":"\/lei:LEIData\/lei:LEIRecords\/lei:LEIRecord\/lei:Entity\/lei:EntityCreationDate","date":"2024-05-10T16:00:00Z","valueOld":null,"valueNew":"2017-06-30T18:30:00.001Z","context":null}},{"type":"field-modifications","id":"e772c902-6f12-4dcf-8168-783d0d87bdc1","attributes":{"lei":"335800CCCPHKUOXPC332","recordType":"LEI","modificationType":"INITIAL","field":"\/lei:LEIData\/lei:LEIRecords\/lei:LEIRecord\/lei:Entity\/lei:EntityStatus","date":"2024-05-10T16:00:00Z","valueOld":null,"valueNew":"ACTIVE","context":null}},{"type":"field-modifications","id":"7aea847b-f022-4cde-9155-7f3b334438fe","attributes":{"lei":"335800CCCPHKUOXPC332","recordType":"LEI","modificationType":"INITIAL","field":"\/lei:LEIData\/lei:LEIRecords\/lei:LEIRecord\/lei:Entity\/lei:LegalForm\/lei:EntityLegalFormCode","date":"2024-05-10T16:00:00Z","valueOld":null,"valueNew":"4QIE","context":null}},{"type":"field-modifications","id":"54fa60cf-8cad-420e-8183-f2ca2ac9928b","attributes":{"lei":"335800CCCPHKUOXPC332","recordType":"LEI","modificationType":"INITIAL","field":"\/lei:LEIData\/lei:LEIRecords\/lei:LEIRecord\/lei:Entity\/lei:EntityCategory","date":"2024-05-10T16:00:00Z","valueOld":null,"valueNew":"SOLE_PROPRIETOR","context":null}},{"type":"field-modifications","id":"257d78a1-174e-4f8c-9325-d73952bbea7d","attributes":{"lei":"335800CCCPHKUOXPC332","recordType":"LEI","modificationType":"INITIAL","field":"\/lei:LEIData\/lei:LEIRecords\/lei:LEIRecord\/lei:Entity\/lei:LegalJurisdiction","date":"2024-05-10T16:00:00Z","valueOld":null,"valueNew":"IN","context":null}},{"type":"field-modifications","id":"e0211f94-44c1-4fc8-b19d-714d00ce8ba4","attributes":{"lei":"335800CCCPHKUOXPC332","recordType":"LEI","modificationType":"INITIAL","field":"\/lei:LEIData\/lei:LEIRecords\/lei:LEIRecord\/lei:Entity\/lei:RegistrationAuthority\/lei:RegistrationAuthorityEntityID","date":"2024-05-10T16:00:00Z","valueOld":null,"valueNew":"33AFNPA6606E1ZV","context":null}}]}