{"meta":{"goldenCopy":{"publishDate":"2025-05-15T00:00:00Z"},"pagination":{"currentPage":1,"perPage":15,"from":1,"to":15,"total":328,"lastPage":22}},"links":{"first":"https:\/\/api.gleif.org\/api\/v1\/lei-records\/549300YX4S1LLSMK2627\/field-modifications?page%5Bnumber%5D=1&page%5Bsize%5D=15","next":"https:\/\/api.gleif.org\/api\/v1\/lei-records\/549300YX4S1LLSMK2627\/field-modifications?page%5Bnumber%5D=2&page%5Bsize%5D=15","last":"https:\/\/api.gleif.org\/api\/v1\/lei-records\/549300YX4S1LLSMK2627\/field-modifications?page%5Bnumber%5D=22&page%5Bsize%5D=15"},"data":[{"type":"field-modifications","id":"ff308774-651c-4f67-a671-f4d6a3e5dad9","attributes":{"lei":"549300YX4S1LLSMK2627","recordType":"LEI","modificationType":"UPDATE","field":"\/lei:LEIData\/lei:LEIRecords\/lei:LEIRecord\/lei:Registration\/lei:NextRenewalDate","date":"2025-03-05T00:00:00Z","valueOld":"2025-04-08T17:20:49.676Z","valueNew":"2026-03-08T17:20:49.676Z","context":null}},{"type":"field-modifications","id":"7013481b-6270-4b3a-a674-70ca2f0dd15c","attributes":{"lei":"549300YX4S1LLSMK2627","recordType":"LEI","modificationType":"UPDATE","field":"\/lei:LEIData\/lei:LEIRecords\/lei:LEIRecord\/lei:Registration\/lei:LastUpdateDate","date":"2025-03-05T00:00:00Z","valueOld":"2024-04-04T11:27:34.210Z","valueNew":"2025-03-04T16:01:46.072Z","context":null}},{"type":"field-modifications","id":"563dca11-f8ac-481b-a8a7-b6af6b3ba8c5","attributes":{"lei":"549300YX4S1LLSMK2627","recordType":"LEI","modificationType":"UPDATE","field":"\/lei:LEIData\/lei:LEIRecords\/lei:LEIRecord\/lei:Entity\/lei:LegalAddress\/lei:City","date":"2025-03-05T00:00:00Z","valueOld":"WILMINGTON","valueNew":"Wilmington","context":null}},{"type":"field-modifications","id":"84742e62-eb32-4bf6-8985-1329f04cf425","attributes":{"lei":"549300YX4S1LLSMK2627","recordType":"LEI","modificationType":"UPDATE","field":"\/lei:LEIData\/lei:LEIRecords\/lei:LEIRecord\/lei:Entity\/lei:LegalAddress\/lei:AdditionalAddressLine","date":"2025-03-05T00:00:00Z","valueOld":"1209 ORANGE STREET","valueNew":"1209 Orange Street","context":null}},{"type":"field-modifications","id":"52ebaa3e-7cf0-4276-9a73-949f7fa67596","attributes":{"lei":"549300YX4S1LLSMK2627","recordType":"LEI","modificationType":"UPDATE","field":"\/lei:LEIData\/lei:LEIRecords\/lei:LEIRecord\/lei:Entity\/lei:LegalAddress\/lei:AdditionalAddressLine","date":"2025-03-05T00:00:00Z","valueOld":"CORPORATION TRUST CENTER","valueNew":"Corporation Trust Center","context":null}},{"type":"field-modifications","id":"716b5acc-1c50-4233-9e70-6021895adc1f","attributes":{"lei":"549300YX4S1LLSMK2627","recordType":"RR","modificationType":"UPDATE","field":"\/rr:RelationshipData\/rr:RelationshipRecords\/rr:RelationshipRecord\/rr:Registration\/rr:NextRenewalDate","date":"2025-03-05T00:00:00Z","valueOld":"2025-04-08T17:20:49.676Z","valueNew":"2026-03-08T17:20:49.676Z","context":{"relationshipType":"IS_DIRECTLY_CONSOLIDATED_BY","endNode":"HWUPKR0MPOU8FGXBT394"}}},{"type":"field-modifications","id":"554eb991-dd4b-4b8e-b59f-e20cb8cad56b","attributes":{"lei":"549300YX4S1LLSMK2627","recordType":"RR","modificationType":"UPDATE","field":"\/rr:RelationshipData\/rr:RelationshipRecords\/rr:RelationshipRecord\/rr:Registration\/rr:NextRenewalDate","date":"2025-03-05T00:00:00Z","valueOld":"2025-04-08T17:20:49.676Z","valueNew":"2026-03-08T17:20:49.676Z","context":{"relationshipType":"IS_ULTIMATELY_CONSOLIDATED_BY","endNode":"HWUPKR0MPOU8FGXBT394"}}},{"type":"field-modifications","id":"52b0fffb-1718-4a08-80c1-563ee392866b","attributes":{"lei":"549300YX4S1LLSMK2627","recordType":"LEI","modificationType":"UPDATE","field":"\/lei:LEIData\/lei:LEIRecords\/lei:LEIRecord\/lei:Entity\/lei:LegalAddress\/lei:FirstAddressLine","date":"2025-03-05T00:00:00Z","valueOld":"C\/O THE CORPORATION TRUST COMPANY","valueNew":"c\/o The Corporation Trust Company","context":null}},{"type":"field-modifications","id":"5f48ee94-eb5a-452e-a42c-cae32e1ca8ce","attributes":{"lei":"549300YX4S1LLSMK2627","recordType":"RR","modificationType":"UPDATE","field":"\/rr:RelationshipData\/rr:RelationshipRecords\/rr:RelationshipRecord\/rr:Registration\/rr:LastUpdateDate","date":"2025-03-05T00:00:00Z","valueOld":"2024-04-04T11:27:34.226Z","valueNew":"2025-03-04T16:01:46.109Z","context":{"relationshipType":"IS_ULTIMATELY_CONSOLIDATED_BY","endNode":"HWUPKR0MPOU8FGXBT394"}}},{"type":"field-modifications","id":"205fdf8f-3621-48fb-b45f-5930338685af","attributes":{"lei":"549300YX4S1LLSMK2627","recordType":"RR","modificationType":"UPDATE","field":"\/rr:RelationshipData\/rr:RelationshipRecords\/rr:RelationshipRecord\/rr:Registration\/rr:LastUpdateDate","date":"2025-03-05T00:00:00Z","valueOld":"2024-04-04T11:27:34.226Z","valueNew":"2025-03-04T16:01:46.108Z","context":{"relationshipType":"IS_DIRECTLY_CONSOLIDATED_BY","endNode":"HWUPKR0MPOU8FGXBT394"}}},{"type":"field-modifications","id":"efb977e1-2f93-40be-9a8e-c040526bc31c","attributes":{"lei":"549300YX4S1LLSMK2627","recordType":"LEI","modificationType":"UPDATE","field":"\/lei:LEIData\/lei:LEIRecords\/lei:LEIRecord\/lei:Registration\/lei:NextRenewalDate","date":"2024-04-05T00:00:00Z","valueOld":"2024-05-08T17:20:49.676Z","valueNew":"2025-04-08T17:20:49.676Z","context":null}},{"type":"field-modifications","id":"7209e9be-7632-4555-b622-e85ef87ba63e","attributes":{"lei":"549300YX4S1LLSMK2627","recordType":"RR","modificationType":"UPDATE","field":"\/rr:RelationshipData\/rr:RelationshipRecords\/rr:RelationshipRecord\/rr:Registration\/rr:NextRenewalDate","date":"2024-04-05T00:00:00Z","valueOld":"2024-05-08T17:20:49.676Z","valueNew":"2025-04-08T17:20:49.676Z","context":{"relationshipType":"IS_DIRECTLY_CONSOLIDATED_BY","endNode":"HWUPKR0MPOU8FGXBT394"}}},{"type":"field-modifications","id":"f08674e6-d4fb-4862-8250-c303d87e2a11","attributes":{"lei":"549300YX4S1LLSMK2627","recordType":"RR","modificationType":"UPDATE","field":"\/rr:RelationshipData\/rr:RelationshipRecords\/rr:RelationshipRecord\/rr:Registration\/rr:NextRenewalDate","date":"2024-04-05T00:00:00Z","valueOld":"2024-05-08T17:20:49.676Z","valueNew":"2025-04-08T17:20:49.676Z","context":{"relationshipType":"IS_ULTIMATELY_CONSOLIDATED_BY","endNode":"HWUPKR0MPOU8FGXBT394"}}},{"type":"field-modifications","id":"4a01f007-2ae3-4a65-86db-eb5fa7aa6958","attributes":{"lei":"549300YX4S1LLSMK2627","recordType":"LEI","modificationType":"UPDATE","field":"\/lei:LEIData\/lei:LEIRecords\/lei:LEIRecord\/lei:Registration\/lei:LastUpdateDate","date":"2024-04-05T00:00:00Z","valueOld":"2023-08-28T11:41:05.286Z","valueNew":"2024-04-04T11:27:34.210Z","context":null}},{"type":"field-modifications","id":"d210cc8f-0728-45c8-8c70-a4316101a57c","attributes":{"lei":"549300YX4S1LLSMK2627","recordType":"RR","modificationType":"UPDATE","field":"\/rr:RelationshipData\/rr:RelationshipRecords\/rr:RelationshipRecord\/rr:Registration\/rr:LastUpdateDate","date":"2024-04-05T00:00:00Z","valueOld":"2023-08-28T11:41:05.296Z","valueNew":"2024-04-04T11:27:34.226Z","context":{"relationshipType":"IS_DIRECTLY_CONSOLIDATED_BY","endNode":"HWUPKR0MPOU8FGXBT394"}}}]}