{"meta":{"goldenCopy":{"publishDate":"2025-05-15T00:00:00Z"},"pagination":{"currentPage":1,"perPage":15,"from":1,"to":15,"total":154,"lastPage":11}},"links":{"first":"https:\/\/api.gleif.org\/api\/v1\/lei-records\/5493001KJTIIGC8Y1R12\/field-modifications?page%5Bnumber%5D=1&page%5Bsize%5D=15","next":"https:\/\/api.gleif.org\/api\/v1\/lei-records\/5493001KJTIIGC8Y1R12\/field-modifications?page%5Bnumber%5D=2&page%5Bsize%5D=15","last":"https:\/\/api.gleif.org\/api\/v1\/lei-records\/5493001KJTIIGC8Y1R12\/field-modifications?page%5Bnumber%5D=11&page%5Bsize%5D=15"},"data":[{"type":"field-modifications","id":"9c385dc9-1fbd-4683-9b7b-d4f5b776e41f","attributes":{"lei":"5493001KJTIIGC8Y1R12","recordType":"RR","modificationType":"UPDATE","field":"\/rr:RelationshipData\/rr:RelationshipRecords\/rr:RelationshipRecord\/rr:Registration\/rr:LastUpdateDate","date":"2025-03-14T00:00:00Z","valueOld":"2025-03-12T02:31:07.784Z","valueNew":"2025-03-13T18:39:27.218Z","context":{"relationshipType":"IS_DIRECTLY_CONSOLIDATED_BY","endNode":"549300B56MD0ZC402L06"}}},{"type":"field-modifications","id":"683c9b07-ab00-473e-b892-75452d36f3a2","attributes":{"lei":"5493001KJTIIGC8Y1R12","recordType":"RR","modificationType":"UPDATE","field":"\/rr:RelationshipData\/rr:RelationshipRecords\/rr:RelationshipRecord\/rr:Registration\/rr:LastUpdateDate","date":"2025-03-14T00:00:00Z","valueOld":"2025-03-12T02:31:07.784Z","valueNew":"2025-03-13T18:39:27.218Z","context":{"relationshipType":"IS_ULTIMATELY_CONSOLIDATED_BY","endNode":"549300RMUDWPHCUQNE66"}}},{"type":"field-modifications","id":"cf6dab72-9f72-403c-821d-cf268524e4c5","attributes":{"lei":"5493001KJTIIGC8Y1R12","recordType":"RR","modificationType":"UPDATE","field":"\/rr:RelationshipData\/rr:RelationshipRecords\/rr:RelationshipRecord\/rr:Registration\/rr:LastUpdateDate","date":"2025-03-13T00:00:00Z","valueOld":"2025-02-07T16:17:37.990Z","valueNew":"2025-03-12T02:31:07.784Z","context":{"relationshipType":"IS_DIRECTLY_CONSOLIDATED_BY","endNode":"549300B56MD0ZC402L06"}}},{"type":"field-modifications","id":"cac97339-66db-4497-93f0-46bc912b1e17","attributes":{"lei":"5493001KJTIIGC8Y1R12","recordType":"RR","modificationType":"UPDATE","field":"\/rr:RelationshipData\/rr:RelationshipRecords\/rr:RelationshipRecord\/rr:Registration\/rr:LastUpdateDate","date":"2025-03-13T00:00:00Z","valueOld":"2025-02-07T16:17:37.990Z","valueNew":"2025-03-12T02:31:07.784Z","context":{"relationshipType":"IS_ULTIMATELY_CONSOLIDATED_BY","endNode":"549300RMUDWPHCUQNE66"}}},{"type":"field-modifications","id":"952a3ece-44d8-400a-803e-6c2586a52305","attributes":{"lei":"5493001KJTIIGC8Y1R12","recordType":"RR","modificationType":"UPDATE","field":"\/rr:RelationshipData\/rr:RelationshipRecords\/rr:RelationshipRecord\/rr:Registration\/rr:LastUpdateDate","date":"2025-02-08T00:00:00Z","valueOld":"2025-01-06T14:35:04.309Z","valueNew":"2025-02-07T16:17:37.990Z","context":{"relationshipType":"IS_DIRECTLY_CONSOLIDATED_BY","endNode":"549300B56MD0ZC402L06"}}},{"type":"field-modifications","id":"8a7ac70c-7163-4ed3-bf89-45e880480c44","attributes":{"lei":"5493001KJTIIGC8Y1R12","recordType":"RR","modificationType":"UPDATE","field":"\/rr:RelationshipData\/rr:RelationshipRecords\/rr:RelationshipRecord\/rr:Registration\/rr:LastUpdateDate","date":"2025-02-08T00:00:00Z","valueOld":"2025-01-06T14:35:04.309Z","valueNew":"2025-02-07T16:17:37.990Z","context":{"relationshipType":"IS_ULTIMATELY_CONSOLIDATED_BY","endNode":"549300RMUDWPHCUQNE66"}}},{"type":"field-modifications","id":"c7af0449-0df2-430f-9042-edef576ba460","attributes":{"lei":"5493001KJTIIGC8Y1R12","recordType":"LEI","modificationType":"UPDATE","field":"\/lei:LEIData\/lei:LEIRecords\/lei:LEIRecord\/lei:Registration\/lei:NextRenewalDate","date":"2025-01-07T00:00:00Z","valueOld":"2025-01-25T16:50:02.081Z","valueNew":"2026-01-25T16:50:02.081Z","context":null}},{"type":"field-modifications","id":"cd3b419f-4732-4886-9949-95995c6e4359","attributes":{"lei":"5493001KJTIIGC8Y1R12","recordType":"RR","modificationType":"UPDATE","field":"\/rr:RelationshipData\/rr:RelationshipRecords\/rr:RelationshipRecord\/rr:Registration\/rr:NextRenewalDate","date":"2025-01-07T00:00:00Z","valueOld":"2025-01-25T16:50:02.081Z","valueNew":"2026-01-25T16:50:02.081Z","context":{"relationshipType":"IS_DIRECTLY_CONSOLIDATED_BY","endNode":"549300B56MD0ZC402L06"}}},{"type":"field-modifications","id":"7ee99285-2cdb-4c9d-acd5-478d74db12ec","attributes":{"lei":"5493001KJTIIGC8Y1R12","recordType":"RR","modificationType":"UPDATE","field":"\/rr:RelationshipData\/rr:RelationshipRecords\/rr:RelationshipRecord\/rr:Registration\/rr:NextRenewalDate","date":"2025-01-07T00:00:00Z","valueOld":"2025-01-25T16:50:02.081Z","valueNew":"2026-01-25T16:50:02.081Z","context":{"relationshipType":"IS_ULTIMATELY_CONSOLIDATED_BY","endNode":"549300RMUDWPHCUQNE66"}}},{"type":"field-modifications","id":"1bfc8574-3769-4dc8-ab04-84f92ab61e06","attributes":{"lei":"5493001KJTIIGC8Y1R12","recordType":"LEI","modificationType":"UPDATE","field":"\/lei:LEIData\/lei:LEIRecords\/lei:LEIRecord\/lei:Registration\/lei:LastUpdateDate","date":"2025-01-07T00:00:00Z","valueOld":"2024-01-08T15:39:05.667Z","valueNew":"2025-01-06T14:35:04.284Z","context":null}},{"type":"field-modifications","id":"d0731bb6-35cd-4de6-8633-85024af38a9b","attributes":{"lei":"5493001KJTIIGC8Y1R12","recordType":"RR","modificationType":"UPDATE","field":"\/rr:RelationshipData\/rr:RelationshipRecords\/rr:RelationshipRecord\/rr:Registration\/rr:LastUpdateDate","date":"2025-01-07T00:00:00Z","valueOld":"2024-01-08T15:39:05.693Z","valueNew":"2025-01-06T14:35:04.309Z","context":{"relationshipType":"IS_DIRECTLY_CONSOLIDATED_BY","endNode":"549300B56MD0ZC402L06"}}},{"type":"field-modifications","id":"038c19c0-7072-428b-9c5e-6d4cb80f3e0f","attributes":{"lei":"5493001KJTIIGC8Y1R12","recordType":"RR","modificationType":"UPDATE","field":"\/rr:RelationshipData\/rr:RelationshipRecords\/rr:RelationshipRecord\/rr:Registration\/rr:LastUpdateDate","date":"2025-01-07T00:00:00Z","valueOld":"2024-01-08T15:39:05.693Z","valueNew":"2025-01-06T14:35:04.309Z","context":{"relationshipType":"IS_ULTIMATELY_CONSOLIDATED_BY","endNode":"549300RMUDWPHCUQNE66"}}},{"type":"field-modifications","id":"69bd6711-7032-4902-b50e-91cb72be8e8b","attributes":{"lei":"5493001KJTIIGC8Y1R12","recordType":"LEI","modificationType":"UPDATE","field":"\/lei:LEIData\/lei:LEIRecords\/lei:LEIRecord\/lei:Registration\/lei:NextRenewalDate","date":"2024-01-09T00:00:00Z","valueOld":"2024-01-25T16:50:02.081Z","valueNew":"2025-01-25T16:50:02.081Z","context":null}},{"type":"field-modifications","id":"4ef6a210-3bdf-406f-b13d-82c60d539cf3","attributes":{"lei":"5493001KJTIIGC8Y1R12","recordType":"LEI","modificationType":"UPDATE","field":"\/lei:LEIData\/lei:LEIRecords\/lei:LEIRecord\/lei:Registration\/lei:LastUpdateDate","date":"2024-01-09T00:00:00Z","valueOld":"2023-01-26T15:01:35.069Z","valueNew":"2024-01-08T15:39:05.667Z","context":null}},{"type":"field-modifications","id":"559b2d42-107a-46a0-9c2d-f6c2c5e74b32","attributes":{"lei":"5493001KJTIIGC8Y1R12","recordType":"RR","modificationType":"UPDATE","field":"\/rr:RelationshipData\/rr:RelationshipRecords\/rr:RelationshipRecord\/rr:Registration\/rr:NextRenewalDate","date":"2024-01-09T00:00:00Z","valueOld":"2024-01-25T16:50:02.081Z","valueNew":"2025-01-25T16:50:02.081Z","context":{"relationshipType":"IS_DIRECTLY_CONSOLIDATED_BY","endNode":"549300B56MD0ZC402L06"}}}]}