{"meta":{"goldenCopy":{"publishDate":"2025-05-11T00:00:00Z"},"pagination":{"currentPage":1,"perPage":15,"from":1,"to":15,"total":76,"lastPage":6}},"links":{"first":"https:\/\/api.gleif.org\/api\/v1\/lei-records\/21380068P1DRHMJ8KU70\/field-modifications?page%5Bnumber%5D=1&page%5Bsize%5D=15","next":"https:\/\/api.gleif.org\/api\/v1\/lei-records\/21380068P1DRHMJ8KU70\/field-modifications?page%5Bnumber%5D=2&page%5Bsize%5D=15","last":"https:\/\/api.gleif.org\/api\/v1\/lei-records\/21380068P1DRHMJ8KU70\/field-modifications?page%5Bnumber%5D=6&page%5Bsize%5D=15"},"data":[{"type":"field-modifications","id":"243d1c22-652a-4263-8b0c-634931ef1b27","attributes":{"lei":"21380068P1DRHMJ8KU70","recordType":"LEI","modificationType":"UPDATE","field":"\/lei:LEIData\/lei:LEIRecords\/lei:LEIRecord\/lei:Registration\/lei:NextRenewalDate","date":"2025-05-07T00:00:00Z","valueOld":"2025-07-04T00:00:00Z","valueNew":"2026-07-04T00:00:00Z","context":null}},{"type":"field-modifications","id":"4b905bac-abdc-4546-95cb-d71ef4844f66","attributes":{"lei":"21380068P1DRHMJ8KU70","recordType":"LEI","modificationType":"UPDATE","field":"\/lei:LEIData\/lei:LEIRecords\/lei:LEIRecord\/lei:Registration\/lei:LastUpdateDate","date":"2025-05-07T00:00:00Z","valueOld":"2024-06-10T16:12:00.223Z","valueNew":"2025-05-06T15:51:56.660Z","context":null}},{"type":"field-modifications","id":"c8f32d19-cb97-44ab-9020-092552c25d62","attributes":{"lei":"21380068P1DRHMJ8KU70","recordType":"LEI","modificationType":"UPDATE","field":"\/lei:LEIData\/lei:LEIRecords\/lei:LEIRecord\/lei:Registration\/lei:NextRenewalDate","date":"2024-06-11T00:00:00Z","valueOld":"2024-07-04T00:00:00Z","valueNew":"2025-07-04T00:00:00Z","context":null}},{"type":"field-modifications","id":"f610a1e6-e997-4d67-89f3-084cf36552f3","attributes":{"lei":"21380068P1DRHMJ8KU70","recordType":"LEI","modificationType":"UPDATE","field":"\/lei:LEIData\/lei:LEIRecords\/lei:LEIRecord\/lei:Registration\/lei:LastUpdateDate","date":"2024-06-11T00:00:00Z","valueOld":"2023-05-12T08:30:16.900Z","valueNew":"2024-06-10T16:12:00.223Z","context":null}},{"type":"field-modifications","id":"0986c4fc-5814-4305-b41c-aabd3abe839e","attributes":{"lei":"21380068P1DRHMJ8KU70","recordType":"LEI","modificationType":"UPDATE","field":"\/lei:LEIData\/lei:LEIRecords\/lei:LEIRecord\/lei:Registration\/lei:NextRenewalDate","date":"2023-05-13T00:00:00Z","valueOld":"2023-07-04T00:00:00Z","valueNew":"2024-07-04T00:00:00Z","context":null}},{"type":"field-modifications","id":"8705ccfe-f601-4d36-a2fe-145da4b3e15f","attributes":{"lei":"21380068P1DRHMJ8KU70","recordType":"LEI","modificationType":"UPDATE","field":"\/lei:LEIData\/lei:LEIRecords\/lei:LEIRecord\/lei:Registration\/lei:LastUpdateDate","date":"2023-05-13T00:00:00Z","valueOld":"2022-06-06T08:30:04.290Z","valueNew":"2023-05-12T08:30:16.900Z","context":null}},{"type":"field-modifications","id":"8eb3bab2-b95f-4298-8112-9d77a3811056","attributes":{"lei":"21380068P1DRHMJ8KU70","recordType":"LEI","modificationType":"UPDATE","field":"\/lei:LEIData\/lei:LEIRecords\/lei:LEIRecord\/lei:Registration\/lei:NextRenewalDate","date":"2022-06-07T00:00:00Z","valueOld":"2022-07-04T00:00:00Z","valueNew":"2023-07-04T00:00:00Z","context":null}},{"type":"field-modifications","id":"225db7f4-dba6-4043-847d-ecbaf3c8d000","attributes":{"lei":"21380068P1DRHMJ8KU70","recordType":"LEI","modificationType":"UPDATE","field":"\/lei:LEIData\/lei:LEIRecords\/lei:LEIRecord\/lei:Registration\/lei:LastUpdateDate","date":"2022-06-07T00:00:00Z","valueOld":"2022-01-24T10:21:21.570Z","valueNew":"2022-06-06T08:30:04.290Z","context":null}},{"type":"field-modifications","id":"16029429-f91f-47ca-b393-8b6510c78eb4","attributes":{"lei":"21380068P1DRHMJ8KU70","recordType":"LEI","modificationType":"INSERT","field":"\/lei:LEIData\/lei:LEIRecords\/lei:LEIRecord\/lei:Entity\/lei:EntityCreationDate","date":"2022-06-07T00:00:00Z","valueOld":null,"valueNew":"2002-02-05T00:00:00Z","context":null}},{"type":"field-modifications","id":"21941650-8ce8-47ef-894d-31ef6fe5578c","attributes":{"lei":"21380068P1DRHMJ8KU70","recordType":"LEI","modificationType":"INSERT","field":"\/lei:LEIData\/lei:LEIRecords\/lei:LEIRecord\/lei:Entity\/lei:OtherEntityNames\/lei:OtherEntityName\/@xml:lang","date":"2022-03-22T16:00:00Z","valueOld":null,"valueNew":"en","context":null}},{"type":"field-modifications","id":"544611f6-f6bd-4eef-95a1-f98be338930e","attributes":{"lei":"21380068P1DRHMJ8KU70","recordType":"LEI","modificationType":"INSERT","field":"\/lei:LEIData\/lei:LEIRecords\/lei:LEIRecord\/lei:Entity\/lei:EntityCategory","date":"2022-03-18T00:00:00Z","valueOld":null,"valueNew":"GENERAL","context":null}},{"type":"field-modifications","id":"9e126cff-b3e1-4812-8296-33348a5eaea1","attributes":{"lei":"21380068P1DRHMJ8KU70","recordType":"LEI","modificationType":"INSERT","field":"\/lei:LEIData\/lei:LEIRecords\/lei:LEIRecord\/lei:Entity\/lei:OtherEntityNames\/lei:OtherEntityName\/@type","date":"2022-03-18T00:00:00Z","valueOld":null,"valueNew":"PREVIOUS_LEGAL_NAME","context":null}},{"type":"field-modifications","id":"0912fb50-a619-41f9-a1ef-c449319222cc","attributes":{"lei":"21380068P1DRHMJ8KU70","recordType":"LEI","modificationType":"INSERT","field":"\/lei:LEIData\/lei:LEIRecords\/lei:LEIRecord\/lei:Entity\/lei:OtherEntityNames\/lei:OtherEntityName","date":"2022-03-18T00:00:00Z","valueOld":null,"valueNew":"ROYAL DUTCH SHELL PLC","context":null}},{"type":"field-modifications","id":"3f200502-6677-4c44-8a62-287e7ce827d6","attributes":{"lei":"21380068P1DRHMJ8KU70","recordType":"LEI","modificationType":"UPDATE","field":"\/lei:LEIData\/lei:LEIRecords\/lei:LEIRecord\/lei:Registration\/lei:LastUpdateDate","date":"2022-01-24T16:00:00Z","valueOld":"2022-01-05T08:33:58.853Z","valueNew":"2022-01-24T10:21:21.570Z","context":null}},{"type":"field-modifications","id":"d4b6f41c-0f14-48bc-80dd-804cc3886d1b","attributes":{"lei":"21380068P1DRHMJ8KU70","recordType":"LEI","modificationType":"UPDATE","field":"\/lei:LEIData\/lei:LEIRecords\/lei:LEIRecord\/lei:Entity\/lei:LegalName","date":"2022-01-24T16:00:00Z","valueOld":"ROYAL DUTCH SHELL PLC","valueNew":"SHELL PLC","context":null}}]}