{"meta":{"goldenCopy":{"publishDate":"2025-05-11T00:00:00Z"},"pagination":{"currentPage":1,"perPage":15,"from":1,"to":15,"total":57,"lastPage":4}},"links":{"first":"https:\/\/api.gleif.org\/api\/v1\/lei-records\/254900MSZM6DMP853B11\/field-modifications?page%5Bnumber%5D=1&page%5Bsize%5D=15","next":"https:\/\/api.gleif.org\/api\/v1\/lei-records\/254900MSZM6DMP853B11\/field-modifications?page%5Bnumber%5D=2&page%5Bsize%5D=15","last":"https:\/\/api.gleif.org\/api\/v1\/lei-records\/254900MSZM6DMP853B11\/field-modifications?page%5Bnumber%5D=4&page%5Bsize%5D=15"},"data":[{"type":"field-modifications","id":"37427782-9eab-4246-9b54-e73958cd255a","attributes":{"lei":"254900MSZM6DMP853B11","recordType":"LEI","modificationType":"UPDATE","field":"\/lei:LEIData\/lei:LEIRecords\/lei:LEIRecord\/lei:Registration\/lei:NextRenewalDate","date":"2025-03-08T00:00:00Z","valueOld":"2025-04-04T11:34:10.682Z","valueNew":"2026-04-04T11:34:10.682Z","context":null}},{"type":"field-modifications","id":"acd8a401-0ee3-4876-b09a-87d442931774","attributes":{"lei":"254900MSZM6DMP853B11","recordType":"LEI","modificationType":"UPDATE","field":"\/lei:LEIData\/lei:LEIRecords\/lei:LEIRecord\/lei:Registration\/lei:LastUpdateDate","date":"2025-03-08T00:00:00Z","valueOld":"2024-03-06T16:46:54.966Z","valueNew":"2025-03-07T07:09:19.351Z","context":null}},{"type":"field-modifications","id":"55fce03a-ed75-4eaf-bae3-2b4918bff537","attributes":{"lei":"254900MSZM6DMP853B11","recordType":"LEI","modificationType":"UPDATE","field":"\/lei:LEIData\/lei:LEIRecords\/lei:LEIRecord\/lei:Registration\/lei:NextRenewalDate","date":"2024-03-07T00:00:00Z","valueOld":"2024-04-04T11:34:10.682Z","valueNew":"2025-04-04T11:34:10.682Z","context":null}},{"type":"field-modifications","id":"7de40e01-1645-4fb3-a674-d25a3ceb7009","attributes":{"lei":"254900MSZM6DMP853B11","recordType":"LEI","modificationType":"UPDATE","field":"\/lei:LEIData\/lei:LEIRecords\/lei:LEIRecord\/lei:Registration\/lei:LastUpdateDate","date":"2024-03-07T00:00:00Z","valueOld":"2023-04-04T11:34:10.681Z","valueNew":"2024-03-06T16:46:54.966Z","context":null}},{"type":"field-modifications","id":"a3676a76-e9f0-4fda-87ea-15a165c6bfd1","attributes":{"lei":"254900MSZM6DMP853B11","recordType":"LEI","modificationType":"UPDATE","field":"\/lei:LEIData\/lei:LEIRecords\/lei:LEIRecord\/lei:Registration\/lei:ValidationSources","date":"2023-04-05T00:00:00Z","valueOld":"PARTIALLY_CORROBORATED","valueNew":"FULLY_CORROBORATED","context":null}},{"type":"field-modifications","id":"60621a9f-176c-47bd-b0a2-48072a63c9a7","attributes":{"lei":"254900MSZM6DMP853B11","recordType":"LEI","modificationType":"UPDATE","field":"\/lei:LEIData\/lei:LEIRecords\/lei:LEIRecord\/lei:Registration\/lei:NextRenewalDate","date":"2023-04-05T00:00:00Z","valueOld":"2023-03-01T19:08:16.042Z","valueNew":"2024-04-04T11:34:10.682Z","context":null}},{"type":"field-modifications","id":"acafb21b-ad9f-45fc-bb72-158772265465","attributes":{"lei":"254900MSZM6DMP853B11","recordType":"LEI","modificationType":"UPDATE","field":"\/lei:LEIData\/lei:LEIRecords\/lei:LEIRecord\/lei:Registration\/lei:RegistrationStatus","date":"2023-04-05T00:00:00Z","valueOld":"LAPSED","valueNew":"ISSUED","context":null}},{"type":"field-modifications","id":"01d60869-7f5c-4c45-b105-4a516f7956ef","attributes":{"lei":"254900MSZM6DMP853B11","recordType":"LEI","modificationType":"UPDATE","field":"\/lei:LEIData\/lei:LEIRecords\/lei:LEIRecord\/lei:Registration\/lei:LastUpdateDate","date":"2023-04-05T00:00:00Z","valueOld":"2023-03-02T14:34:26.327Z","valueNew":"2023-04-04T11:34:10.681Z","context":null}},{"type":"field-modifications","id":"4c0e4fff-fbc5-471c-88d2-96e269836a04","attributes":{"lei":"254900MSZM6DMP853B11","recordType":"LEI","modificationType":"INSERT","field":"\/lei:LEIData\/lei:LEIRecords\/lei:LEIRecord\/lei:Entity\/lei:EntityCreationDate","date":"2023-04-05T00:00:00Z","valueOld":null,"valueNew":"2008-03-28T00:00:00.000Z","context":null}},{"type":"field-modifications","id":"d5c863cb-a4ae-4580-9e6f-2c64b7e9f605","attributes":{"lei":"254900MSZM6DMP853B11","recordType":"LEI","modificationType":"UPDATE","field":"\/lei:LEIData\/lei:LEIRecords\/lei:LEIRecord\/lei:Entity\/lei:HeadquartersAddress\/lei:PostalCode","date":"2023-04-05T00:00:00Z","valueOld":"L3R9X7","valueNew":"L3R 9X7","context":null}},{"type":"field-modifications","id":"30e7fc22-e65e-45f2-b78d-90b59601ff3e","attributes":{"lei":"254900MSZM6DMP853B11","recordType":"LEI","modificationType":"UPDATE","field":"\/lei:LEIData\/lei:LEIRecords\/lei:LEIRecord\/lei:Entity\/lei:LegalName","date":"2023-04-05T00:00:00Z","valueOld":"Roca Networks Inc.","valueNew":"ROCA NETWORKS INC.","context":null}},{"type":"field-modifications","id":"ca2a96fc-2908-418e-936d-a7ae5cb9302f","attributes":{"lei":"254900MSZM6DMP853B11","recordType":"LEI","modificationType":"UPDATE","field":"\/lei:LEIData\/lei:LEIRecords\/lei:LEIRecord\/lei:Registration\/lei:RegistrationStatus","date":"2023-03-03T00:00:00Z","valueOld":"ISSUED","valueNew":"LAPSED","context":null}},{"type":"field-modifications","id":"59c227f6-997b-440b-a4a3-aa7d57fb260a","attributes":{"lei":"254900MSZM6DMP853B11","recordType":"LEI","modificationType":"UPDATE","field":"\/lei:LEIData\/lei:LEIRecords\/lei:LEIRecord\/lei:Registration\/lei:LastUpdateDate","date":"2023-03-03T00:00:00Z","valueOld":"2022-03-15T14:49:39.361Z","valueNew":"2023-03-02T14:34:26.327Z","context":null}},{"type":"field-modifications","id":"919fa283-a885-4d06-9acc-5bddb111e26b","attributes":{"lei":"254900MSZM6DMP853B11","recordType":"LEI","modificationType":"UPDATE","field":"\/lei:LEIData\/lei:LEIRecords\/lei:LEIRecord\/lei:Registration\/lei:LastUpdateDate","date":"2022-03-16T00:00:00Z","valueOld":"2022-03-01T19:08:16.041Z","valueNew":"2022-03-15T14:49:39.361Z","context":null}},{"type":"field-modifications","id":"49689533-da89-4537-b42c-6e39591761b7","attributes":{"lei":"254900MSZM6DMP853B11","recordType":"LEI","modificationType":"INSERT","field":"\/lei:LEIData\/lei:LEIRecords\/lei:LEIRecord\/lei:Entity\/lei:EntityCategory","date":"2022-03-16T00:00:00Z","valueOld":null,"valueNew":"GENERAL","context":null}}]}