{"meta":{"goldenCopy":{"publishDate":"2025-05-15T00:00:00Z"},"pagination":{"currentPage":1,"perPage":15,"from":1,"to":15,"total":60,"lastPage":4}},"links":{"first":"https:\/\/api.gleif.org\/api\/v1\/lei-records\/529900GRZ2BQY5ZM9N49\/field-modifications?page%5Bnumber%5D=1&page%5Bsize%5D=15","next":"https:\/\/api.gleif.org\/api\/v1\/lei-records\/529900GRZ2BQY5ZM9N49\/field-modifications?page%5Bnumber%5D=2&page%5Bsize%5D=15","last":"https:\/\/api.gleif.org\/api\/v1\/lei-records\/529900GRZ2BQY5ZM9N49\/field-modifications?page%5Bnumber%5D=4&page%5Bsize%5D=15"},"data":[{"type":"field-modifications","id":"e9834717-84b8-40ac-8aff-bccebc6412c0","attributes":{"lei":"529900GRZ2BQY5ZM9N49","recordType":"LEI","modificationType":"UPDATE","field":"\/lei:LEIData\/lei:LEIRecords\/lei:LEIRecord\/lei:Registration\/lei:NextRenewalDate","date":"2024-08-29T08:00:00Z","valueOld":"2024-10-23T00:00:00+02:00","valueNew":"2025-10-23T00:00:00+02:00","context":null}},{"type":"field-modifications","id":"944bef32-a624-4517-af96-f6cff2361609","attributes":{"lei":"529900GRZ2BQY5ZM9N49","recordType":"LEI","modificationType":"UPDATE","field":"\/lei:LEIData\/lei:LEIRecords\/lei:LEIRecord\/lei:Registration\/lei:LastUpdateDate","date":"2024-08-29T08:00:00Z","valueOld":"2023-09-08T12:15:42+02:00","valueNew":"2024-08-28T12:36:27+02:00","context":null}},{"type":"field-modifications","id":"849307d7-8548-45c2-9ef8-c084f7049bf1","attributes":{"lei":"529900GRZ2BQY5ZM9N49","recordType":"LEI","modificationType":"UPDATE","field":"\/lei:LEIData\/lei:LEIRecords\/lei:LEIRecord\/lei:Entity\/lei:EntityCreationDate","date":"2024-08-29T08:00:00Z","valueOld":"2011-04-14T00:00:00+02:00","valueNew":"2011-07-25T00:00:00+02:00","context":null}},{"type":"field-modifications","id":"347daf2b-3630-41d2-af2f-23df45961796","attributes":{"lei":"529900GRZ2BQY5ZM9N49","recordType":"LEI","modificationType":"UPDATE","field":"\/lei:LEIData\/lei:LEIRecords\/lei:LEIRecord\/lei:Registration\/lei:NextRenewalDate","date":"2023-09-09T08:00:00Z","valueOld":"2023-10-23T00:00:00+02:00","valueNew":"2024-10-23T00:00:00+02:00","context":null}},{"type":"field-modifications","id":"06a4212f-cc37-4647-b442-ead96b0cbcfd","attributes":{"lei":"529900GRZ2BQY5ZM9N49","recordType":"LEI","modificationType":"UPDATE","field":"\/lei:LEIData\/lei:LEIRecords\/lei:LEIRecord\/lei:Registration\/lei:LastUpdateDate","date":"2023-09-09T08:00:00Z","valueOld":"2022-08-31T10:01:27+02:00","valueNew":"2023-09-08T12:15:42+02:00","context":null}},{"type":"field-modifications","id":"dcc11120-0a18-4c48-bcc2-e72c21a4f25a","attributes":{"lei":"529900GRZ2BQY5ZM9N49","recordType":"LEI","modificationType":"UPDATE","field":"\/lei:LEIData\/lei:LEIRecords\/lei:LEIRecord\/lei:Entity\/lei:EntityCreationDate","date":"2023-09-09T08:00:00Z","valueOld":"2011-07-25T00:00:00+02:00","valueNew":"2011-04-14T00:00:00+02:00","context":null}},{"type":"field-modifications","id":"db3c361d-2ccc-4c18-9e7b-38a9baa3245b","attributes":{"lei":"529900GRZ2BQY5ZM9N49","recordType":"LEI","modificationType":"UPDATE","field":"\/lei:LEIData\/lei:LEIRecords\/lei:LEIRecord\/lei:Registration\/lei:NextRenewalDate","date":"2022-09-01T08:00:00Z","valueOld":"2022-10-23T00:00:00+02:00","valueNew":"2023-10-23T00:00:00+02:00","context":null}},{"type":"field-modifications","id":"5d6b6e96-ded8-4bb7-9478-7277455e71cf","attributes":{"lei":"529900GRZ2BQY5ZM9N49","recordType":"LEI","modificationType":"UPDATE","field":"\/lei:LEIData\/lei:LEIRecords\/lei:LEIRecord\/lei:Registration\/lei:LastUpdateDate","date":"2022-09-01T08:00:00Z","valueOld":"2021-09-27T12:01:35+02:00","valueNew":"2022-08-31T10:01:27+02:00","context":null}},{"type":"field-modifications","id":"3b08bfc6-fb69-4176-a5c7-f0edc34ca654","attributes":{"lei":"529900GRZ2BQY5ZM9N49","recordType":"LEI","modificationType":"INSERT","field":"\/lei:LEIData\/lei:LEIRecords\/lei:LEIRecord\/lei:Entity\/lei:EntityCreationDate","date":"2022-09-01T08:00:00Z","valueOld":null,"valueNew":"2011-07-25T00:00:00+02:00","context":null}},{"type":"field-modifications","id":"529d65d7-d53f-42e2-9d1f-44f87e3db4b2","attributes":{"lei":"529900GRZ2BQY5ZM9N49","recordType":"LEI","modificationType":"INSERT","field":"\/lei:LEIData\/lei:LEIRecords\/lei:LEIRecord\/lei:Entity\/lei:EntityCategory","date":"2022-03-27T08:00:00Z","valueOld":null,"valueNew":"GENERAL","context":null}},{"type":"field-modifications","id":"22dfbd3e-9e7b-458f-99ca-525d0377ceba","attributes":{"lei":"529900GRZ2BQY5ZM9N49","recordType":"LEI","modificationType":"UPDATE","field":"\/lei:LEIData\/lei:LEIRecords\/lei:LEIRecord\/lei:Registration\/lei:NextRenewalDate","date":"2021-09-28T08:00:00Z","valueOld":"2021-10-23T00:00:00+02:00","valueNew":"2022-10-23T00:00:00+02:00","context":null}},{"type":"field-modifications","id":"449261cf-1ad0-4303-a195-d62386f177f6","attributes":{"lei":"529900GRZ2BQY5ZM9N49","recordType":"LEI","modificationType":"UPDATE","field":"\/lei:LEIData\/lei:LEIRecords\/lei:LEIRecord\/lei:Registration\/lei:LastUpdateDate","date":"2021-09-28T08:00:00Z","valueOld":"2021-07-16T07:04:45+02:00","valueNew":"2021-09-27T12:01:35+02:00","context":null}},{"type":"field-modifications","id":"a3b8204e-f8b0-423a-ae5a-865f07875615","attributes":{"lei":"529900GRZ2BQY5ZM9N49","recordType":"LEI","modificationType":"UPDATE","field":"\/lei:LEIData\/lei:LEIRecords\/lei:LEIRecord\/lei:Registration\/lei:LastUpdateDate","date":"2021-07-17T08:00:00Z","valueOld":"2020-08-25T07:01:41+02:00","valueNew":"2021-07-16T07:04:45+02:00","context":null}},{"type":"field-modifications","id":"2e70bab0-156c-422d-93f4-ad1af168756b","attributes":{"lei":"529900GRZ2BQY5ZM9N49","recordType":"LEI","modificationType":"INSERT","field":"\/lei:LEIData\/lei:LEIRecords\/lei:LEIRecord\/lei:Entity\/lei:HeadquartersAddress\/@xml:lang","date":"2021-07-17T08:00:00Z","valueOld":null,"valueNew":"de-DE","context":null}},{"type":"field-modifications","id":"b1411ae9-d670-421a-ba32-06192001c8d2","attributes":{"lei":"529900GRZ2BQY5ZM9N49","recordType":"LEI","modificationType":"INSERT","field":"\/lei:LEIData\/lei:LEIRecords\/lei:LEIRecord\/lei:Entity\/lei:LegalAddress\/@xml:lang","date":"2021-07-17T08:00:00Z","valueOld":null,"valueNew":"de-DE","context":null}}]}