{"meta":{"goldenCopy":{"publishDate":"2025-05-11T00:00:00Z"},"pagination":{"currentPage":1,"perPage":15,"from":1,"to":15,"total":81,"lastPage":6}},"links":{"first":"https:\/\/api.gleif.org\/api\/v1\/lei-records\/851WYGNLUQLFZBSYGB56\/field-modifications?page%5Bnumber%5D=1&page%5Bsize%5D=15","next":"https:\/\/api.gleif.org\/api\/v1\/lei-records\/851WYGNLUQLFZBSYGB56\/field-modifications?page%5Bnumber%5D=2&page%5Bsize%5D=15","last":"https:\/\/api.gleif.org\/api\/v1\/lei-records\/851WYGNLUQLFZBSYGB56\/field-modifications?page%5Bnumber%5D=6&page%5Bsize%5D=15"},"data":[{"type":"field-modifications","id":"7a0f0c35-67ac-438f-8365-80db27657dd5","attributes":{"lei":"851WYGNLUQLFZBSYGB56","recordType":"LEI","modificationType":"UPDATE","field":"\/lei:LEIData\/lei:LEIRecords\/lei:LEIRecord\/lei:Registration\/lei:NextRenewalDate","date":"2025-04-04T08:00:00Z","valueOld":"2025-04-24T15:33:51+02:00","valueNew":"2026-04-24T15:33:51+02:00","context":null}},{"type":"field-modifications","id":"0f6337ef-64d0-4ff1-a1b6-9926511053a8","attributes":{"lei":"851WYGNLUQLFZBSYGB56","recordType":"LEI","modificationType":"UPDATE","field":"\/lei:LEIData\/lei:LEIRecords\/lei:LEIRecord\/lei:Registration\/lei:LastUpdateDate","date":"2025-04-04T08:00:00Z","valueOld":"2024-04-02T15:01:50+02:00","valueNew":"2025-04-03T13:09:13+02:00","context":null}},{"type":"field-modifications","id":"aa163575-b077-45f1-adb6-0f4a8660a220","attributes":{"lei":"851WYGNLUQLFZBSYGB56","recordType":"LEI","modificationType":"UPDATE","field":"\/lei:LEIData\/lei:LEIRecords\/lei:LEIRecord\/lei:Entity\/lei:HeadquartersAddress\/@xml:lang","date":"2025-04-04T08:00:00Z","valueOld":"de-DE","valueNew":"de","context":null}},{"type":"field-modifications","id":"cf4f1f9c-ede9-4300-b1ff-a68d04858bde","attributes":{"lei":"851WYGNLUQLFZBSYGB56","recordType":"LEI","modificationType":"UPDATE","field":"\/lei:LEIData\/lei:LEIRecords\/lei:LEIRecord\/lei:Entity\/lei:LegalAddress\/@xml:lang","date":"2025-04-04T08:00:00Z","valueOld":"de-DE","valueNew":"de","context":null}},{"type":"field-modifications","id":"7148e59d-32bd-47b5-b38a-988a57a11035","attributes":{"lei":"851WYGNLUQLFZBSYGB56","recordType":"LEI","modificationType":"UPDATE","field":"\/lei:LEIData\/lei:LEIRecords\/lei:LEIRecord\/lei:Entity\/lei:LegalName\/@xml:lang","date":"2025-04-04T08:00:00Z","valueOld":"de-DE","valueNew":"de","context":null}},{"type":"field-modifications","id":"2925bd96-64eb-4f42-821c-83c892a92e31","attributes":{"lei":"851WYGNLUQLFZBSYGB56","recordType":"LEI","modificationType":"UPDATE","field":"\/lei:LEIData\/lei:LEIRecords\/lei:LEIRecord\/lei:Registration\/lei:NextRenewalDate","date":"2024-04-03T08:00:00Z","valueOld":"2024-04-24T15:33:51+02:00","valueNew":"2025-04-24T15:33:51+02:00","context":null}},{"type":"field-modifications","id":"40228ab0-d0c1-4a0a-9b54-4c409b266c6c","attributes":{"lei":"851WYGNLUQLFZBSYGB56","recordType":"LEI","modificationType":"UPDATE","field":"\/lei:LEIData\/lei:LEIRecords\/lei:LEIRecord\/lei:Registration\/lei:LastUpdateDate","date":"2024-04-03T08:00:00Z","valueOld":"2023-03-17T10:01:54+01:00","valueNew":"2024-04-02T15:01:50+02:00","context":null}},{"type":"field-modifications","id":"e5f04b8f-61b5-421f-9fd0-c406140a88e1","attributes":{"lei":"851WYGNLUQLFZBSYGB56","recordType":"LEI","modificationType":"UPDATE","field":"\/lei:LEIData\/lei:LEIRecords\/lei:LEIRecord\/lei:Registration\/lei:NextRenewalDate","date":"2023-03-18T08:00:00Z","valueOld":"2023-04-24T15:33:51+02:00","valueNew":"2024-04-24T15:33:51+02:00","context":null}},{"type":"field-modifications","id":"c1deeb9d-e74f-4d94-a27a-03bcca58fb18","attributes":{"lei":"851WYGNLUQLFZBSYGB56","recordType":"LEI","modificationType":"UPDATE","field":"\/lei:LEIData\/lei:LEIRecords\/lei:LEIRecord\/lei:Registration\/lei:LastUpdateDate","date":"2023-03-18T08:00:00Z","valueOld":"2022-04-06T12:01:51+02:00","valueNew":"2023-03-17T10:01:54+01:00","context":null}},{"type":"field-modifications","id":"06c602a6-a611-45a5-a183-d95c3e016e7c","attributes":{"lei":"851WYGNLUQLFZBSYGB56","recordType":"LEI","modificationType":"UPDATE","field":"\/lei:LEIData\/lei:LEIRecords\/lei:LEIRecord\/lei:Registration\/lei:NextRenewalDate","date":"2022-04-07T08:00:00Z","valueOld":"2022-04-24T15:33:51+02:00","valueNew":"2023-04-24T15:33:51+02:00","context":null}},{"type":"field-modifications","id":"8a3eb8ca-dd1c-4ed3-b39c-07bccaa2f7ea","attributes":{"lei":"851WYGNLUQLFZBSYGB56","recordType":"LEI","modificationType":"UPDATE","field":"\/lei:LEIData\/lei:LEIRecords\/lei:LEIRecord\/lei:Registration\/lei:LastUpdateDate","date":"2022-04-07T08:00:00Z","valueOld":"2021-07-20T07:13:49+02:00","valueNew":"2022-04-06T12:01:51+02:00","context":null}},{"type":"field-modifications","id":"b102e4ae-fdfa-4f39-b03d-6af64ac987c6","attributes":{"lei":"851WYGNLUQLFZBSYGB56","recordType":"LEI","modificationType":"INSERT","field":"\/lei:LEIData\/lei:LEIRecords\/lei:LEIRecord\/lei:Entity\/lei:LegalEntityEvents\/lei:LegalEntityEvent\/lei:ValidationDocuments","date":"2022-04-07T08:00:00Z","valueOld":null,"valueNew":"SUPPORTING_DOCUMENTS","context":null}},{"type":"field-modifications","id":"ecc6dc7a-c6ac-45ea-8ecd-67ac4117c7a5","attributes":{"lei":"851WYGNLUQLFZBSYGB56","recordType":"LEI","modificationType":"INSERT","field":"\/lei:LEIData\/lei:LEIRecords\/lei:LEIRecord\/lei:Entity\/lei:LegalEntityEvents\/lei:LegalEntityEvent\/lei:LegalEntityEventRecordedDate","date":"2022-04-07T08:00:00Z","valueOld":null,"valueNew":"2022-03-29T13:53:09+02:00","context":null}},{"type":"field-modifications","id":"3c7a4686-bdd1-4620-a058-157f9ef64954","attributes":{"lei":"851WYGNLUQLFZBSYGB56","recordType":"LEI","modificationType":"INSERT","field":"\/lei:LEIData\/lei:LEIRecords\/lei:LEIRecord\/lei:Entity\/lei:LegalEntityEvents\/lei:LegalEntityEvent\/lei:LegalEntityEventEffectiveDate","date":"2022-04-07T08:00:00Z","valueOld":null,"valueNew":"2020-11-11T00:00:00+01:00","context":null}},{"type":"field-modifications","id":"ae402602-6079-4c92-93cb-f8dd1d93385a","attributes":{"lei":"851WYGNLUQLFZBSYGB56","recordType":"LEI","modificationType":"INSERT","field":"\/lei:LEIData\/lei:LEIRecords\/lei:LEIRecord\/lei:Entity\/lei:LegalEntityEvents\/lei:LegalEntityEvent\/lei:LegalEntityEventType","date":"2022-04-07T08:00:00Z","valueOld":null,"valueNew":"MERGERS_AND_ACQUISITIONS","context":null}}]}