{"meta":{"pagination":{"currentPage":1,"perPage":10,"from":1,"to":10,"total":5296,"lastPage":530}},"links":{"first":"https:\/\/api.gleif.org\/api\/v1\/jurisdictions?sort=code&page%5Bnumber%5D=1&page%5Bsize%5D=10","next":"https:\/\/api.gleif.org\/api\/v1\/jurisdictions?sort=code&page%5Bnumber%5D=2&page%5Bsize%5D=10","last":"https:\/\/api.gleif.org\/api\/v1\/jurisdictions?sort=code&page%5Bnumber%5D=530&page%5Bsize%5D=10"},"data":[{"type":"jurisdictions","id":"AD","attributes":{"code":"AD","name":"Andorra"},"links":{"self":"https:\/\/api.gleif.org\/api\/v1\/jurisdictions\/AD"}},{"type":"jurisdictions","id":"AD-02","attributes":{"code":"AD-02","name":null},"links":{"self":"https:\/\/api.gleif.org\/api\/v1\/jurisdictions\/AD-02"}},{"type":"jurisdictions","id":"AD-03","attributes":{"code":"AD-03","name":null},"links":{"self":"https:\/\/api.gleif.org\/api\/v1\/jurisdictions\/AD-03"}},{"type":"jurisdictions","id":"AD-04","attributes":{"code":"AD-04","name":null},"links":{"self":"https:\/\/api.gleif.org\/api\/v1\/jurisdictions\/AD-04"}},{"type":"jurisdictions","id":"AD-05","attributes":{"code":"AD-05","name":null},"links":{"self":"https:\/\/api.gleif.org\/api\/v1\/jurisdictions\/AD-05"}},{"type":"jurisdictions","id":"AD-06","attributes":{"code":"AD-06","name":null},"links":{"self":"https:\/\/api.gleif.org\/api\/v1\/jurisdictions\/AD-06"}},{"type":"jurisdictions","id":"AD-07","attributes":{"code":"AD-07","name":null},"links":{"self":"https:\/\/api.gleif.org\/api\/v1\/jurisdictions\/AD-07"}},{"type":"jurisdictions","id":"AD-08","attributes":{"code":"AD-08","name":null},"links":{"self":"https:\/\/api.gleif.org\/api\/v1\/jurisdictions\/AD-08"}},{"type":"jurisdictions","id":"AE","attributes":{"code":"AE","name":"United Arab Emirates (the)"},"links":{"self":"https:\/\/api.gleif.org\/api\/v1\/jurisdictions\/AE"}},{"type":"jurisdictions","id":"AE-AJ","attributes":{"code":"AE-AJ","name":null},"links":{"self":"https:\/\/api.gleif.org\/api\/v1\/jurisdictions\/AE-AJ"}}]}