{"meta":{"pagination":{"currentPage":1,"perPage":10,"from":1,"to":10,"total":2127,"lastPage":213}},"links":{"first":"https:\/\/api.gleif.org\/api\/v1\/official-organizational-roles?page%5Bnumber%5D=1&page%5Bsize%5D=10","next":"https:\/\/api.gleif.org\/api\/v1\/official-organizational-roles?page%5Bnumber%5D=2&page%5Bsize%5D=10","last":"https:\/\/api.gleif.org\/api\/v1\/official-organizational-roles?page%5Bnumber%5D=213&page%5Bsize%5D=10"},"data":[{"type":"official-organizational-roles","id":"01D0O4","attributes":{"code":"01D0O4","country":"Qatar","jurisdiction":null,"countryCode":"QA","subdivisionCode":null,"dateCreated":"2023-06-28","status":"ACTV","elfCode":"RN1W","names":[{"name":"\u0645\u0648\u0638\u0641","language":"Arabic","languageCode":"ar","transliteratedName":"muwadaf"}]},"links":{"self":"https:\/\/api.gleif.org\/api\/v1\/official-organizational-roles\/01D0O4"}},{"type":"official-organizational-roles","id":"03EE4V","attributes":{"code":"03EE4V","country":"Canada","jurisdiction":"Canada","countryCode":"CA","subdivisionCode":null,"dateCreated":"2023-06-28","status":"ACTV","elfCode":"MGE0","names":[{"name":"receiver-manager","language":"English","languageCode":"en","transliteratedName":"receiver-manager"},{"name":"s\u00e9questre-g\u00e9rant","language":"French","languageCode":"fr","transliteratedName":"s\u00e9questre-g\u00e9rant"}]},"links":{"self":"https:\/\/api.gleif.org\/api\/v1\/official-organizational-roles\/03EE4V"}},{"type":"official-organizational-roles","id":"04GQOF","attributes":{"code":"04GQOF","country":"United States of America","jurisdiction":"South Dakota","countryCode":"US","subdivisionCode":"US-SD","dateCreated":"2023-06-28","status":"ACTV","elfCode":"JZWN","names":[{"name":"director","language":"English","languageCode":"en","transliteratedName":"director"}]},"links":{"self":"https:\/\/api.gleif.org\/api\/v1\/official-organizational-roles\/04GQOF"}},{"type":"official-organizational-roles","id":"062UW9","attributes":{"code":"062UW9","country":"United States of America","jurisdiction":"Oklahoma","countryCode":"US","subdivisionCode":"US-OK","dateCreated":"2023-06-28","status":"ACTV","elfCode":"BGH4","names":[{"name":"vice-president","language":"English","languageCode":"en","transliteratedName":"vice-president"}]},"links":{"self":"https:\/\/api.gleif.org\/api\/v1\/official-organizational-roles\/062UW9"}},{"type":"official-organizational-roles","id":"080BGK","attributes":{"code":"080BGK","country":"Netherlands","jurisdiction":null,"countryCode":"NL","subdivisionCode":null,"dateCreated":"2023-06-28","status":"ACTV","elfCode":"54M6","names":[{"name":"Voorzitter bestuur","language":"Dutch","languageCode":"nl","transliteratedName":"Voorzitter bestuur"}]},"links":{"self":"https:\/\/api.gleif.org\/api\/v1\/official-organizational-roles\/080BGK"}},{"type":"official-organizational-roles","id":"08X2MA","attributes":{"code":"08X2MA","country":"United States of America","jurisdiction":"Maryland","countryCode":"US","subdivisionCode":"US-MD","dateCreated":"2023-06-28","status":"ACTV","elfCode":"HLR5","names":[{"name":"officer","language":"English","languageCode":"en","transliteratedName":"officer"}]},"links":{"self":"https:\/\/api.gleif.org\/api\/v1\/official-organizational-roles\/08X2MA"}},{"type":"official-organizational-roles","id":"09D24S","attributes":{"code":"09D24S","country":"United States of America","jurisdiction":"Nebraska","countryCode":"US","subdivisionCode":"US-NE","dateCreated":"2023-06-28","status":"ACTV","elfCode":"RH6N","names":[{"name":"registered agent","language":"English","languageCode":"en","transliteratedName":"registered agent"}]},"links":{"self":"https:\/\/api.gleif.org\/api\/v1\/official-organizational-roles\/09D24S"}},{"type":"official-organizational-roles","id":"09VUYQ","attributes":{"code":"09VUYQ","country":"Switzerland","jurisdiction":null,"countryCode":"CH","subdivisionCode":null,"dateCreated":"2023-06-28","status":"ACTV","elfCode":"FLNB","names":[{"name":"Commandit\u00e9","language":"French","languageCode":"fr","transliteratedName":"Commandit\u00e9"},{"name":"Kommandit\u00e4rinnen und Kommandit\u00e4re","language":"German","languageCode":"de","transliteratedName":"Kommandit\u00e4rinnen und Kommandit\u00e4re"},{"name":"Accomandatario","language":"Italian","languageCode":"it","transliteratedName":"Accomandatario"}]},"links":{"self":"https:\/\/api.gleif.org\/api\/v1\/official-organizational-roles\/09VUYQ"}},{"type":"official-organizational-roles","id":"0AHAJA","attributes":{"code":"0AHAJA","country":"Finland","jurisdiction":null,"countryCode":"FI","subdivisionCode":null,"dateCreated":"2023-06-28","status":"ACTV","elfCode":"UXEW","names":[{"name":"Selvitysmies","language":"Finnish","languageCode":"fi","transliteratedName":"Selvitysmies"},{"name":"Likvidator","language":"Swedish","languageCode":"sv","transliteratedName":"Likvidator"}]},"links":{"self":"https:\/\/api.gleif.org\/api\/v1\/official-organizational-roles\/0AHAJA"}},{"type":"official-organizational-roles","id":"0BQJRA","attributes":{"code":"0BQJRA","country":"United States of America","jurisdiction":"District of Columbia","countryCode":"US","subdivisionCode":"US-DC","dateCreated":"2023-06-28","status":"ACTV","elfCode":"CNQ3","names":[{"name":"director","language":"English","languageCode":"en","transliteratedName":"director"}]},"links":{"self":"https:\/\/api.gleif.org\/api\/v1\/official-organizational-roles\/0BQJRA"}}]}