{"meta":{"pagination":{"currentPage":1,"perPage":10,"from":1,"to":10,"total":1071,"lastPage":108}},"links":{"first":"https:\/\/api.gleif.org\/api\/v1\/registration-authorities?page%5Bnumber%5D=1&page%5Bsize%5D=10","next":"https:\/\/api.gleif.org\/api\/v1\/registration-authorities?page%5Bnumber%5D=2&page%5Bsize%5D=10","last":"https:\/\/api.gleif.org\/api\/v1\/registration-authorities?page%5Bnumber%5D=108&page%5Bsize%5D=10"},"data":[{"type":"registration-authorities","id":"RA000001","attributes":{"code":"RA000001","internationalName":"Afghanistan Central Business Registry (Ministry of Commerce and Industries)","localName":null,"internationalOrganizationName":"Afghanistan Central Business Registry (Ministry of Commerce and Industries)","localOrganizationName":null,"website":"http:\/\/www.acbr.gov.af\/","jurisdictions":[{"country":"Afghanistan","countryCode":"AF","jurisdiction":"Afghanistan"}]},"links":{"self":"https:\/\/api.gleif.org\/api\/v1\/registration-authorities\/RA000001"}},{"type":"registration-authorities","id":"RA000002","attributes":{"code":"RA000002","internationalName":null,"localName":null,"internationalOrganizationName":"National Registration Center","localOrganizationName":"Qendra Kombetare e Regjistrimit","website":"http:\/\/www.qkr.gov.al\/home\/","jurisdictions":[{"country":"Albania","countryCode":"AL","jurisdiction":"Albania"}]},"links":{"self":"https:\/\/api.gleif.org\/api\/v1\/registration-authorities\/RA000002"}},{"type":"registration-authorities","id":"RA000003","attributes":{"code":"RA000003","internationalName":"Trade Register","localName":"Registre du Commerce","internationalOrganizationName":"National Center of the Trade Register","localOrganizationName":"Centre National du Registre du Commerce (CNRC)","website":"https:\/\/sidjilcom.cnrc.dz\/web\/cnrc\/accueil","jurisdictions":[{"country":"Algeria","countryCode":"DZ","jurisdiction":"Algeria"}]},"links":{"self":"https:\/\/api.gleif.org\/api\/v1\/registration-authorities\/RA000003"}},{"type":"registration-authorities","id":"RA000004","attributes":{"code":"RA000004","internationalName":"Register of Commerce","localName":"Registre de Societats Mercantils","internationalOrganizationName":null,"localOrganizationName":null,"website":"http:\/\/www.comerc.ad\/la-unitat-comerc","jurisdictions":[{"country":"Andorra","countryCode":"AD","jurisdiction":"Andorra"}]},"links":{"self":"https:\/\/api.gleif.org\/api\/v1\/registration-authorities\/RA000004"}},{"type":"registration-authorities","id":"RA000005","attributes":{"code":"RA000005","internationalName":"Central Registry of Business Names","localName":"Ficheiro Central de Denomina\u00e7\u00f5es Sociais","internationalOrganizationName":null,"localOrganizationName":null,"website":"http:\/\/www.cidadao.gov.ao\/VerPrestadorServico.aspx?id=233","jurisdictions":[{"country":"Angola","countryCode":"AO","jurisdiction":"Angola"}]},"links":{"self":"https:\/\/api.gleif.org\/api\/v1\/registration-authorities\/RA000005"}},{"type":"registration-authorities","id":"RA000006","attributes":{"code":"RA000006","internationalName":"Commercial Registry","localName":"Commercial Registry","internationalOrganizationName":"Anguilla Commercial Registry","localOrganizationName":"Anguilla Commercial Registry","website":"http:\/\/www.commercialregistry.ai\/","jurisdictions":[{"country":"Anguilla","countryCode":"AI","jurisdiction":"Anguilla"}]},"links":{"self":"https:\/\/api.gleif.org\/api\/v1\/registration-authorities\/RA000006"}},{"type":"registration-authorities","id":"RA000007","attributes":{"code":"RA000007","internationalName":null,"localName":null,"internationalOrganizationName":"Intellectual Property and Commerce Office","localOrganizationName":"Intellectual Property and Commerce Office","website":"https:\/\/abipco.gov.ag\/","jurisdictions":[{"country":"Antigua and Barbuda","countryCode":"AG","jurisdiction":"Antigua and Barbuda"}]},"links":{"self":"https:\/\/api.gleif.org\/api\/v1\/registration-authorities\/RA000007"}},{"type":"registration-authorities","id":"RA000008","attributes":{"code":"RA000008","internationalName":null,"localName":null,"internationalOrganizationName":"Financial Services Regulatory Commission","localOrganizationName":"Financial Services Regulatory Commission","website":"http:\/\/www.fsrc.gov.ag\/","jurisdictions":[{"country":"Antigua and Barbuda","countryCode":"AG","jurisdiction":"Antigua and Barbuda"}]},"links":{"self":"https:\/\/api.gleif.org\/api\/v1\/registration-authorities\/RA000008"}},{"type":"registration-authorities","id":"RA000009","attributes":{"code":"RA000009","internationalName":null,"localName":null,"internationalOrganizationName":"Federal Administration of Public Revenues (AFIP)","localOrganizationName":"Administraci\u00f3n Federal de Ingresos P\u00fablicos (AFIP)","website":"http:\/\/www.afip.gob.ar\/sitio\/externos\/","jurisdictions":[{"country":"Argentina","countryCode":"AR","jurisdiction":"Argentina"}]},"links":{"self":"https:\/\/api.gleif.org\/api\/v1\/registration-authorities\/RA000009"}},{"type":"registration-authorities","id":"RA000010","attributes":{"code":"RA000010","internationalName":null,"localName":"Registro Nacional de Sociedades","internationalOrganizationName":null,"localOrganizationName":"Ministerio de Justicia y Derechos Humanos (Direcci\u00f3n del Registro Nacional de Sociedades)","website":"https:\/\/www.argentina.gob.ar\/justicia\/registro-nacional-sociedades","jurisdictions":[{"country":"Argentina","countryCode":"AR","jurisdiction":"Argentina"}]},"links":{"self":"https:\/\/api.gleif.org\/api\/v1\/registration-authorities\/RA000010"}}]}