{"meta":{"pagination":{"currentPage":1,"perPage":10,"from":1,"to":10,"total":5046,"lastPage":505}},"links":{"first":"https:\/\/api.gleif.org\/api\/v1\/regions?page%5Bnumber%5D=1&page%5Bsize%5D=10","next":"https:\/\/api.gleif.org\/api\/v1\/regions?page%5Bnumber%5D=2&page%5Bsize%5D=10","last":"https:\/\/api.gleif.org\/api\/v1\/regions?page%5Bnumber%5D=505&page%5Bsize%5D=10"},"data":[{"type":"regions","id":"AD-02","attributes":{"code":"AD-02","name":null,"names":[{"language":"ca","name":"Canillo"}]},"links":{"self":"https:\/\/api.gleif.org\/api\/v1\/regions\/AD-02"}},{"type":"regions","id":"AD-03","attributes":{"code":"AD-03","name":null,"names":[{"language":"ca","name":"Encamp"}]},"links":{"self":"https:\/\/api.gleif.org\/api\/v1\/regions\/AD-03"}},{"type":"regions","id":"AD-04","attributes":{"code":"AD-04","name":null,"names":[{"language":"ca","name":"La Massana"}]},"links":{"self":"https:\/\/api.gleif.org\/api\/v1\/regions\/AD-04"}},{"type":"regions","id":"AD-05","attributes":{"code":"AD-05","name":null,"names":[{"language":"ca","name":"Ordino"}]},"links":{"self":"https:\/\/api.gleif.org\/api\/v1\/regions\/AD-05"}},{"type":"regions","id":"AD-06","attributes":{"code":"AD-06","name":null,"names":[{"language":"ca","name":"Sant Juli\u00e0 de L\u00f2ria"}]},"links":{"self":"https:\/\/api.gleif.org\/api\/v1\/regions\/AD-06"}},{"type":"regions","id":"AD-07","attributes":{"code":"AD-07","name":null,"names":[{"language":"ca","name":"Andorra la Vella"}]},"links":{"self":"https:\/\/api.gleif.org\/api\/v1\/regions\/AD-07"}},{"type":"regions","id":"AD-08","attributes":{"code":"AD-08","name":null,"names":[{"language":"ca","name":"Escaldes-Engordany"}]},"links":{"self":"https:\/\/api.gleif.org\/api\/v1\/regions\/AD-08"}},{"type":"regions","id":"AE-AJ","attributes":{"code":"AE-AJ","name":null,"names":[{"language":"ar","name":"\u2018Ajm\u0101n"}]},"links":{"self":"https:\/\/api.gleif.org\/api\/v1\/regions\/AE-AJ"}},{"type":"regions","id":"AE-AZ","attributes":{"code":"AE-AZ","name":null,"names":[{"language":"ar","name":"Ab\u016b Z\u0327aby"}]},"links":{"self":"https:\/\/api.gleif.org\/api\/v1\/regions\/AE-AZ"}},{"type":"regions","id":"AE-DU","attributes":{"code":"AE-DU","name":null,"names":[{"language":"ar","name":"Dubayy"}]},"links":{"self":"https:\/\/api.gleif.org\/api\/v1\/regions\/AE-DU"}}]}