{"meta":{"goldenCopy":{"publishDate":"2025-05-11T00:00:00Z"},"pagination":{"currentPage":1,"perPage":15,"from":1,"to":15,"total":948,"lastPage":64}},"links":{"first":"https:\/\/api.gleif.org\/api\/v1\/lei-records\/INR2EJN1ERAN0W5ZP974\/isins?page%5Bnumber%5D=1&page%5Bsize%5D=15","next":"https:\/\/api.gleif.org\/api\/v1\/lei-records\/INR2EJN1ERAN0W5ZP974\/isins?page%5Bnumber%5D=2&page%5Bsize%5D=15","last":"https:\/\/api.gleif.org\/api\/v1\/lei-records\/INR2EJN1ERAN0W5ZP974\/isins?page%5Bnumber%5D=64&page%5Bsize%5D=15"},"data":[{"type":"isins","id":"6b86bcb4-a3b2-48ea-807e-d2b1ae45bcdb","attributes":{"lei":"INR2EJN1ERAN0W5ZP974","isin":"US59515FFL94"}},{"type":"isins","id":"01e3c781-8efb-4200-a930-fc6af9b1197b","attributes":{"lei":"INR2EJN1ERAN0W5ZP974","isin":"US59515FDE79"}},{"type":"isins","id":"b3f498ed-52fb-4f26-8054-18b0aaeaaa8c","attributes":{"lei":"INR2EJN1ERAN0W5ZP974","isin":"US59515FZ607"}},{"type":"isins","id":"39e64ab4-897c-4a61-b5ed-80ee577ea254","attributes":{"lei":"INR2EJN1ERAN0W5ZP974","isin":"US59515FXK10"}},{"type":"isins","id":"1cf5acfb-302f-4bae-b2ab-e939cd8a6a79","attributes":{"lei":"INR2EJN1ERAN0W5ZP974","isin":"US59515FHX15"}},{"type":"isins","id":"5e24f592-ab30-41f6-a669-0ee8a31a9414","attributes":{"lei":"INR2EJN1ERAN0W5ZP974","isin":"US59515FDJ66"}},{"type":"isins","id":"085a406b-22e5-471c-926b-e8c8f3548e56","attributes":{"lei":"INR2EJN1ERAN0W5ZP974","isin":"US59515FZN31"}},{"type":"isins","id":"998cd00d-8e69-4393-b84b-c22dfebae988","attributes":{"lei":"INR2EJN1ERAN0W5ZP974","isin":"US594918CK80"}},{"type":"isins","id":"f182fe33-2fbd-4698-8ec2-5bcf4b524ccc","attributes":{"lei":"INR2EJN1ERAN0W5ZP974","isin":"US59515F4E72"}},{"type":"isins","id":"3a84a7cf-f689-4c9d-b150-73fd6382c07e","attributes":{"lei":"INR2EJN1ERAN0W5ZP974","isin":"US59515FTD23"}},{"type":"isins","id":"141ab248-c7f5-479d-9835-689ec36729ca","attributes":{"lei":"INR2EJN1ERAN0W5ZP974","isin":"US59515F2E90"}},{"type":"isins","id":"ddbdebfd-5763-44f2-92e3-0d801170e21a","attributes":{"lei":"INR2EJN1ERAN0W5ZP974","isin":"US59515FKJ83"}},{"type":"isins","id":"3353f4f9-08d5-481a-9cab-622192347f5d","attributes":{"lei":"INR2EJN1ERAN0W5ZP974","isin":"US59515FML12"}},{"type":"isins","id":"cca78a31-3f7e-4bf5-b277-34bcb2e1ff82","attributes":{"lei":"INR2EJN1ERAN0W5ZP974","isin":"US59515F5S59"}},{"type":"isins","id":"9683bbf6-5931-4469-b2ef-f7922a31f6f1","attributes":{"lei":"INR2EJN1ERAN0W5ZP974","isin":"US59515FBT66"}}]}