{"meta":{"goldenCopy":{"publishDate":"2025-05-15T00:00:00Z"},"pagination":{"currentPage":1,"perPage":15,"from":1,"to":15,"total":4201,"lastPage":281}},"links":{"first":"https:\/\/api.gleif.org\/api\/v1\/lei-records\/851WYGNLUQLFZBSYGB56\/isins?page%5Bnumber%5D=1&page%5Bsize%5D=15","next":"https:\/\/api.gleif.org\/api\/v1\/lei-records\/851WYGNLUQLFZBSYGB56\/isins?page%5Bnumber%5D=2&page%5Bsize%5D=15","last":"https:\/\/api.gleif.org\/api\/v1\/lei-records\/851WYGNLUQLFZBSYGB56\/isins?page%5Bnumber%5D=281&page%5Bsize%5D=15"},"data":[{"type":"isins","id":"2feba171-7e9a-4c76-a8af-edc624603262","attributes":{"lei":"851WYGNLUQLFZBSYGB56","isin":"DE000A2SH128"}},{"type":"isins","id":"ecbc9dc3-b419-48e7-8282-deeb582eff5d","attributes":{"lei":"851WYGNLUQLFZBSYGB56","isin":"DE000A2SJT00"}},{"type":"isins","id":"14848f48-a3db-47df-b8f4-4e2a98ef87bc","attributes":{"lei":"851WYGNLUQLFZBSYGB56","isin":"DE000A1KDJ72"}},{"type":"isins","id":"8d3ca23f-f116-4716-a6db-c9e2a42dea3f","attributes":{"lei":"851WYGNLUQLFZBSYGB56","isin":"DE000A2CZPW9"}},{"type":"isins","id":"6ab88305-b125-4bea-8eb3-ea80a79dc68c","attributes":{"lei":"851WYGNLUQLFZBSYGB56","isin":"DE000A14L5J0"}},{"type":"isins","id":"b8a65a97-15f3-443f-83d1-a0ec90e90d95","attributes":{"lei":"851WYGNLUQLFZBSYGB56","isin":"DE000A2GFGV3"}},{"type":"isins","id":"e18491f5-c4a7-489e-ad9b-8c19270cab5e","attributes":{"lei":"851WYGNLUQLFZBSYGB56","isin":"DE000A1PVAB8"}},{"type":"isins","id":"2e803843-c139-4722-9f79-76274b4c6559","attributes":{"lei":"851WYGNLUQLFZBSYGB56","isin":"DE000A1KDK95"}},{"type":"isins","id":"88d17b8b-208e-4471-9193-bf1751a9fc2d","attributes":{"lei":"851WYGNLUQLFZBSYGB56","isin":"DE000A14LQB7"}},{"type":"isins","id":"569b3d82-fe21-4a40-9eff-1b2772295bd0","attributes":{"lei":"851WYGNLUQLFZBSYGB56","isin":"US20259YPC92"}},{"type":"isins","id":"9718a543-163c-4665-a035-5c96cb3c985e","attributes":{"lei":"851WYGNLUQLFZBSYGB56","isin":"DE000A2SE364"}},{"type":"isins","id":"faa2d3d3-7aba-4d2d-bd86-ecf4ada9599e","attributes":{"lei":"851WYGNLUQLFZBSYGB56","isin":"DE000A11RKD9"}},{"type":"isins","id":"3d29eec7-a12b-4361-b887-5ef3b455e6f9","attributes":{"lei":"851WYGNLUQLFZBSYGB56","isin":"DE000A1PTVK9"}},{"type":"isins","id":"2c1e6ccb-3bd8-4049-a4a7-1d6e523121ac","attributes":{"lei":"851WYGNLUQLFZBSYGB56","isin":"DE000A1PUKY1"}},{"type":"isins","id":"3c0d75a0-0bf5-4dc8-84ff-4fdf2f17d7d0","attributes":{"lei":"851WYGNLUQLFZBSYGB56","isin":"DE000A2BMWN4"}}]}