{"meta":{"goldenCopy":{"publishDate":"2025-05-15T00:00:00Z"},"pagination":{"currentPage":1,"perPage":15,"from":1,"to":15,"total":1823,"lastPage":122}},"links":{"first":"https:\/\/api.gleif.org\/api\/v1\/lei-records\/21380068P1DRHMJ8KU70\/isins?page%5Bnumber%5D=1&page%5Bsize%5D=15","next":"https:\/\/api.gleif.org\/api\/v1\/lei-records\/21380068P1DRHMJ8KU70\/isins?page%5Bnumber%5D=2&page%5Bsize%5D=15","last":"https:\/\/api.gleif.org\/api\/v1\/lei-records\/21380068P1DRHMJ8KU70\/isins?page%5Bnumber%5D=122&page%5Bsize%5D=15"},"data":[{"type":"isins","id":"45f9bd9e-cd76-4c2d-96f4-a9c23c2dcc5f","attributes":{"lei":"21380068P1DRHMJ8KU70","isin":"US82266JMB88"}},{"type":"isins","id":"123daef1-fe77-4509-bad3-256fa8c4b1b6","attributes":{"lei":"21380068P1DRHMJ8KU70","isin":"US82266MJ749"}},{"type":"isins","id":"0b53602d-9f83-4e1c-9189-96e195564130","attributes":{"lei":"21380068P1DRHMJ8KU70","isin":"US82266JJ489"}},{"type":"isins","id":"395bd4b0-35fe-43c5-8656-9306de29c47a","attributes":{"lei":"21380068P1DRHMJ8KU70","isin":"US82266JVT95"}},{"type":"isins","id":"9ca863bb-1b61-4b5a-955c-c0f91d885816","attributes":{"lei":"21380068P1DRHMJ8KU70","isin":"US82266MZ356"}},{"type":"isins","id":"1c77ca8d-6190-4cf3-9dec-3f7fee7eaf9f","attributes":{"lei":"21380068P1DRHMJ8KU70","isin":"US82266MRX82"}},{"type":"isins","id":"a10fe001-95d1-4d9e-8110-d076077fb44d","attributes":{"lei":"21380068P1DRHMJ8KU70","isin":"US82266MT813"}},{"type":"isins","id":"6c6b3981-d789-4ccb-9ab3-59bd3a6ce261","attributes":{"lei":"21380068P1DRHMJ8KU70","isin":"US82266JLC70"}},{"type":"isins","id":"0e8d214d-ff07-4447-9368-774354ba0a73","attributes":{"lei":"21380068P1DRHMJ8KU70","isin":"US82266JPJ87"}},{"type":"isins","id":"42eac296-6d1c-4065-b55d-10297b0f174e","attributes":{"lei":"21380068P1DRHMJ8KU70","isin":"US82266MUF30"}},{"type":"isins","id":"c015f4aa-437b-4a6c-96d8-cbaa2f09e5e2","attributes":{"lei":"21380068P1DRHMJ8KU70","isin":"US82266JX837"}},{"type":"isins","id":"6dfce5e8-d0e8-429b-865d-23a3c9be398c","attributes":{"lei":"21380068P1DRHMJ8KU70","isin":"US82266JWG65"}},{"type":"isins","id":"c58e8110-1ca1-4658-acf5-8df75917ba1d","attributes":{"lei":"21380068P1DRHMJ8KU70","isin":"US82266MUW62"}},{"type":"isins","id":"76e9b0ef-7ef0-46e7-b216-60c4376cc90a","attributes":{"lei":"21380068P1DRHMJ8KU70","isin":"US82266MJQ24"}},{"type":"isins","id":"3b75590c-0295-405e-b8f5-4eb36b0aa802","attributes":{"lei":"21380068P1DRHMJ8KU70","isin":"US82266MC488"}}]}