{"meta":{"pagination":{"currentPage":1,"perPage":10,"from":1,"to":10,"total":250,"lastPage":25}},"links":{"first":"https:\/\/api.gleif.org\/api\/v1\/countries?sort=code&page%5Bnumber%5D=1&page%5Bsize%5D=10","next":"https:\/\/api.gleif.org\/api\/v1\/countries?sort=code&page%5Bnumber%5D=2&page%5Bsize%5D=10","last":"https:\/\/api.gleif.org\/api\/v1\/countries?sort=code&page%5Bnumber%5D=25&page%5Bsize%5D=10"},"data":[{"type":"countries","id":"AD","attributes":{"code":"AD","name":"Andorra"},"links":{"self":"https:\/\/api.gleif.org\/api\/v1\/countries\/AD"}},{"type":"countries","id":"AE","attributes":{"code":"AE","name":"United Arab Emirates (the)"},"links":{"self":"https:\/\/api.gleif.org\/api\/v1\/countries\/AE"}},{"type":"countries","id":"AF","attributes":{"code":"AF","name":"Afghanistan"},"links":{"self":"https:\/\/api.gleif.org\/api\/v1\/countries\/AF"}},{"type":"countries","id":"AG","attributes":{"code":"AG","name":"Antigua and Barbuda"},"links":{"self":"https:\/\/api.gleif.org\/api\/v1\/countries\/AG"}},{"type":"countries","id":"AI","attributes":{"code":"AI","name":"Anguilla"},"links":{"self":"https:\/\/api.gleif.org\/api\/v1\/countries\/AI"}},{"type":"countries","id":"AL","attributes":{"code":"AL","name":"Albania"},"links":{"self":"https:\/\/api.gleif.org\/api\/v1\/countries\/AL"}},{"type":"countries","id":"AM","attributes":{"code":"AM","name":"Armenia"},"links":{"self":"https:\/\/api.gleif.org\/api\/v1\/countries\/AM"}},{"type":"countries","id":"AO","attributes":{"code":"AO","name":"Angola"},"links":{"self":"https:\/\/api.gleif.org\/api\/v1\/countries\/AO"}},{"type":"countries","id":"AQ","attributes":{"code":"AQ","name":"Antarctica"},"links":{"self":"https:\/\/api.gleif.org\/api\/v1\/countries\/AQ"}},{"type":"countries","id":"AR","attributes":{"code":"AR","name":"Argentina"},"links":{"self":"https:\/\/api.gleif.org\/api\/v1\/countries\/AR"}}]}