{"meta":{"pagination":{"currentPage":1,"perPage":10,"from":1,"to":10,"total":3430,"lastPage":343}},"links":{"first":"https:\/\/api.gleif.org\/api\/v1\/entity-legal-forms?page%5Bnumber%5D=1&page%5Bsize%5D=10","next":"https:\/\/api.gleif.org\/api\/v1\/entity-legal-forms?page%5Bnumber%5D=2&page%5Bsize%5D=10","last":"https:\/\/api.gleif.org\/api\/v1\/entity-legal-forms?page%5Bnumber%5D=343&page%5Bsize%5D=10"},"data":[{"type":"entity-legal-forms","id":"0AWU","attributes":{"code":"0AWU","country":"United States of America","jurisdiction":"Oregon","countryCode":"US","subdivisionCode":"US-OR","dateCreated":"2023-09-28","status":"ACTV","names":[{"localName":"credit union","language":"English","languageCode":"en","transliteratedName":"credit union"}]},"links":{"self":"https:\/\/api.gleif.org\/api\/v1\/entity-legal-forms\/0AWU"}},{"type":"entity-legal-forms","id":"0GY3","attributes":{"code":"0GY3","country":"United States of America","jurisdiction":"Colorado","countryCode":"US","subdivisionCode":"US-CO","dateCreated":"2023-09-28","status":"ACTV","names":[{"localName":"credit union","language":"English","languageCode":"en","transliteratedName":"credit union"}]},"links":{"self":"https:\/\/api.gleif.org\/api\/v1\/entity-legal-forms\/0GY3"}},{"type":"entity-legal-forms","id":"0OCP","attributes":{"code":"0OCP","country":"Viet Nam","jurisdiction":null,"countryCode":"VN","subdivisionCode":null,"dateCreated":"2023-09-28","status":"ACTV","names":[{"localName":"c\u00f4ng ty tr\u00e1ch nhi\u1ec7m h\u1eefu h\u1ea1n","language":"Vietnamese","languageCode":"vi","transliteratedName":"c\u00f4ng ty tr\u00e1ch nhi\u1ec7m h\u1eefu h\u1ea1n"}]},"links":{"self":"https:\/\/api.gleif.org\/api\/v1\/entity-legal-forms\/0OCP"}},{"type":"entity-legal-forms","id":"0SKB","attributes":{"code":"0SKB","country":"United States of America","jurisdiction":"Indiana","countryCode":"US","subdivisionCode":"US-IN","dateCreated":"2023-09-28","status":"ACTV","names":[{"localName":"credit union","language":"English","languageCode":"en","transliteratedName":"credit union"}]},"links":{"self":"https:\/\/api.gleif.org\/api\/v1\/entity-legal-forms\/0SKB"}},{"type":"entity-legal-forms","id":"0WOU","attributes":{"code":"0WOU","country":"United States of America","jurisdiction":"Kansas","countryCode":"US","subdivisionCode":"US-KS","dateCreated":"2023-09-28","status":"ACTV","names":[{"localName":"credit union","language":"English","languageCode":"en","transliteratedName":"credit union"}]},"links":{"self":"https:\/\/api.gleif.org\/api\/v1\/entity-legal-forms\/0WOU"}},{"type":"entity-legal-forms","id":"106J","attributes":{"code":"106J","country":"Belarus","jurisdiction":null,"countryCode":"BY","subdivisionCode":null,"dateCreated":"2020-06-10","status":"ACTV","names":[{"localName":"\u0417\u0430\u043a\u0440\u044b\u0442\u0430\u0435 \u0430\u043a\u0446\u044b\u044f\u043d\u0435\u0440\u043d\u0430\u0435 \u0442\u0430\u0432\u0430\u0440\u044b\u0441\u0442\u0432\u0430","language":"Belarusian","languageCode":"be","transliteratedName":"Zakrytae akcyyanernae tavarystva"},{"localName":"\u0417\u0430\u043a\u0440\u044b\u0442\u043e\u0435 \u0430\u043a\u0446\u0438\u043e\u043d\u0435\u0440\u043d\u043e\u0435 \u043e\u0431\u0449\u0435\u0441\u0442\u0432\u043e","language":"Russian","languageCode":"ru","transliteratedName":"Zakrytoe akcionernoe obshchestvo"}]},"links":{"self":"https:\/\/api.gleif.org\/api\/v1\/entity-legal-forms\/106J"}},{"type":"entity-legal-forms","id":"10GE","attributes":{"code":"10GE","country":"United States of America","jurisdiction":"Wisconsin","countryCode":"US","subdivisionCode":"US-WI","dateCreated":"2023-09-28","status":"ACTV","names":[{"localName":"credit union","language":"English","languageCode":"en","transliteratedName":"credit union"}]},"links":{"self":"https:\/\/api.gleif.org\/api\/v1\/entity-legal-forms\/10GE"}},{"type":"entity-legal-forms","id":"10ST","attributes":{"code":"10ST","country":"Saint Vincent and the Grenadines","jurisdiction":null,"countryCode":"VC","subdivisionCode":null,"dateCreated":"2021-09-23","status":"ACTV","names":[{"localName":"association","language":"English","languageCode":"en","transliteratedName":"association"}]},"links":{"self":"https:\/\/api.gleif.org\/api\/v1\/entity-legal-forms\/10ST"}},{"type":"entity-legal-forms","id":"10UR","attributes":{"code":"10UR","country":"Canada","jurisdiction":"Quebec","countryCode":"CA","subdivisionCode":"CA-QC","dateCreated":"2017-11-30","status":"ACTV","names":[{"localName":"Syndicat coop\u00e9ratif","language":"French","languageCode":"fr","transliteratedName":"Syndicat coop\u00e9ratif"}]},"links":{"self":"https:\/\/api.gleif.org\/api\/v1\/entity-legal-forms\/10UR"}},{"type":"entity-legal-forms","id":"11GD","attributes":{"code":"11GD","country":"United States of America","jurisdiction":"South Carolina","countryCode":"US","subdivisionCode":"US-SC","dateCreated":"2020-06-10","status":"ACTV","names":[{"localName":"Nonprofit Corporation","language":"English","languageCode":"en","transliteratedName":"Nonprofit Corporation"}]},"links":{"self":"https:\/\/api.gleif.org\/api\/v1\/entity-legal-forms\/11GD"}}]}