{"meta":{"goldenCopy":{"publishDate":"2025-05-15T00:00:00Z"},"pagination":{"currentPage":1,"perPage":15,"from":1,"to":15,"total":35,"lastPage":3}},"links":{"first":"https:\/\/api.gleif.org\/api\/v1\/lei-records\/851WYGNLUQLFZBSYGB56\/direct-child-relationships?page%5Bnumber%5D=1&page%5Bsize%5D=15","next":"https:\/\/api.gleif.org\/api\/v1\/lei-records\/851WYGNLUQLFZBSYGB56\/direct-child-relationships?page%5Bnumber%5D=2&page%5Bsize%5D=15","last":"https:\/\/api.gleif.org\/api\/v1\/lei-records\/851WYGNLUQLFZBSYGB56\/direct-child-relationships?page%5Bnumber%5D=3&page%5Bsize%5D=15"},"data":[{"type":"relationship-records","id":"969500CF6KZ8GL8U6948|LEI|IS_DIRECTLY_CONSOLIDATED_BY|7|95aaee208118c9fe7088d394478a997bee864c6d8ead6dc03d29013a3ec49981|","attributes":{"validFrom":"2022-03-29T16:00:00Z","validTo":null,"relationship":{"startNode":{"id":"969500CF6KZ8GL8U6948","type":"LEI"},"endNode":{"id":"851WYGNLUQLFZBSYGB56","type":"LEI"},"type":"IS_DIRECTLY_CONSOLIDATED_BY","status":"ACTIVE","periods":[{"startDate":"2009-01-11T23:00:00Z","type":"RELATIONSHIP_PERIOD"},{"startDate":"2015-12-31T23:00:00Z","endDate":"2016-12-30T23:00:00Z","type":"ACCOUNTING_PERIOD"},{"startDate":"2017-03-22T23:00:00Z","type":"DOCUMENT_FILING_PERIOD"}]},"registration":{"initialRegistrationDate":"2018-03-21T23:00:00Z","lastUpdateDate":"2021-03-23T22:52:42Z","status":"LAPSED","nextRenewalDate":"2021-03-23T09:15:40Z","managingLou":"969500Q2MA9VBQ8BG884","corroborationLevel":"FULLY_CORROBORATED","corroborationDocuments":"ACCOUNTS_FILING","corroborationReference":null},"extension":{"deletedAt":null}},"relationships":{"start-node":{"links":{"related":"https:\/\/api.gleif.org\/api\/v1\/lei-records\/969500CF6KZ8GL8U6948"}},"end-node":{"links":{"related":"https:\/\/api.gleif.org\/api\/v1\/lei-records\/851WYGNLUQLFZBSYGB56"}}}},{"type":"relationship-records","id":"2138006BPX69DVCW7H25|LEI|IS_DIRECTLY_CONSOLIDATED_BY|11|29fb45d22b9a632d6a40f9b627ca5fed4d8d471fba3a08dc6d0ded62ed38a330|","attributes":{"validFrom":"2022-06-16T08:00:00Z","validTo":null,"relationship":{"startNode":{"id":"2138006BPX69DVCW7H25","type":"LEI"},"endNode":{"id":"851WYGNLUQLFZBSYGB56","type":"LEI"},"type":"IS_DIRECTLY_CONSOLIDATED_BY","status":"ACTIVE","periods":[{"startDate":"2017-01-01T00:00:00Z","endDate":"2017-12-31T00:00:00Z","type":"ACCOUNTING_PERIOD"},{"startDate":"2017-06-13T00:00:00Z","type":"RELATIONSHIP_PERIOD"}]},"registration":{"initialRegistrationDate":"2017-06-13T00:00:00Z","lastUpdateDate":"2022-06-16T00:05:41Z","status":"LAPSED","nextRenewalDate":"2022-06-15T00:00:00Z","managingLou":"213800WAVVOPS85N2205","corroborationLevel":"ENTITY_SUPPLIED_ONLY","corroborationDocuments":"SUPPORTING_DOCUMENTS","corroborationReference":"https:\/\/beta.companieshouse.gov.uk\/company\/03586378\/filing-history\/MzIwMDIwMzQzMGFkaXF6a2N4\/document?format=pdf&download=0"},"extension":{"deletedAt":null}},"relationships":{"start-node":{"links":{"related":"https:\/\/api.gleif.org\/api\/v1\/lei-records\/2138006BPX69DVCW7H25"}},"end-node":{"links":{"related":"https:\/\/api.gleif.org\/api\/v1\/lei-records\/851WYGNLUQLFZBSYGB56"}}}},{"type":"relationship-records","id":"222100RB6N1EBY6GMD95|LEI|IS_DIRECTLY_CONSOLIDATED_BY|12|331af63bc1e456e1dd56fdec552b24fe6d15a50d58c259138473701d2cf7dbf4|","attributes":{"validFrom":"2022-04-05T00:00:00Z","validTo":null,"relationship":{"startNode":{"id":"222100RB6N1EBY6GMD95","type":"LEI"},"endNode":{"id":"851WYGNLUQLFZBSYGB56","type":"LEI"},"type":"IS_DIRECTLY_CONSOLIDATED_BY","status":"ACTIVE","periods":[{"startDate":"2016-01-01T00:00:00Z","endDate":"2016-12-31T00:00:00Z","type":"ACCOUNTING_PERIOD"},{"startDate":"2017-11-08T00:00:00Z","type":"RELATIONSHIP_PERIOD"}]},"registration":{"initialRegistrationDate":"2017-11-08T00:00:00Z","lastUpdateDate":"2020-05-01T00:52:21Z","status":"LAPSED","nextRenewalDate":"2020-04-30T00:00:00Z","managingLou":"213800WAVVOPS85N2205","corroborationLevel":"ENTITY_SUPPLIED_ONLY","corroborationDocuments":"OTHER_OFFICIAL_DOCUMENTS","corroborationReference":null},"extension":{"deletedAt":null}},"relationships":{"start-node":{"links":{"related":"https:\/\/api.gleif.org\/api\/v1\/lei-records\/222100RB6N1EBY6GMD95"}},"end-node":{"links":{"related":"https:\/\/api.gleif.org\/api\/v1\/lei-records\/851WYGNLUQLFZBSYGB56"}}}},{"type":"relationship-records","id":"2138009VQHVUG6EEDH80|LEI|IS_DIRECTLY_CONSOLIDATED_BY|14|fcfcd1e0231c84cca14c63ed37a648cce1ceda45ffd4fb5a09fe0e0f67ade4b7|","attributes":{"validFrom":"2023-01-07T08:00:00Z","validTo":null,"relationship":{"startNode":{"id":"2138009VQHVUG6EEDH80","type":"LEI"},"endNode":{"id":"851WYGNLUQLFZBSYGB56","type":"LEI"},"type":"IS_DIRECTLY_CONSOLIDATED_BY","status":"ACTIVE","periods":[{"startDate":"2019-01-01T00:00:00Z","endDate":"2019-12-31T00:00:00Z","type":"ACCOUNTING_PERIOD"},{"startDate":"2017-12-14T00:00:00Z","type":"RELATIONSHIP_PERIOD"}]},"registration":{"initialRegistrationDate":"2017-12-28T00:00:00Z","lastUpdateDate":"2023-01-07T00:05:40Z","status":"LAPSED","nextRenewalDate":"2023-01-06T00:00:00Z","managingLou":"213800WAVVOPS85N2205","corroborationLevel":"FULLY_CORROBORATED","corroborationDocuments":"ACCOUNTS_FILING","corroborationReference":"https:\/\/find-and-update.company-information.service.gov.uk\/company\/00681392\/filing-history\/MzI3Mjc1ODQxNWFkaXF6a2N4\/document?format=pdf&download=0"},"extension":{"deletedAt":null}},"relationships":{"start-node":{"links":{"related":"https:\/\/api.gleif.org\/api\/v1\/lei-records\/2138009VQHVUG6EEDH80"}},"end-node":{"links":{"related":"https:\/\/api.gleif.org\/api\/v1\/lei-records\/851WYGNLUQLFZBSYGB56"}}}},{"type":"relationship-records","id":"54930045M3Z6J0G1A289|LEI|IS_DIRECTLY_CONSOLIDATED_BY|12|188ead717564b775b5a56cd5522dfc29e0c95a40278200f6ece1326f9bf71fdf|","attributes":{"validFrom":"2023-09-04T00:00:00Z","validTo":null,"relationship":{"startNode":{"id":"54930045M3Z6J0G1A289","type":"LEI"},"endNode":{"id":"851WYGNLUQLFZBSYGB56","type":"LEI"},"type":"IS_DIRECTLY_CONSOLIDATED_BY","status":"ACTIVE","periods":[{"startDate":"2021-01-01T00:00:00Z","endDate":"2021-12-31T00:00:00Z","type":"ACCOUNTING_PERIOD"},{"startDate":"2020-12-14T00:00:00Z","type":"RELATIONSHIP_PERIOD"}]},"registration":{"initialRegistrationDate":"2020-12-21T21:30:00Z","lastUpdateDate":"2023-09-03T13:34:43Z","status":"LAPSED","nextRenewalDate":"2023-09-02T20:44:00Z","managingLou":"5493001KJTIIGC8Y1R12","corroborationLevel":"ENTITY_SUPPLIED_ONLY","corroborationDocuments":"SUPPORTING_DOCUMENTS","corroborationReference":"https:\/\/www.commerzbank.de\/media\/aktionaere\/service\/archive\/konzern\/2020_4\/Geschaeftsbericht_2019_Konzern_EN.pdf"},"extension":{"deletedAt":null}},"relationships":{"start-node":{"links":{"related":"https:\/\/api.gleif.org\/api\/v1\/lei-records\/54930045M3Z6J0G1A289"}},"end-node":{"links":{"related":"https:\/\/api.gleif.org\/api\/v1\/lei-records\/851WYGNLUQLFZBSYGB56"}}}},{"type":"relationship-records","id":"529900ZGCYN3U4YVB894|LEI|IS_DIRECTLY_CONSOLIDATED_BY|9|c7e50b573641706eb008753e4f3dbe3bd0268e41a702a15aefe2293cc226f67e|","attributes":{"validFrom":"2024-09-21T08:00:00Z","validTo":null,"relationship":{"startNode":{"id":"529900ZGCYN3U4YVB894","type":"LEI"},"endNode":{"id":"851WYGNLUQLFZBSYGB56","type":"LEI"},"type":"IS_DIRECTLY_CONSOLIDATED_BY","status":"ACTIVE","periods":[{"startDate":"2021-12-31T23:00:00Z","endDate":"2022-12-30T23:00:00Z","type":"ACCOUNTING_PERIOD"},{"startDate":"2018-08-15T22:00:00Z","type":"RELATIONSHIP_PERIOD"},{"startDate":"2023-03-06T23:00:00Z","type":"DOCUMENT_FILING_PERIOD"}]},"registration":{"initialRegistrationDate":"2018-09-04T13:22:43Z","lastUpdateDate":"2024-09-20T23:30:03Z","status":"LAPSED","nextRenewalDate":"2024-09-21T07:05:54Z","managingLou":"5299000J2N45DDNE4Y28","corroborationLevel":"FULLY_CORROBORATED","corroborationDocuments":"ACCOUNTS_FILING","corroborationReference":null},"extension":{"deletedAt":null}},"relationships":{"start-node":{"links":{"related":"https:\/\/api.gleif.org\/api\/v1\/lei-records\/529900ZGCYN3U4YVB894"}},"end-node":{"links":{"related":"https:\/\/api.gleif.org\/api\/v1\/lei-records\/851WYGNLUQLFZBSYGB56"}}}},{"type":"relationship-records","id":"5299001CL1LTRLN1H695|LEI|IS_DIRECTLY_CONSOLIDATED_BY|6|fb3aec9e7384ea4f82198bc5fec662b79aab4345f37aa32e6119819d0f2357ad|","attributes":{"validFrom":"2024-09-12T08:00:00Z","validTo":null,"relationship":{"startNode":{"id":"5299001CL1LTRLN1H695","type":"LEI"},"endNode":{"id":"851WYGNLUQLFZBSYGB56","type":"LEI"},"type":"IS_DIRECTLY_CONSOLIDATED_BY","status":"ACTIVE","periods":[{"startDate":"2022-12-31T23:00:00Z","endDate":"2023-12-30T23:00:00Z","type":"ACCOUNTING_PERIOD"},{"startDate":"2017-09-11T22:00:00Z","type":"RELATIONSHIP_PERIOD"},{"startDate":"2024-02-27T23:00:00Z","type":"DOCUMENT_FILING_PERIOD"}]},"registration":{"initialRegistrationDate":"2020-09-11T10:32:05Z","lastUpdateDate":"2024-09-11T11:44:07Z","status":"PUBLISHED","nextRenewalDate":"2025-09-21T06:46:38Z","managingLou":"5299000J2N45DDNE4Y28","corroborationLevel":"FULLY_CORROBORATED","corroborationDocuments":"ACCOUNTS_FILING","corroborationReference":null},"extension":{"deletedAt":null}},"relationships":{"start-node":{"links":{"related":"https:\/\/api.gleif.org\/api\/v1\/lei-records\/5299001CL1LTRLN1H695"}},"end-node":{"links":{"related":"https:\/\/api.gleif.org\/api\/v1\/lei-records\/851WYGNLUQLFZBSYGB56"}}}},{"type":"relationship-records","id":"5299009ZI826MEUZM858|LEI|IS_DIRECTLY_CONSOLIDATED_BY|4|55d490ab947cb61eacbbcfc2b6afa0393b23c4d6a78720b6acea0327748dec46|","attributes":{"validFrom":"2024-09-26T08:00:00Z","validTo":null,"relationship":{"startNode":{"id":"5299009ZI826MEUZM858","type":"LEI"},"endNode":{"id":"851WYGNLUQLFZBSYGB56","type":"LEI"},"type":"IS_DIRECTLY_CONSOLIDATED_BY","status":"ACTIVE","periods":[{"startDate":"2022-12-31T23:00:00Z","endDate":"2023-12-30T23:00:00Z","type":"ACCOUNTING_PERIOD"},{"startDate":"2021-11-14T23:00:00Z","type":"RELATIONSHIP_PERIOD"},{"startDate":"2024-02-27T23:00:00Z","type":"DOCUMENT_FILING_PERIOD"}]},"registration":{"initialRegistrationDate":"2021-11-15T14:01:15Z","lastUpdateDate":"2024-09-25T13:17:25Z","status":"PUBLISHED","nextRenewalDate":"2025-11-15T14:01:15Z","managingLou":"5299000J2N45DDNE4Y28","corroborationLevel":"FULLY_CORROBORATED","corroborationDocuments":"ACCOUNTS_FILING","corroborationReference":null},"extension":{"deletedAt":null}},"relationships":{"start-node":{"links":{"related":"https:\/\/api.gleif.org\/api\/v1\/lei-records\/5299009ZI826MEUZM858"}},"end-node":{"links":{"related":"https:\/\/api.gleif.org\/api\/v1\/lei-records\/851WYGNLUQLFZBSYGB56"}}}},{"type":"relationship-records","id":"549300IMBXQ8SGH3HJ31|LEI|IS_DIRECTLY_CONSOLIDATED_BY|23|199dcbc4b3a4417d0e22899a97dc5b8df2e498901a3be3cbe9c1da27b9e7377d|","attributes":{"validFrom":"2024-07-13T00:00:00Z","validTo":null,"relationship":{"startNode":{"id":"549300IMBXQ8SGH3HJ31","type":"LEI"},"endNode":{"id":"851WYGNLUQLFZBSYGB56","type":"LEI"},"type":"IS_DIRECTLY_CONSOLIDATED_BY","status":"ACTIVE","periods":[{"startDate":"2022-01-01T00:00:00Z","endDate":"2022-12-31T00:00:00Z","type":"ACCOUNTING_PERIOD"},{"startDate":"2019-02-10T00:00:00Z","type":"RELATIONSHIP_PERIOD"}]},"registration":{"initialRegistrationDate":"2017-06-24T01:54:00Z","lastUpdateDate":"2024-07-12T13:30:04Z","status":"LAPSED","nextRenewalDate":"2024-07-11T18:26:45Z","managingLou":"5493001KJTIIGC8Y1R12","corroborationLevel":"ENTITY_SUPPLIED_ONLY","corroborationDocuments":"SUPPORTING_DOCUMENTS","corroborationReference":null},"extension":{"deletedAt":null}},"relationships":{"start-node":{"links":{"related":"https:\/\/api.gleif.org\/api\/v1\/lei-records\/549300IMBXQ8SGH3HJ31"}},"end-node":{"links":{"related":"https:\/\/api.gleif.org\/api\/v1\/lei-records\/851WYGNLUQLFZBSYGB56"}}}},{"type":"relationship-records","id":"5299004WB7RSQ717XX73|LEI|IS_DIRECTLY_CONSOLIDATED_BY|8|38873bd602af6132880e2855f87311318106f02ef4d36ab5cd3c0634c857cc9c|","attributes":{"validFrom":"2024-08-06T08:00:00Z","validTo":null,"relationship":{"startNode":{"id":"5299004WB7RSQ717XX73","type":"LEI"},"endNode":{"id":"851WYGNLUQLFZBSYGB56","type":"LEI"},"type":"IS_DIRECTLY_CONSOLIDATED_BY","status":"ACTIVE","periods":[{"startDate":"2022-12-31T23:00:00Z","endDate":"2023-12-30T23:00:00Z","type":"ACCOUNTING_PERIOD"},{"startDate":"2017-09-26T22:00:00Z","type":"RELATIONSHIP_PERIOD"},{"startDate":"2024-02-27T23:00:00Z","type":"DOCUMENT_FILING_PERIOD"}]},"registration":{"initialRegistrationDate":"2017-10-23T11:57:57Z","lastUpdateDate":"2024-08-05T10:52:58Z","status":"PUBLISHED","nextRenewalDate":"2025-09-27T22:00:00Z","managingLou":"5299000J2N45DDNE4Y28","corroborationLevel":"FULLY_CORROBORATED","corroborationDocuments":"ACCOUNTS_FILING","corroborationReference":null},"extension":{"deletedAt":null}},"relationships":{"start-node":{"links":{"related":"https:\/\/api.gleif.org\/api\/v1\/lei-records\/5299004WB7RSQ717XX73"}},"end-node":{"links":{"related":"https:\/\/api.gleif.org\/api\/v1\/lei-records\/851WYGNLUQLFZBSYGB56"}}}},{"type":"relationship-records","id":"52990083JB2SFM6ZQ680|LEI|IS_DIRECTLY_CONSOLIDATED_BY|11|93484ca15fa628625953d74c61f770a59b43288b681e78e278b61beff9be01d9|","attributes":{"validFrom":"2024-08-01T08:00:00Z","validTo":null,"relationship":{"startNode":{"id":"52990083JB2SFM6ZQ680","type":"LEI"},"endNode":{"id":"851WYGNLUQLFZBSYGB56","type":"LEI"},"type":"IS_DIRECTLY_CONSOLIDATED_BY","status":"ACTIVE","periods":[{"startDate":"2022-12-31T23:00:00Z","endDate":"2023-12-30T23:00:00Z","type":"ACCOUNTING_PERIOD"},{"startDate":"2018-06-19T22:00:00Z","type":"RELATIONSHIP_PERIOD"},{"startDate":"2024-02-27T23:00:00Z","type":"DOCUMENT_FILING_PERIOD"}]},"registration":{"initialRegistrationDate":"2018-02-05T16:04:21Z","lastUpdateDate":"2024-07-31T15:18:26Z","status":"PUBLISHED","nextRenewalDate":"2025-07-31T15:18:26Z","managingLou":"5299000J2N45DDNE4Y28","corroborationLevel":"FULLY_CORROBORATED","corroborationDocuments":"ACCOUNTS_FILING","corroborationReference":null},"extension":{"deletedAt":null}},"relationships":{"start-node":{"links":{"related":"https:\/\/api.gleif.org\/api\/v1\/lei-records\/52990083JB2SFM6ZQ680"}},"end-node":{"links":{"related":"https:\/\/api.gleif.org\/api\/v1\/lei-records\/851WYGNLUQLFZBSYGB56"}}}},{"type":"relationship-records","id":"529900MW1O27ER2XU354|LEI|IS_DIRECTLY_CONSOLIDATED_BY|6|1de40b34e266f5b6fd0d48ab26e27fdd6ee99103fd36ebc69a0ff2549b8c1954|","attributes":{"validFrom":"2024-08-01T08:00:00Z","validTo":null,"relationship":{"startNode":{"id":"529900MW1O27ER2XU354","type":"LEI"},"endNode":{"id":"851WYGNLUQLFZBSYGB56","type":"LEI"},"type":"IS_DIRECTLY_CONSOLIDATED_BY","status":"ACTIVE","periods":[{"startDate":"2022-12-31T23:00:00Z","endDate":"2023-12-30T23:00:00Z","type":"ACCOUNTING_PERIOD"},{"startDate":"2018-02-04T23:00:00Z","type":"RELATIONSHIP_PERIOD"},{"startDate":"2024-02-27T23:00:00Z","type":"DOCUMENT_FILING_PERIOD"}]},"registration":{"initialRegistrationDate":"2021-03-17T09:14:37Z","lastUpdateDate":"2024-07-31T15:14:10Z","status":"PUBLISHED","nextRenewalDate":"2025-07-31T15:14:09Z","managingLou":"5299000J2N45DDNE4Y28","corroborationLevel":"FULLY_CORROBORATED","corroborationDocuments":"ACCOUNTS_FILING","corroborationReference":null},"extension":{"deletedAt":null}},"relationships":{"start-node":{"links":{"related":"https:\/\/api.gleif.org\/api\/v1\/lei-records\/529900MW1O27ER2XU354"}},"end-node":{"links":{"related":"https:\/\/api.gleif.org\/api\/v1\/lei-records\/851WYGNLUQLFZBSYGB56"}}}},{"type":"relationship-records","id":"529900XSXWY28D0B2H29|LEI|IS_DIRECTLY_CONSOLIDATED_BY|8|d06c8364d0e12f9d567720e5bec282dec800cb2d44921b9748dd149bd1be7e63|","attributes":{"validFrom":"2024-07-24T08:00:00Z","validTo":null,"relationship":{"startNode":{"id":"529900XSXWY28D0B2H29","type":"LEI"},"endNode":{"id":"851WYGNLUQLFZBSYGB56","type":"LEI"},"type":"IS_DIRECTLY_CONSOLIDATED_BY","status":"ACTIVE","periods":[{"startDate":"2022-12-31T23:00:00Z","endDate":"2023-12-30T23:00:00Z","type":"ACCOUNTING_PERIOD"},{"startDate":"2021-07-15T22:00:00Z","type":"RELATIONSHIP_PERIOD"},{"startDate":"2024-02-27T23:00:00Z","type":"DOCUMENT_FILING_PERIOD"}]},"registration":{"initialRegistrationDate":"2021-08-12T07:21:45Z","lastUpdateDate":"2024-07-23T13:29:13Z","status":"PUBLISHED","nextRenewalDate":"2025-09-14T09:17:00Z","managingLou":"5299000J2N45DDNE4Y28","corroborationLevel":"FULLY_CORROBORATED","corroborationDocuments":"ACCOUNTS_FILING","corroborationReference":null},"extension":{"deletedAt":null}},"relationships":{"start-node":{"links":{"related":"https:\/\/api.gleif.org\/api\/v1\/lei-records\/529900XSXWY28D0B2H29"}},"end-node":{"links":{"related":"https:\/\/api.gleif.org\/api\/v1\/lei-records\/851WYGNLUQLFZBSYGB56"}}}},{"type":"relationship-records","id":"894500DGUWGT9NMYY913|LEI|IS_DIRECTLY_CONSOLIDATED_BY|8|87ab7db692b55ef29d9755b0bd29531e393e1a8f6314f0d0b1ad495459b2a6f0|","attributes":{"validFrom":"2024-11-12T00:00:00Z","validTo":null,"relationship":{"startNode":{"id":"894500DGUWGT9NMYY913","type":"LEI"},"endNode":{"id":"851WYGNLUQLFZBSYGB56","type":"LEI"},"type":"IS_DIRECTLY_CONSOLIDATED_BY","status":"ACTIVE","periods":[{"startDate":"2022-12-31T23:00:00Z","endDate":"2023-12-30T23:00:00Z","type":"ACCOUNTING_PERIOD"},{"startDate":"2017-12-08T15:09:50Z","type":"RELATIONSHIP_PERIOD"}]},"registration":{"initialRegistrationDate":"2017-12-08T15:10:50Z","lastUpdateDate":"2024-11-11T11:43:11Z","status":"PUBLISHED","nextRenewalDate":"2025-12-08T15:10:11Z","managingLou":"529900F6BNUR3RJ2WH29","corroborationLevel":"FULLY_CORROBORATED","corroborationDocuments":"ACCOUNTS_FILING","corroborationReference":null},"extension":{"deletedAt":null}},"relationships":{"start-node":{"links":{"related":"https:\/\/api.gleif.org\/api\/v1\/lei-records\/894500DGUWGT9NMYY913"}},"end-node":{"links":{"related":"https:\/\/api.gleif.org\/api\/v1\/lei-records\/851WYGNLUQLFZBSYGB56"}}}},{"type":"relationship-records","id":"529900J1HVN3RNG5D317|LEI|IS_DIRECTLY_CONSOLIDATED_BY|9|1103838c501a9cebb2e3f99eb71bdc659d588986a266c5e9fc27dcd8f2a0c21a|","attributes":{"validFrom":"2024-09-18T08:00:00Z","validTo":null,"relationship":{"startNode":{"id":"529900J1HVN3RNG5D317","type":"LEI"},"endNode":{"id":"851WYGNLUQLFZBSYGB56","type":"LEI"},"type":"IS_DIRECTLY_CONSOLIDATED_BY","status":"ACTIVE","periods":[{"startDate":"2022-12-31T23:00:00Z","endDate":"2023-12-30T23:00:00Z","type":"ACCOUNTING_PERIOD"},{"startDate":"2017-10-22T22:00:00Z","type":"RELATIONSHIP_PERIOD"},{"startDate":"2024-02-27T23:00:00Z","type":"DOCUMENT_FILING_PERIOD"}]},"registration":{"initialRegistrationDate":"2017-10-30T09:44:12Z","lastUpdateDate":"2024-09-17T12:50:12Z","status":"PUBLISHED","nextRenewalDate":"2025-11-08T11:13:17Z","managingLou":"5299000J2N45DDNE4Y28","corroborationLevel":"FULLY_CORROBORATED","corroborationDocuments":"ACCOUNTS_FILING","corroborationReference":null},"extension":{"deletedAt":null}},"relationships":{"start-node":{"links":{"related":"https:\/\/api.gleif.org\/api\/v1\/lei-records\/529900J1HVN3RNG5D317"}},"end-node":{"links":{"related":"https:\/\/api.gleif.org\/api\/v1\/lei-records\/851WYGNLUQLFZBSYGB56"}}}}]}