{"meta":{"goldenCopy":{"publishDate":"2025-05-11T00:00:00Z"},"pagination":{"currentPage":1,"perPage":15,"from":1,"to":15,"total":106,"lastPage":8}},"links":{"first":"https:\/\/api.gleif.org\/api\/v1\/lei-records\/21380068P1DRHMJ8KU70\/direct-child-relationships?page%5Bnumber%5D=1&page%5Bsize%5D=15","next":"https:\/\/api.gleif.org\/api\/v1\/lei-records\/21380068P1DRHMJ8KU70\/direct-child-relationships?page%5Bnumber%5D=2&page%5Bsize%5D=15","last":"https:\/\/api.gleif.org\/api\/v1\/lei-records\/21380068P1DRHMJ8KU70\/direct-child-relationships?page%5Bnumber%5D=8&page%5Bsize%5D=15"},"data":[{"type":"relationship-records","id":"21380018Z33A3VAKQQ62|LEI|IS_DIRECTLY_CONSOLIDATED_BY|8|df7c80555b3dbb4553349cd13b5bd073d46de6698180afab9cb1884be4304b00|","attributes":{"validFrom":"2022-06-08T00:00:00Z","validTo":null,"relationship":{"startNode":{"id":"21380018Z33A3VAKQQ62","type":"LEI"},"endNode":{"id":"21380068P1DRHMJ8KU70","type":"LEI"},"type":"IS_DIRECTLY_CONSOLIDATED_BY","status":"ACTIVE","periods":[{"startDate":"2018-01-01T00:00:00Z","endDate":"2018-12-31T00:00:00Z","type":"ACCOUNTING_PERIOD"},{"startDate":"2013-11-01T00:00:00Z","type":"RELATIONSHIP_PERIOD"}]},"registration":{"initialRegistrationDate":"2013-11-01T00:00:00Z","lastUpdateDate":"2022-06-07T06:58:39Z","status":"LAPSED","nextRenewalDate":"2019-11-03T00:00:00Z","managingLou":"213800WAVVOPS85N2205","corroborationLevel":"ENTITY_SUPPLIED_ONLY","corroborationDocuments":"ACCOUNTS_FILING","corroborationReference":"URL not publicly available, validated from document provided by client"},"extension":{"deletedAt":null}},"relationships":{"start-node":{"links":{"related":"https:\/\/api.gleif.org\/api\/v1\/lei-records\/21380018Z33A3VAKQQ62"}},"end-node":{"links":{"related":"https:\/\/api.gleif.org\/api\/v1\/lei-records\/21380068P1DRHMJ8KU70"}}}},{"type":"relationship-records","id":"2138006Q7ZL5PLJTT849|LEI|IS_DIRECTLY_CONSOLIDATED_BY|15|1b097e484a8960111f51c2f449e9b7620177fc27479348eb5da177fc6256cf3c|","attributes":{"validFrom":"2022-12-09T00:00:00Z","validTo":null,"relationship":{"startNode":{"id":"2138006Q7ZL5PLJTT849","type":"LEI"},"endNode":{"id":"21380068P1DRHMJ8KU70","type":"LEI"},"type":"IS_DIRECTLY_CONSOLIDATED_BY","status":"ACTIVE","periods":[{"startDate":"2021-01-01T00:00:00Z","endDate":"2021-12-31T00:00:00Z","type":"ACCOUNTING_PERIOD"},{"startDate":"2018-01-29T00:00:00Z","type":"RELATIONSHIP_PERIOD"}]},"registration":{"initialRegistrationDate":"2017-01-27T00:00:00Z","lastUpdateDate":"2022-12-08T14:12:44Z","status":"PUBLISHED","nextRenewalDate":"2024-01-30T00:00:00Z","managingLou":"213800WAVVOPS85N2205","corroborationLevel":"FULLY_CORROBORATED","corroborationDocuments":"ACCOUNTS_FILING","corroborationReference":"https:\/\/reports.shell.com\/annual-report\/2021\/_assets\/downloads\/shell-annual-report-2021.pdf"},"extension":{"deletedAt":null}},"relationships":{"start-node":{"links":{"related":"https:\/\/api.gleif.org\/api\/v1\/lei-records\/2138006Q7ZL5PLJTT849"}},"end-node":{"links":{"related":"https:\/\/api.gleif.org\/api\/v1\/lei-records\/21380068P1DRHMJ8KU70"}}}},{"type":"relationship-records","id":"2138004LKG5IO9QH3I59|LEI|IS_DIRECTLY_CONSOLIDATED_BY|12|2fda45c95bbe7e31d4973f1a25cedb802cc575f46546d3d88761b93b7f1c937b|","attributes":{"validFrom":"2022-12-22T00:00:00Z","validTo":null,"relationship":{"startNode":{"id":"2138004LKG5IO9QH3I59","type":"LEI"},"endNode":{"id":"21380068P1DRHMJ8KU70","type":"LEI"},"type":"IS_DIRECTLY_CONSOLIDATED_BY","status":"ACTIVE","periods":[{"startDate":"2021-01-01T00:00:00Z","endDate":"2021-12-31T00:00:00Z","type":"ACCOUNTING_PERIOD"},{"startDate":"2017-12-29T00:00:00Z","type":"RELATIONSHIP_PERIOD"}]},"registration":{"initialRegistrationDate":"2017-12-29T00:00:00Z","lastUpdateDate":"2022-12-21T13:10:33Z","status":"PUBLISHED","nextRenewalDate":"2023-12-29T00:00:00Z","managingLou":"213800WAVVOPS85N2205","corroborationLevel":"FULLY_CORROBORATED","corroborationDocuments":"ACCOUNTS_FILING","corroborationReference":"https:\/\/reports.shell.com\/annual-report\/2021\/_assets\/downloads\/shell-annual-report-2021.pdf"},"extension":{"deletedAt":null}},"relationships":{"start-node":{"links":{"related":"https:\/\/api.gleif.org\/api\/v1\/lei-records\/2138004LKG5IO9QH3I59"}},"end-node":{"links":{"related":"https:\/\/api.gleif.org\/api\/v1\/lei-records\/21380068P1DRHMJ8KU70"}}}},{"type":"relationship-records","id":"549300XSPZ26RK6HXZ74|LEI|IS_DIRECTLY_CONSOLIDATED_BY|10|ba27da5491cb6011ddf667e2355803aaf0c7d9eed1c31a591eeccd1d39b165ef|","attributes":{"validFrom":"2023-08-10T00:00:00Z","validTo":null,"relationship":{"startNode":{"id":"549300XSPZ26RK6HXZ74","type":"LEI"},"endNode":{"id":"21380068P1DRHMJ8KU70","type":"LEI"},"type":"IS_DIRECTLY_CONSOLIDATED_BY","status":"ACTIVE","periods":[{"startDate":"2020-01-01T00:00:00Z","endDate":"2020-12-31T00:00:00Z","type":"ACCOUNTING_PERIOD"},{"startDate":"2020-04-06T00:00:00Z","type":"RELATIONSHIP_PERIOD"}]},"registration":{"initialRegistrationDate":"2020-04-27T14:32:00Z","lastUpdateDate":"2023-07-31T17:11:36Z","status":"LAPSED","nextRenewalDate":"2022-03-31T09:04:00Z","managingLou":"213800WAVVOPS85N2205","corroborationLevel":"ENTITY_SUPPLIED_ONLY","corroborationDocuments":"SUPPORTING_DOCUMENTS","corroborationReference":null},"extension":{"deletedAt":null}},"relationships":{"start-node":{"links":{"related":"https:\/\/api.gleif.org\/api\/v1\/lei-records\/549300XSPZ26RK6HXZ74"}},"end-node":{"links":{"related":"https:\/\/api.gleif.org\/api\/v1\/lei-records\/21380068P1DRHMJ8KU70"}}}},{"type":"relationship-records","id":"54930033O06M4CMIUB77|LEI|IS_DIRECTLY_CONSOLIDATED_BY|19|479b0fe669bbbd4fd87983ca2441e5b854449d00ca9d6b4520459e94d6151f0e|","attributes":{"validFrom":"2023-08-10T00:00:00Z","validTo":null,"relationship":{"startNode":{"id":"54930033O06M4CMIUB77","type":"LEI"},"endNode":{"id":"21380068P1DRHMJ8KU70","type":"LEI"},"type":"IS_DIRECTLY_CONSOLIDATED_BY","status":"ACTIVE","periods":[{"startDate":"2019-01-01T00:00:00Z","endDate":"2019-12-31T00:00:00Z","type":"ACCOUNTING_PERIOD"},{"startDate":"2018-01-29T00:00:00Z","type":"RELATIONSHIP_PERIOD"}]},"registration":{"initialRegistrationDate":"2018-01-29T15:34:00Z","lastUpdateDate":"2023-07-31T17:11:36Z","status":"LAPSED","nextRenewalDate":"2022-01-15T10:40:00Z","managingLou":"213800WAVVOPS85N2205","corroborationLevel":"ENTITY_SUPPLIED_ONLY","corroborationDocuments":"SUPPORTING_DOCUMENTS","corroborationReference":null},"extension":{"deletedAt":null}},"relationships":{"start-node":{"links":{"related":"https:\/\/api.gleif.org\/api\/v1\/lei-records\/54930033O06M4CMIUB77"}},"end-node":{"links":{"related":"https:\/\/api.gleif.org\/api\/v1\/lei-records\/21380068P1DRHMJ8KU70"}}}},{"type":"relationship-records","id":"549300YAWIFS8273O417|LEI|IS_DIRECTLY_CONSOLIDATED_BY|10|4ddc754697fd67027d6e9e02dfea327be6f32d3e22b4fb9555ae66bf655086d7|","attributes":{"validFrom":"2023-08-10T00:00:00Z","validTo":null,"relationship":{"startNode":{"id":"549300YAWIFS8273O417","type":"LEI"},"endNode":{"id":"21380068P1DRHMJ8KU70","type":"LEI"},"type":"IS_DIRECTLY_CONSOLIDATED_BY","status":"ACTIVE","periods":[{"startDate":"2020-01-01T00:00:00Z","endDate":"2020-12-31T00:00:00Z","type":"ACCOUNTING_PERIOD"},{"startDate":"2020-04-06T00:00:00Z","type":"RELATIONSHIP_PERIOD"}]},"registration":{"initialRegistrationDate":"2020-04-27T14:32:00Z","lastUpdateDate":"2023-07-31T17:11:36Z","status":"LAPSED","nextRenewalDate":"2022-03-31T09:07:00Z","managingLou":"213800WAVVOPS85N2205","corroborationLevel":"ENTITY_SUPPLIED_ONLY","corroborationDocuments":"SUPPORTING_DOCUMENTS","corroborationReference":null},"extension":{"deletedAt":null}},"relationships":{"start-node":{"links":{"related":"https:\/\/api.gleif.org\/api\/v1\/lei-records\/549300YAWIFS8273O417"}},"end-node":{"links":{"related":"https:\/\/api.gleif.org\/api\/v1\/lei-records\/21380068P1DRHMJ8KU70"}}}},{"type":"relationship-records","id":"549300WVOTTC0QW0ZM23|LEI|IS_DIRECTLY_CONSOLIDATED_BY|17|6eb0284719ae85d93773c971921aa14fbccbf794d0b44e002328a2ce269320d1|","attributes":{"validFrom":"2023-08-11T00:00:00Z","validTo":null,"relationship":{"startNode":{"id":"549300WVOTTC0QW0ZM23","type":"LEI"},"endNode":{"id":"21380068P1DRHMJ8KU70","type":"LEI"},"type":"IS_DIRECTLY_CONSOLIDATED_BY","status":"ACTIVE","periods":[{"startDate":"2019-01-01T00:00:00Z","endDate":"2019-12-31T00:00:00Z","type":"ACCOUNTING_PERIOD"},{"startDate":"2018-05-04T00:00:00Z","type":"RELATIONSHIP_PERIOD"}]},"registration":{"initialRegistrationDate":"2015-03-25T01:52:00Z","lastUpdateDate":"2023-07-31T17:11:36Z","status":"LAPSED","nextRenewalDate":"2022-04-15T10:13:00Z","managingLou":"213800WAVVOPS85N2205","corroborationLevel":"ENTITY_SUPPLIED_ONLY","corroborationDocuments":"SUPPORTING_DOCUMENTS","corroborationReference":null},"extension":{"deletedAt":null}},"relationships":{"start-node":{"links":{"related":"https:\/\/api.gleif.org\/api\/v1\/lei-records\/549300WVOTTC0QW0ZM23"}},"end-node":{"links":{"related":"https:\/\/api.gleif.org\/api\/v1\/lei-records\/21380068P1DRHMJ8KU70"}}}},{"type":"relationship-records","id":"549300C63TY5E3U3HI12|LEI|IS_DIRECTLY_CONSOLIDATED_BY|15|2b06b9e52292a343e48108c45afeadae7510b22c3d9b19c1b571f0d480df827f|","attributes":{"validFrom":"2023-08-11T00:00:00Z","validTo":null,"relationship":{"startNode":{"id":"549300C63TY5E3U3HI12","type":"LEI"},"endNode":{"id":"21380068P1DRHMJ8KU70","type":"LEI"},"type":"IS_DIRECTLY_CONSOLIDATED_BY","status":"ACTIVE","periods":[{"startDate":"2022-01-01T00:00:00Z","endDate":"2022-12-31T00:00:00Z","type":"ACCOUNTING_PERIOD"},{"startDate":"2018-05-03T00:00:00Z","type":"RELATIONSHIP_PERIOD"}]},"registration":{"initialRegistrationDate":"2015-03-21T01:50:00Z","lastUpdateDate":"2023-07-31T17:11:36Z","status":"LAPSED","nextRenewalDate":"2020-04-24T00:17:00Z","managingLou":"213800WAVVOPS85N2205","corroborationLevel":"ENTITY_SUPPLIED_ONLY","corroborationDocuments":"SUPPORTING_DOCUMENTS","corroborationReference":null},"extension":{"deletedAt":null}},"relationships":{"start-node":{"links":{"related":"https:\/\/api.gleif.org\/api\/v1\/lei-records\/549300C63TY5E3U3HI12"}},"end-node":{"links":{"related":"https:\/\/api.gleif.org\/api\/v1\/lei-records\/21380068P1DRHMJ8KU70"}}}},{"type":"relationship-records","id":"549300H3II6EHZLEEE25|LEI|IS_DIRECTLY_CONSOLIDATED_BY|17|ebe46f753ec56762cfcc290cb2995305791f61aa7f896ac764877cd6a0a7dce5|","attributes":{"validFrom":"2023-08-11T00:00:00Z","validTo":null,"relationship":{"startNode":{"id":"549300H3II6EHZLEEE25","type":"LEI"},"endNode":{"id":"21380068P1DRHMJ8KU70","type":"LEI"},"type":"IS_DIRECTLY_CONSOLIDATED_BY","status":"ACTIVE","periods":[{"startDate":"2019-01-01T00:00:00Z","endDate":"2019-12-31T00:00:00Z","type":"ACCOUNTING_PERIOD"},{"startDate":"2019-01-25T00:00:00Z","type":"RELATIONSHIP_PERIOD"}]},"registration":{"initialRegistrationDate":"2018-01-29T15:34:00Z","lastUpdateDate":"2023-07-31T17:11:36Z","status":"LAPSED","nextRenewalDate":"2022-01-15T10:46:00Z","managingLou":"213800WAVVOPS85N2205","corroborationLevel":"ENTITY_SUPPLIED_ONLY","corroborationDocuments":"SUPPORTING_DOCUMENTS","corroborationReference":null},"extension":{"deletedAt":null}},"relationships":{"start-node":{"links":{"related":"https:\/\/api.gleif.org\/api\/v1\/lei-records\/549300H3II6EHZLEEE25"}},"end-node":{"links":{"related":"https:\/\/api.gleif.org\/api\/v1\/lei-records\/21380068P1DRHMJ8KU70"}}}},{"type":"relationship-records","id":"5493000I1ONBQLNMP873|LEI|IS_DIRECTLY_CONSOLIDATED_BY|18|ca571b2ff058a5d6e9938eae08832b35cda8e54a8011a3c0d1d5f0bb5cee6542|","attributes":{"validFrom":"2023-08-11T00:00:00Z","validTo":null,"relationship":{"startNode":{"id":"5493000I1ONBQLNMP873","type":"LEI"},"endNode":{"id":"21380068P1DRHMJ8KU70","type":"LEI"},"type":"IS_DIRECTLY_CONSOLIDATED_BY","status":"ACTIVE","periods":[{"startDate":"2021-01-01T00:00:00Z","endDate":"2021-12-31T00:00:00Z","type":"ACCOUNTING_PERIOD"},{"startDate":"2018-05-04T00:00:00Z","type":"RELATIONSHIP_PERIOD"}]},"registration":{"initialRegistrationDate":"2015-03-21T01:57:00Z","lastUpdateDate":"2023-07-31T17:11:36Z","status":"LAPSED","nextRenewalDate":"2023-05-26T12:49:00Z","managingLou":"213800WAVVOPS85N2205","corroborationLevel":"ENTITY_SUPPLIED_ONLY","corroborationDocuments":"SUPPORTING_DOCUMENTS","corroborationReference":null},"extension":{"deletedAt":null}},"relationships":{"start-node":{"links":{"related":"https:\/\/api.gleif.org\/api\/v1\/lei-records\/5493000I1ONBQLNMP873"}},"end-node":{"links":{"related":"https:\/\/api.gleif.org\/api\/v1\/lei-records\/21380068P1DRHMJ8KU70"}}}},{"type":"relationship-records","id":"549300MH1CA06T7E7F09|LEI|IS_DIRECTLY_CONSOLIDATED_BY|14|7ec52520e3ad78bbb1b81eee842ec61654207e4b33c2a538ff2acfb4089b5f6a|","attributes":{"validFrom":"2023-08-11T00:00:00Z","validTo":null,"relationship":{"startNode":{"id":"549300MH1CA06T7E7F09","type":"LEI"},"endNode":{"id":"21380068P1DRHMJ8KU70","type":"LEI"},"type":"IS_DIRECTLY_CONSOLIDATED_BY","status":"ACTIVE","periods":[{"startDate":"2016-01-01T00:00:00Z","endDate":"2016-12-31T00:00:00Z","type":"ACCOUNTING_PERIOD"},{"startDate":"2021-11-03T00:00:00Z","type":"RELATIONSHIP_PERIOD"}]},"registration":{"initialRegistrationDate":"2014-09-16T01:40:00Z","lastUpdateDate":"2023-07-31T17:11:36Z","status":"LAPSED","nextRenewalDate":"2019-10-03T10:30:00Z","managingLou":"213800WAVVOPS85N2205","corroborationLevel":"ENTITY_SUPPLIED_ONLY","corroborationDocuments":"SUPPORTING_DOCUMENTS","corroborationReference":null},"extension":{"deletedAt":null}},"relationships":{"start-node":{"links":{"related":"https:\/\/api.gleif.org\/api\/v1\/lei-records\/549300MH1CA06T7E7F09"}},"end-node":{"links":{"related":"https:\/\/api.gleif.org\/api\/v1\/lei-records\/21380068P1DRHMJ8KU70"}}}},{"type":"relationship-records","id":"549300EEMI8D3L4L2096|LEI|IS_DIRECTLY_CONSOLIDATED_BY|13|9ed1f7ad6e13be1e7443071ea962319a2cba13a7d24a6316f3f42e558383ccae|","attributes":{"validFrom":"2023-08-09T16:00:00Z","validTo":null,"relationship":{"startNode":{"id":"549300EEMI8D3L4L2096","type":"LEI"},"endNode":{"id":"21380068P1DRHMJ8KU70","type":"LEI"},"type":"IS_DIRECTLY_CONSOLIDATED_BY","status":"ACTIVE","periods":[{"startDate":"2016-01-01T00:00:00Z","endDate":"2016-12-31T00:00:00Z","type":"ACCOUNTING_PERIOD"},{"startDate":"2017-11-29T15:33:17Z","type":"RELATIONSHIP_PERIOD"}]},"registration":{"initialRegistrationDate":"2023-08-08T13:12:24Z","lastUpdateDate":"2023-08-08T13:12:25Z","status":"LAPSED","nextRenewalDate":"2018-11-29T00:31:00Z","managingLou":"529900F6BNUR3RJ2WH29","corroborationLevel":"ENTITY_SUPPLIED_ONLY","corroborationDocuments":"SUPPORTING_DOCUMENTS","corroborationReference":null},"extension":{"deletedAt":null}},"relationships":{"start-node":{"links":{"related":"https:\/\/api.gleif.org\/api\/v1\/lei-records\/549300EEMI8D3L4L2096"}},"end-node":{"links":{"related":"https:\/\/api.gleif.org\/api\/v1\/lei-records\/21380068P1DRHMJ8KU70"}}}},{"type":"relationship-records","id":"549300W081T1J1U4GW30|LEI|IS_DIRECTLY_CONSOLIDATED_BY|9|4779d2b3666b5bb0cd4cd47a42fbabae8e3d20a10f7af51e8350b7bb88ce7e99|","attributes":{"validFrom":"2023-08-09T16:00:00Z","validTo":null,"relationship":{"startNode":{"id":"549300W081T1J1U4GW30","type":"LEI"},"endNode":{"id":"21380068P1DRHMJ8KU70","type":"LEI"},"type":"IS_DIRECTLY_CONSOLIDATED_BY","status":"ACTIVE","periods":[{"startDate":"2017-01-01T00:00:00Z","endDate":"2017-12-31T00:00:00Z","type":"ACCOUNTING_PERIOD"},{"startDate":"2018-09-18T00:00:00Z","type":"RELATIONSHIP_PERIOD"}]},"registration":{"initialRegistrationDate":"2023-08-08T15:08:23Z","lastUpdateDate":"2023-08-08T15:08:24Z","status":"LAPSED","nextRenewalDate":"2019-09-18T13:09:00Z","managingLou":"529900F6BNUR3RJ2WH29","corroborationLevel":"ENTITY_SUPPLIED_ONLY","corroborationDocuments":"SUPPORTING_DOCUMENTS","corroborationReference":null},"extension":{"deletedAt":null}},"relationships":{"start-node":{"links":{"related":"https:\/\/api.gleif.org\/api\/v1\/lei-records\/549300W081T1J1U4GW30"}},"end-node":{"links":{"related":"https:\/\/api.gleif.org\/api\/v1\/lei-records\/21380068P1DRHMJ8KU70"}}}},{"type":"relationship-records","id":"549300DCKGGB1GK5HB49|LEI|IS_DIRECTLY_CONSOLIDATED_BY|16|403ea9deba34dc70b25075554b55b5d9da71feb073396962f26b3dc21ac89028|","attributes":{"validFrom":"2023-08-09T16:00:00Z","validTo":null,"relationship":{"startNode":{"id":"549300DCKGGB1GK5HB49","type":"LEI"},"endNode":{"id":"21380068P1DRHMJ8KU70","type":"LEI"},"type":"IS_DIRECTLY_CONSOLIDATED_BY","status":"ACTIVE","periods":[{"startDate":"2016-01-01T00:00:00Z","endDate":"2016-12-31T00:00:00Z","type":"ACCOUNTING_PERIOD"},{"startDate":"2018-02-01T00:00:00Z","type":"RELATIONSHIP_PERIOD"}]},"registration":{"initialRegistrationDate":"2023-08-08T11:56:50Z","lastUpdateDate":"2023-08-08T11:56:51Z","status":"LAPSED","nextRenewalDate":"2020-02-01T15:15:00Z","managingLou":"529900F6BNUR3RJ2WH29","corroborationLevel":"ENTITY_SUPPLIED_ONLY","corroborationDocuments":"SUPPORTING_DOCUMENTS","corroborationReference":null},"extension":{"deletedAt":null}},"relationships":{"start-node":{"links":{"related":"https:\/\/api.gleif.org\/api\/v1\/lei-records\/549300DCKGGB1GK5HB49"}},"end-node":{"links":{"related":"https:\/\/api.gleif.org\/api\/v1\/lei-records\/21380068P1DRHMJ8KU70"}}}},{"type":"relationship-records","id":"213800WLF1JDFN72BU20|LEI|IS_DIRECTLY_CONSOLIDATED_BY|11|8ec7982970509f7940e931cfbc5e770ee19137d32d856967775bdb8999b2eac5|","attributes":{"validFrom":"2023-04-12T00:00:00Z","validTo":null,"relationship":{"startNode":{"id":"213800WLF1JDFN72BU20","type":"LEI"},"endNode":{"id":"21380068P1DRHMJ8KU70","type":"LEI"},"type":"IS_DIRECTLY_CONSOLIDATED_BY","status":"ACTIVE","periods":[{"startDate":"2018-01-01T00:00:00Z","endDate":"2018-12-31T00:00:00Z","type":"ACCOUNTING_PERIOD"},{"startDate":"2017-10-18T00:00:00Z","type":"RELATIONSHIP_PERIOD"}]},"registration":{"initialRegistrationDate":"2013-10-16T00:00:00Z","lastUpdateDate":"2023-04-11T07:16:33Z","status":"LAPSED","nextRenewalDate":"2020-10-18T00:00:00Z","managingLou":"213800WAVVOPS85N2205","corroborationLevel":"ENTITY_SUPPLIED_ONLY","corroborationDocuments":"ACCOUNTS_FILING","corroborationReference":"URL not publicly available, validated from document provided by client"},"extension":{"deletedAt":null}},"relationships":{"start-node":{"links":{"related":"https:\/\/api.gleif.org\/api\/v1\/lei-records\/213800WLF1JDFN72BU20"}},"end-node":{"links":{"related":"https:\/\/api.gleif.org\/api\/v1\/lei-records\/21380068P1DRHMJ8KU70"}}}}]}