{"meta":{"goldenCopy":{"publishDate":"2025-05-04T08:00:00Z"},"pagination":{"currentPage":1,"perPage":15,"from":1,"to":15,"total":153,"lastPage":11}},"links":{"first":"https:\/\/api.gleif.org\/api\/v1\/lei-records\/21380068P1DRHMJ8KU70\/ultimate-child-relationships?page%5Bnumber%5D=1&page%5Bsize%5D=15","next":"https:\/\/api.gleif.org\/api\/v1\/lei-records\/21380068P1DRHMJ8KU70\/ultimate-child-relationships?page%5Bnumber%5D=2&page%5Bsize%5D=15","last":"https:\/\/api.gleif.org\/api\/v1\/lei-records\/21380068P1DRHMJ8KU70\/ultimate-child-relationships?page%5Bnumber%5D=11&page%5Bsize%5D=15"},"data":[{"type":"relationship-records","id":"549300CPDQEMFP5MHD79|LEI|IS_ULTIMATELY_CONSOLIDATED_BY|16|8da7cbbb512242c4f4bf1c1b80759579a3f17d9649a69eb1b15f08d3a43b9b6d|","attributes":{"validFrom":"2023-08-05T00:00:00Z","validTo":null,"relationship":{"startNode":{"id":"549300CPDQEMFP5MHD79","type":"LEI"},"endNode":{"id":"21380068P1DRHMJ8KU70","type":"LEI"},"type":"IS_ULTIMATELY_CONSOLIDATED_BY","status":"ACTIVE","periods":[{"startDate":"2015-04-01T00:00:00Z","endDate":"2016-12-31T00:00:00Z","type":"ACCOUNTING_PERIOD"},{"startDate":"2018-03-20T00:00:00Z","type":"RELATIONSHIP_PERIOD"}]},"registration":{"initialRegistrationDate":"2013-04-08T01:08:00Z","lastUpdateDate":"2020-07-20T13:57:00Z","status":"LAPSED","nextRenewalDate":"2019-03-20T00:30:00Z","managingLou":"5493001KJTIIGC8Y1R12","corroborationLevel":"ENTITY_SUPPLIED_ONLY","corroborationDocuments":"ACCOUNTS_FILING","corroborationReference":"https:\/\/www.shell.com\/investors\/financial-reporting\/annual-publications\/annual-reports-download-centre\/_jcr_content\/par\/tabbedcontent_f645\/tab_cec5\/textimage_18e7.stream\/1489491804016\/5f3950bb316f1bdbf170eed5745cc6095bf74cea48aadc633c5494bf423a7b22\/annual-report20fsec-2016.pdf"},"extension":{"deletedAt":null}},"relationships":{"start-node":{"links":{"related":"https:\/\/api.gleif.org\/api\/v1\/lei-records\/549300CPDQEMFP5MHD79"}},"end-node":{"links":{"related":"https:\/\/api.gleif.org\/api\/v1\/lei-records\/21380068P1DRHMJ8KU70"}}}},{"type":"relationship-records","id":"54930084IPZ4BDC28S71|LEI|IS_ULTIMATELY_CONSOLIDATED_BY|9|7f2583fe22b3bcb334f3789fbb20e063ac838466eac54f2e7432e4892b29625e|","attributes":{"validFrom":"2023-08-05T00:00:00Z","validTo":null,"relationship":{"startNode":{"id":"54930084IPZ4BDC28S71","type":"LEI"},"endNode":{"id":"21380068P1DRHMJ8KU70","type":"LEI"},"type":"IS_ULTIMATELY_CONSOLIDATED_BY","status":"ACTIVE","periods":[{"startDate":"2021-01-01T00:00:00Z","endDate":"2021-12-31T00:00:00Z","type":"ACCOUNTING_PERIOD"},{"startDate":"2021-05-19T00:00:00Z","type":"RELATIONSHIP_PERIOD"},{"startDate":"2021-01-01T00:00:00Z","endDate":"2021-12-31T00:00:00Z","type":"DOCUMENT_FILING_PERIOD"}]},"registration":{"initialRegistrationDate":"2018-11-01T19:59:00Z","lastUpdateDate":"2022-05-20T01:01:00Z","status":"LAPSED","nextRenewalDate":"2022-05-19T18:40:00Z","managingLou":"5493001KJTIIGC8Y1R12","corroborationLevel":"FULLY_CORROBORATED","corroborationDocuments":"ACCOUNTS_FILING","corroborationReference":"https:\/\/www.sec.gov\/ix?doc=\/Archives\/edgar\/data\/1306965\/000130696522000012\/shel-20211231.htm"},"extension":{"deletedAt":null}},"relationships":{"start-node":{"links":{"related":"https:\/\/api.gleif.org\/api\/v1\/lei-records\/54930084IPZ4BDC28S71"}},"end-node":{"links":{"related":"https:\/\/api.gleif.org\/api\/v1\/lei-records\/21380068P1DRHMJ8KU70"}}}},{"type":"relationship-records","id":"2138001LEZWU9YYE5N65|LEI|IS_ULTIMATELY_CONSOLIDATED_BY|14|f6540fd23486fb4400f227bb71a39ba6239691e81a22f523814cf39748c5c1ea|","attributes":{"validFrom":"2023-10-19T08:00:00Z","validTo":null,"relationship":{"startNode":{"id":"2138001LEZWU9YYE5N65","type":"LEI"},"endNode":{"id":"21380068P1DRHMJ8KU70","type":"LEI"},"type":"IS_ULTIMATELY_CONSOLIDATED_BY","status":"ACTIVE","periods":[{"startDate":"2020-01-01T00:00:00Z","endDate":"2020-12-31T00:00:00Z","type":"ACCOUNTING_PERIOD"},{"startDate":"2013-11-01T00:00:00Z","type":"RELATIONSHIP_PERIOD"}]},"registration":{"initialRegistrationDate":"2013-11-01T00:00:00Z","lastUpdateDate":"2023-10-19T00:10:47Z","status":"LAPSED","nextRenewalDate":"2023-10-18T00:00:00Z","managingLou":"213800WAVVOPS85N2205","corroborationLevel":"FULLY_CORROBORATED","corroborationDocuments":"ACCOUNTS_FILING","corroborationReference":"https:\/\/reports.shell.com\/annual-report\/2020\/servicepages\/downloads\/files\/shell-annual-report-2020.pdf"},"extension":{"deletedAt":null}},"relationships":{"start-node":{"links":{"related":"https:\/\/api.gleif.org\/api\/v1\/lei-records\/2138001LEZWU9YYE5N65"}},"end-node":{"links":{"related":"https:\/\/api.gleif.org\/api\/v1\/lei-records\/21380068P1DRHMJ8KU70"}}}},{"type":"relationship-records","id":"213800J66OH9C7FUCN18|LEI|IS_ULTIMATELY_CONSOLIDATED_BY|16|b596f5c408cc903b8c95102a0bd16fee4cf3f232d96e37346c681491e18f79ad|","attributes":{"validFrom":"2023-10-19T08:00:00Z","validTo":null,"relationship":{"startNode":{"id":"213800J66OH9C7FUCN18","type":"LEI"},"endNode":{"id":"21380068P1DRHMJ8KU70","type":"LEI"},"type":"IS_ULTIMATELY_CONSOLIDATED_BY","status":"ACTIVE","periods":[{"startDate":"2021-01-01T00:00:00Z","endDate":"2021-12-31T00:00:00Z","type":"ACCOUNTING_PERIOD"},{"startDate":"2013-10-16T00:00:00Z","type":"RELATIONSHIP_PERIOD"}]},"registration":{"initialRegistrationDate":"2013-10-16T00:00:00Z","lastUpdateDate":"2023-10-19T00:10:47Z","status":"LAPSED","nextRenewalDate":"2023-10-18T00:00:00Z","managingLou":"213800WAVVOPS85N2205","corroborationLevel":"FULLY_CORROBORATED","corroborationDocuments":"ACCOUNTS_FILING","corroborationReference":"https:\/\/reports.shell.com\/annual-report\/2021\/_assets\/downloads\/shell-annual-report-2021.pdf"},"extension":{"deletedAt":null}},"relationships":{"start-node":{"links":{"related":"https:\/\/api.gleif.org\/api\/v1\/lei-records\/213800J66OH9C7FUCN18"}},"end-node":{"links":{"related":"https:\/\/api.gleif.org\/api\/v1\/lei-records\/21380068P1DRHMJ8KU70"}}}},{"type":"relationship-records","id":"2138006Q7ZL5PLJTT849|LEI|IS_ULTIMATELY_CONSOLIDATED_BY|14|a724060efe317fc7a15cd042f58341a00aed31709a2bd12325f773a842ba12ad|","attributes":{"validFrom":"2022-12-09T00:00:00Z","validTo":null,"relationship":{"startNode":{"id":"2138006Q7ZL5PLJTT849","type":"LEI"},"endNode":{"id":"21380068P1DRHMJ8KU70","type":"LEI"},"type":"IS_ULTIMATELY_CONSOLIDATED_BY","status":"ACTIVE","periods":[{"startDate":"2021-01-01T00:00:00Z","endDate":"2021-12-31T00:00:00Z","type":"ACCOUNTING_PERIOD"},{"startDate":"2018-01-29T00:00:00Z","type":"RELATIONSHIP_PERIOD"}]},"registration":{"initialRegistrationDate":"2017-01-27T00:00:00Z","lastUpdateDate":"2022-12-08T14:12:44Z","status":"PUBLISHED","nextRenewalDate":"2024-01-30T00:00:00Z","managingLou":"213800WAVVOPS85N2205","corroborationLevel":"FULLY_CORROBORATED","corroborationDocuments":"ACCOUNTS_FILING","corroborationReference":"https:\/\/reports.shell.com\/annual-report\/2021\/_assets\/downloads\/shell-annual-report-2021.pdf"},"extension":{"deletedAt":null}},"relationships":{"start-node":{"links":{"related":"https:\/\/api.gleif.org\/api\/v1\/lei-records\/2138006Q7ZL5PLJTT849"}},"end-node":{"links":{"related":"https:\/\/api.gleif.org\/api\/v1\/lei-records\/21380068P1DRHMJ8KU70"}}}},{"type":"relationship-records","id":"2138004LKG5IO9QH3I59|LEI|IS_ULTIMATELY_CONSOLIDATED_BY|12|c4dba127bbcdcaccbe68bd60945ec024408774705586a196492aaad07cc524fe|","attributes":{"validFrom":"2022-12-22T00:00:00Z","validTo":null,"relationship":{"startNode":{"id":"2138004LKG5IO9QH3I59","type":"LEI"},"endNode":{"id":"21380068P1DRHMJ8KU70","type":"LEI"},"type":"IS_ULTIMATELY_CONSOLIDATED_BY","status":"ACTIVE","periods":[{"startDate":"2021-01-01T00:00:00Z","endDate":"2021-12-31T00:00:00Z","type":"ACCOUNTING_PERIOD"},{"startDate":"2017-12-29T00:00:00Z","type":"RELATIONSHIP_PERIOD"}]},"registration":{"initialRegistrationDate":"2017-12-29T00:00:00Z","lastUpdateDate":"2022-12-21T13:10:33Z","status":"PUBLISHED","nextRenewalDate":"2023-12-29T00:00:00Z","managingLou":"213800WAVVOPS85N2205","corroborationLevel":"FULLY_CORROBORATED","corroborationDocuments":"ACCOUNTS_FILING","corroborationReference":"https:\/\/reports.shell.com\/annual-report\/2021\/_assets\/downloads\/shell-annual-report-2021.pdf"},"extension":{"deletedAt":null}},"relationships":{"start-node":{"links":{"related":"https:\/\/api.gleif.org\/api\/v1\/lei-records\/2138004LKG5IO9QH3I59"}},"end-node":{"links":{"related":"https:\/\/api.gleif.org\/api\/v1\/lei-records\/21380068P1DRHMJ8KU70"}}}},{"type":"relationship-records","id":"213800WLF1JDFN72BU20|LEI|IS_ULTIMATELY_CONSOLIDATED_BY|11|acf9a439d91fe62009b029a70535450c1841af544485d2997738aaf907a6c6d1|","attributes":{"validFrom":"2023-04-12T00:00:00Z","validTo":null,"relationship":{"startNode":{"id":"213800WLF1JDFN72BU20","type":"LEI"},"endNode":{"id":"21380068P1DRHMJ8KU70","type":"LEI"},"type":"IS_ULTIMATELY_CONSOLIDATED_BY","status":"ACTIVE","periods":[{"startDate":"2018-01-01T00:00:00Z","endDate":"2018-12-31T00:00:00Z","type":"ACCOUNTING_PERIOD"},{"startDate":"2017-10-18T00:00:00Z","type":"RELATIONSHIP_PERIOD"}]},"registration":{"initialRegistrationDate":"2013-10-16T00:00:00Z","lastUpdateDate":"2023-04-11T07:16:33Z","status":"LAPSED","nextRenewalDate":"2020-10-18T00:00:00Z","managingLou":"213800WAVVOPS85N2205","corroborationLevel":"ENTITY_SUPPLIED_ONLY","corroborationDocuments":"ACCOUNTS_FILING","corroborationReference":"URL not publicly available, validated from document provided by client"},"extension":{"deletedAt":null}},"relationships":{"start-node":{"links":{"related":"https:\/\/api.gleif.org\/api\/v1\/lei-records\/213800WLF1JDFN72BU20"}},"end-node":{"links":{"related":"https:\/\/api.gleif.org\/api\/v1\/lei-records\/21380068P1DRHMJ8KU70"}}}},{"type":"relationship-records","id":"213800Y2JLL6LN92YT95|LEI|IS_ULTIMATELY_CONSOLIDATED_BY|7|f94636aa5d8ce7ef4b44ac91e8cfd213e93c34bd992a9c9156a8d38af44bba61|","attributes":{"validFrom":"2020-08-20T00:00:00Z","validTo":null,"relationship":{"startNode":{"id":"213800Y2JLL6LN92YT95","type":"LEI"},"endNode":{"id":"21380068P1DRHMJ8KU70","type":"LEI"},"type":"IS_ULTIMATELY_CONSOLIDATED_BY","status":"ACTIVE","periods":[{"startDate":"2019-01-01T00:00:00Z","endDate":"2019-12-31T00:00:00Z","type":"ACCOUNTING_PERIOD"},{"startDate":"2014-08-22T00:00:00Z","type":"RELATIONSHIP_PERIOD"}]},"registration":{"initialRegistrationDate":"2014-08-22T00:00:00Z","lastUpdateDate":"2020-08-19T18:37:18Z","status":"PUBLISHED","nextRenewalDate":"2021-08-22T00:00:00Z","managingLou":"213800WAVVOPS85N2205","corroborationLevel":"FULLY_CORROBORATED","corroborationDocuments":"ACCOUNTS_FILING","corroborationReference":"https:\/\/beta.companieshouse.gov.uk\/company\/00136293\/filing-history\/MzI2Nzc2NjAyOWFkaXF6a2N4\/document?format=pdf&download=0"},"extension":{"deletedAt":null}},"relationships":{"start-node":{"links":{"related":"https:\/\/api.gleif.org\/api\/v1\/lei-records\/213800Y2JLL6LN92YT95"}},"end-node":{"links":{"related":"https:\/\/api.gleif.org\/api\/v1\/lei-records\/21380068P1DRHMJ8KU70"}}}},{"type":"relationship-records","id":"213800UCW8I9LCVB1D05|LEI|IS_ULTIMATELY_CONSOLIDATED_BY|7|edba1706fb85f466f19d1ca51ecbdc98f983f303e3d358f14d7dc4d8e58c348c|","attributes":{"validFrom":"2021-03-04T16:00:00Z","validTo":null,"relationship":{"startNode":{"id":"213800UCW8I9LCVB1D05","type":"LEI"},"endNode":{"id":"21380068P1DRHMJ8KU70","type":"LEI"},"type":"IS_ULTIMATELY_CONSOLIDATED_BY","status":"ACTIVE","periods":[{"startDate":"2018-01-01T00:00:00Z","endDate":"2018-12-31T00:00:00Z","type":"ACCOUNTING_PERIOD"},{"startDate":"2018-03-03T00:00:00Z","type":"RELATIONSHIP_PERIOD"}]},"registration":{"initialRegistrationDate":"2018-03-03T00:00:00Z","lastUpdateDate":"2021-03-04T15:02:45Z","status":"PUBLISHED","nextRenewalDate":"2021-03-04T00:00:00Z","managingLou":"213800WAVVOPS85N2205","corroborationLevel":"ENTITY_SUPPLIED_ONLY","corroborationDocuments":"ACCOUNTS_FILING","corroborationReference":"URL not publicly available, validated from document provided by client"},"extension":{"deletedAt":null}},"relationships":{"start-node":{"links":{"related":"https:\/\/api.gleif.org\/api\/v1\/lei-records\/213800UCW8I9LCVB1D05"}},"end-node":{"links":{"related":"https:\/\/api.gleif.org\/api\/v1\/lei-records\/21380068P1DRHMJ8KU70"}}}},{"type":"relationship-records","id":"213800T669C7Y5N2YI32|LEI|IS_ULTIMATELY_CONSOLIDATED_BY|5|36e9a4e21d999e627ad31d14ff6e8240ec94e42602afebd96e71dfc1cc8fcf8e|","attributes":{"validFrom":"2020-11-02T16:00:00Z","validTo":null,"relationship":{"startNode":{"id":"213800T669C7Y5N2YI32","type":"LEI"},"endNode":{"id":"21380068P1DRHMJ8KU70","type":"LEI"},"type":"IS_ULTIMATELY_CONSOLIDATED_BY","status":"ACTIVE","periods":[{"startDate":"2019-01-01T00:00:00Z","endDate":"2019-12-31T00:00:00Z","type":"ACCOUNTING_PERIOD"},{"startDate":"2017-11-03T00:00:00Z","type":"RELATIONSHIP_PERIOD"}]},"registration":{"initialRegistrationDate":"2013-11-01T00:00:00Z","lastUpdateDate":"2020-11-02T14:54:11Z","status":"PUBLISHED","nextRenewalDate":"2021-11-05T00:00:00Z","managingLou":"213800WAVVOPS85N2205","corroborationLevel":"FULLY_CORROBORATED","corroborationDocuments":"ACCOUNTS_FILING","corroborationReference":"https:\/\/reports.shell.com\/annual-report\/2019\/servicepages\/downloads\/files\/shell_annual_report_2019.pdf"},"extension":{"deletedAt":null}},"relationships":{"start-node":{"links":{"related":"https:\/\/api.gleif.org\/api\/v1\/lei-records\/213800T669C7Y5N2YI32"}},"end-node":{"links":{"related":"https:\/\/api.gleif.org\/api\/v1\/lei-records\/21380068P1DRHMJ8KU70"}}}},{"type":"relationship-records","id":"213800DVD2RLR3X6NE08|LEI|IS_ULTIMATELY_CONSOLIDATED_BY|18|b365245802f1df17070661ee326d44bc2f0dff61f7b1de54e21fb614092bc778|","attributes":{"validFrom":"2023-12-28T00:00:00Z","validTo":null,"relationship":{"startNode":{"id":"213800DVD2RLR3X6NE08","type":"LEI"},"endNode":{"id":"21380068P1DRHMJ8KU70","type":"LEI"},"type":"IS_ULTIMATELY_CONSOLIDATED_BY","status":"ACTIVE","periods":[{"startDate":"2021-01-01T00:00:00Z","endDate":"2021-12-31T00:00:00Z","type":"ACCOUNTING_PERIOD"},{"startDate":"2017-02-14T00:00:00Z","type":"RELATIONSHIP_PERIOD"}]},"registration":{"initialRegistrationDate":"2017-02-14T00:00:00Z","lastUpdateDate":"2023-12-27T08:08:22Z","status":"PUBLISHED","nextRenewalDate":"2025-02-20T00:00:00Z","managingLou":"213800WAVVOPS85N2205","corroborationLevel":"FULLY_CORROBORATED","corroborationDocuments":"ACCOUNTS_FILING","corroborationReference":"https:\/\/www.annualreports.com\/Click\/6998"},"extension":{"deletedAt":null}},"relationships":{"start-node":{"links":{"related":"https:\/\/api.gleif.org\/api\/v1\/lei-records\/213800DVD2RLR3X6NE08"}},"end-node":{"links":{"related":"https:\/\/api.gleif.org\/api\/v1\/lei-records\/21380068P1DRHMJ8KU70"}}}},{"type":"relationship-records","id":"549300P5UUSTGZSUO841|LEI|IS_ULTIMATELY_CONSOLIDATED_BY|27|f6917cabb8bdc9cfaba487881b7a01dac881062a15cc2e1bb0a6a3dd3421ad82|","attributes":{"validFrom":"2024-11-09T00:00:00Z","validTo":null,"relationship":{"startNode":{"id":"549300P5UUSTGZSUO841","type":"LEI"},"endNode":{"id":"21380068P1DRHMJ8KU70","type":"LEI"},"type":"IS_ULTIMATELY_CONSOLIDATED_BY","status":"ACTIVE","periods":[{"startDate":"2023-01-01T00:00:00Z","endDate":"2023-12-31T00:00:00Z","type":"ACCOUNTING_PERIOD"},{"startDate":"2018-01-08T00:00:00Z","type":"RELATIONSHIP_PERIOD"}]},"registration":{"initialRegistrationDate":"2016-01-29T02:30:00Z","lastUpdateDate":"2024-11-08T14:23:42Z","status":"PUBLISHED","nextRenewalDate":"2025-11-29T00:00:00Z","managingLou":"213800WAVVOPS85N2205","corroborationLevel":"FULLY_CORROBORATED","corroborationDocuments":"ACCOUNTS_FILING","corroborationReference":"https:\/\/find-and-update.company-information.service.gov.uk\/company\/00737366\/filing-history\/MzQzMjk0Mjc3NGFkaXF6a2N4\/document?format=pdf&download=0"},"extension":{"deletedAt":null}},"relationships":{"start-node":{"links":{"related":"https:\/\/api.gleif.org\/api\/v1\/lei-records\/549300P5UUSTGZSUO841"}},"end-node":{"links":{"related":"https:\/\/api.gleif.org\/api\/v1\/lei-records\/21380068P1DRHMJ8KU70"}}}},{"type":"relationship-records","id":"549300BWG8U3ZAL38Y61|LEI|IS_ULTIMATELY_CONSOLIDATED_BY|15|4721da3b31558f6bb886d7662ba0cf73a94438ed905441808a73f4f10055434c|","attributes":{"validFrom":"2024-11-09T00:00:00Z","validTo":null,"relationship":{"startNode":{"id":"549300BWG8U3ZAL38Y61","type":"LEI"},"endNode":{"id":"21380068P1DRHMJ8KU70","type":"LEI"},"type":"IS_ULTIMATELY_CONSOLIDATED_BY","status":"ACTIVE","periods":[{"startDate":"2021-01-01T00:00:00Z","endDate":"2021-12-31T00:00:00Z","type":"ACCOUNTING_PERIOD"},{"startDate":"2021-01-15T00:00:00Z","type":"RELATIONSHIP_PERIOD"},{"startDate":"2021-01-01T00:00:00Z","endDate":"2021-12-31T00:00:00Z","type":"DOCUMENT_FILING_PERIOD"}]},"registration":{"initialRegistrationDate":"2021-01-19T15:32:00Z","lastUpdateDate":"2024-11-08T14:16:53Z","status":"PUBLISHED","nextRenewalDate":"2025-12-05T09:04:00Z","managingLou":"5493001KJTIIGC8Y1R12","corroborationLevel":"ENTITY_SUPPLIED_ONLY","corroborationDocuments":"OTHER_OFFICIAL_DOCUMENTS","corroborationReference":null},"extension":{"deletedAt":null}},"relationships":{"start-node":{"links":{"related":"https:\/\/api.gleif.org\/api\/v1\/lei-records\/549300BWG8U3ZAL38Y61"}},"end-node":{"links":{"related":"https:\/\/api.gleif.org\/api\/v1\/lei-records\/21380068P1DRHMJ8KU70"}}}},{"type":"relationship-records","id":"213800Y17U9X5943J241|LEI|IS_ULTIMATELY_CONSOLIDATED_BY|3|9764a1f04acefe1eb4a4abe6e3500953c80075c95f4904847fa58517f908a492|","attributes":{"validFrom":"2024-11-02T00:00:00Z","validTo":null,"relationship":{"startNode":{"id":"213800Y17U9X5943J241","type":"LEI"},"endNode":{"id":"21380068P1DRHMJ8KU70","type":"LEI"},"type":"IS_ULTIMATELY_CONSOLIDATED_BY","status":"ACTIVE","periods":[{"startDate":"2023-01-01T00:00:00Z","endDate":"2023-12-31T00:00:00Z","type":"ACCOUNTING_PERIOD"},{"startDate":"2022-12-16T00:00:00Z","type":"RELATIONSHIP_PERIOD"}]},"registration":{"initialRegistrationDate":"2022-12-20T00:00:00Z","lastUpdateDate":"2024-11-01T09:52:13Z","status":"PUBLISHED","nextRenewalDate":"2025-12-20T00:00:00Z","managingLou":"213800WAVVOPS85N2205","corroborationLevel":"FULLY_CORROBORATED","corroborationDocuments":"ACCOUNTS_FILING","corroborationReference":"https:\/\/reports.shell.com\/annual-report\/2023\/_assets\/downloads\/shell-annual-report-2023.pdf"},"extension":{"deletedAt":null}},"relationships":{"start-node":{"links":{"related":"https:\/\/api.gleif.org\/api\/v1\/lei-records\/213800Y17U9X5943J241"}},"end-node":{"links":{"related":"https:\/\/api.gleif.org\/api\/v1\/lei-records\/21380068P1DRHMJ8KU70"}}}},{"type":"relationship-records","id":"2138003B6BTXS8WOZX93|LEI|IS_ULTIMATELY_CONSOLIDATED_BY|21|b9539a553f5495fb232aa6b19163b4bb7c2efe9753d03e5d1ce453ccb5204042|","attributes":{"validFrom":"2024-12-24T08:00:00Z","validTo":null,"relationship":{"startNode":{"id":"2138003B6BTXS8WOZX93","type":"LEI"},"endNode":{"id":"21380068P1DRHMJ8KU70","type":"LEI"},"type":"IS_ULTIMATELY_CONSOLIDATED_BY","status":"ACTIVE","periods":[{"startDate":"2022-01-01T00:00:00Z","endDate":"2022-12-31T00:00:00Z","type":"ACCOUNTING_PERIOD"},{"startDate":"2013-12-17T00:00:00Z","type":"RELATIONSHIP_PERIOD"}]},"registration":{"initialRegistrationDate":"2013-12-17T00:00:00Z","lastUpdateDate":"2024-12-24T00:05:49Z","status":"LAPSED","nextRenewalDate":"2024-12-23T00:00:00Z","managingLou":"213800WAVVOPS85N2205","corroborationLevel":"FULLY_CORROBORATED","corroborationDocuments":"ACCOUNTS_FILING","corroborationReference":"https:\/\/www.annualreports.com\/HostedData\/AnnualReports\/PDF\/NYSE_SHEL_2022.pdf"},"extension":{"deletedAt":null}},"relationships":{"start-node":{"links":{"related":"https:\/\/api.gleif.org\/api\/v1\/lei-records\/2138003B6BTXS8WOZX93"}},"end-node":{"links":{"related":"https:\/\/api.gleif.org\/api\/v1\/lei-records\/21380068P1DRHMJ8KU70"}}}}]}