{"meta":{"goldenCopy":{"publishDate":"2025-05-04T08:00:00Z"},"pagination":{"currentPage":1,"perPage":15,"from":1,"to":15,"total":44,"lastPage":3}},"links":{"first":"https:\/\/api.gleif.org\/api\/v1\/lei-records\/851WYGNLUQLFZBSYGB56\/ultimate-child-relationships?page%5Bnumber%5D=1&page%5Bsize%5D=15","next":"https:\/\/api.gleif.org\/api\/v1\/lei-records\/851WYGNLUQLFZBSYGB56\/ultimate-child-relationships?page%5Bnumber%5D=2&page%5Bsize%5D=15","last":"https:\/\/api.gleif.org\/api\/v1\/lei-records\/851WYGNLUQLFZBSYGB56\/ultimate-child-relationships?page%5Bnumber%5D=3&page%5Bsize%5D=15"},"data":[{"type":"relationship-records","id":"2138009VQHVUG6EEDH80|LEI|IS_ULTIMATELY_CONSOLIDATED_BY|14|3cc4acbea04d4aad5af9e7d18c0420ca41e6ff4bf9de2b693683d4526eaa1423|","attributes":{"validFrom":"2023-01-07T08:00:00Z","validTo":null,"relationship":{"startNode":{"id":"2138009VQHVUG6EEDH80","type":"LEI"},"endNode":{"id":"851WYGNLUQLFZBSYGB56","type":"LEI"},"type":"IS_ULTIMATELY_CONSOLIDATED_BY","status":"ACTIVE","periods":[{"startDate":"2019-01-01T00:00:00Z","endDate":"2019-12-31T00:00:00Z","type":"ACCOUNTING_PERIOD"},{"startDate":"2017-12-14T00:00:00Z","type":"RELATIONSHIP_PERIOD"}]},"registration":{"initialRegistrationDate":"2017-12-28T00:00:00Z","lastUpdateDate":"2023-01-07T00:05:40Z","status":"LAPSED","nextRenewalDate":"2023-01-06T00:00:00Z","managingLou":"213800WAVVOPS85N2205","corroborationLevel":"FULLY_CORROBORATED","corroborationDocuments":"ACCOUNTS_FILING","corroborationReference":"https:\/\/find-and-update.company-information.service.gov.uk\/company\/00681392\/filing-history\/MzI3Mjc1ODQxNWFkaXF6a2N4\/document?format=pdf&download=0"},"extension":{"deletedAt":null}},"relationships":{"start-node":{"links":{"related":"https:\/\/api.gleif.org\/api\/v1\/lei-records\/2138009VQHVUG6EEDH80"}},"end-node":{"links":{"related":"https:\/\/api.gleif.org\/api\/v1\/lei-records\/851WYGNLUQLFZBSYGB56"}}}},{"type":"relationship-records","id":"391200LCRL4MGMU5XT48|LEI|IS_ULTIMATELY_CONSOLIDATED_BY|11|eeb4707d8e5be9e17844f096abbe3a4ace625b1d0fbdfbd7d33266d72c7e4558|","attributes":{"validFrom":"2025-01-11T08:00:00Z","validTo":null,"relationship":{"startNode":{"id":"391200LCRL4MGMU5XT48","type":"LEI"},"endNode":{"id":"851WYGNLUQLFZBSYGB56","type":"LEI"},"type":"IS_ULTIMATELY_CONSOLIDATED_BY","status":"ACTIVE","periods":[{"startDate":"2022-12-31T23:00:00Z","endDate":"2023-12-30T23:00:00Z","type":"ACCOUNTING_PERIOD"},{"startDate":"2020-02-26T23:00:00Z","type":"RELATIONSHIP_PERIOD"},{"startDate":"2024-02-27T23:00:00Z","type":"DOCUMENT_FILING_PERIOD"}]},"registration":{"initialRegistrationDate":"2020-03-02T08:19:53Z","lastUpdateDate":"2025-01-10T10:02:25Z","status":"PUBLISHED","nextRenewalDate":"2026-03-02T08:19:53Z","managingLou":"5299000J2N45DDNE4Y28","corroborationLevel":"FULLY_CORROBORATED","corroborationDocuments":"ACCOUNTS_FILING","corroborationReference":null},"extension":{"deletedAt":null}},"relationships":{"start-node":{"links":{"related":"https:\/\/api.gleif.org\/api\/v1\/lei-records\/391200LCRL4MGMU5XT48"}},"end-node":{"links":{"related":"https:\/\/api.gleif.org\/api\/v1\/lei-records\/851WYGNLUQLFZBSYGB56"}}}},{"type":"relationship-records","id":"259400DZXF7UJKK2AY35|LEI|IS_ULTIMATELY_CONSOLIDATED_BY|8|ae6965236c6f60a7fe2a01b2b2fbb549848704d1b40ab7db580e1e3aae5dfc77|","attributes":{"validFrom":"2024-12-07T08:00:00Z","validTo":null,"relationship":{"startNode":{"id":"259400DZXF7UJKK2AY35","type":"LEI"},"endNode":{"id":"851WYGNLUQLFZBSYGB56","type":"LEI"},"type":"IS_ULTIMATELY_CONSOLIDATED_BY","status":"ACTIVE","periods":[{"startDate":"2023-12-31T23:00:00Z","endDate":"2024-09-29T22:00:00Z","type":"ACCOUNTING_PERIOD"},{"startDate":"1994-11-30T23:00:00Z","type":"RELATIONSHIP_PERIOD"}]},"registration":{"initialRegistrationDate":"1994-11-30T23:00:00Z","lastUpdateDate":"2024-12-06T11:23:17Z","status":"PUBLISHED","nextRenewalDate":"2026-01-12T18:09:25Z","managingLou":"259400L3KBYEVNHEJF55","corroborationLevel":"FULLY_CORROBORATED","corroborationDocuments":"ACCOUNTS_FILING","corroborationReference":null},"extension":{"deletedAt":null}},"relationships":{"start-node":{"links":{"related":"https:\/\/api.gleif.org\/api\/v1\/lei-records\/259400DZXF7UJKK2AY35"}},"end-node":{"links":{"related":"https:\/\/api.gleif.org\/api\/v1\/lei-records\/851WYGNLUQLFZBSYGB56"}}}},{"type":"relationship-records","id":"549300IMBXQ8SGH3HJ31|LEI|IS_ULTIMATELY_CONSOLIDATED_BY|23|ccbf13471c6d4b710d2852a6471e7d00157395558b4aad99464a333eba9654ec|","attributes":{"validFrom":"2024-07-13T00:00:00Z","validTo":null,"relationship":{"startNode":{"id":"549300IMBXQ8SGH3HJ31","type":"LEI"},"endNode":{"id":"851WYGNLUQLFZBSYGB56","type":"LEI"},"type":"IS_ULTIMATELY_CONSOLIDATED_BY","status":"ACTIVE","periods":[{"startDate":"2022-01-01T00:00:00Z","endDate":"2022-12-31T00:00:00Z","type":"ACCOUNTING_PERIOD"},{"startDate":"2021-01-01T00:00:00Z","endDate":"2021-12-31T00:00:00Z","type":"DOCUMENT_FILING_PERIOD"},{"startDate":"2019-02-10T00:00:00Z","type":"RELATIONSHIP_PERIOD"}]},"registration":{"initialRegistrationDate":"2017-06-24T01:54:00Z","lastUpdateDate":"2024-07-12T13:30:04Z","status":"LAPSED","nextRenewalDate":"2024-07-11T18:26:45Z","managingLou":"5493001KJTIIGC8Y1R12","corroborationLevel":"FULLY_CORROBORATED","corroborationDocuments":"ACCOUNTS_FILING","corroborationReference":"https:\/\/investor-relations.commerzbank.com\/media\/document\/c65deade-2198-45f3-b6c4-07ff5c10df34\/assets\/DE000CBK1001-JA-2022-EQ-E-00.pdf?disposition=inline"},"extension":{"deletedAt":null}},"relationships":{"start-node":{"links":{"related":"https:\/\/api.gleif.org\/api\/v1\/lei-records\/549300IMBXQ8SGH3HJ31"}},"end-node":{"links":{"related":"https:\/\/api.gleif.org\/api\/v1\/lei-records\/851WYGNLUQLFZBSYGB56"}}}},{"type":"relationship-records","id":"529900XSXWY28D0B2H29|LEI|IS_ULTIMATELY_CONSOLIDATED_BY|8|ed477f9b376e016ae7c4acb42df48a42e9e2cdffb76588a6e23a42dee6859b09|","attributes":{"validFrom":"2024-07-24T08:00:00Z","validTo":null,"relationship":{"startNode":{"id":"529900XSXWY28D0B2H29","type":"LEI"},"endNode":{"id":"851WYGNLUQLFZBSYGB56","type":"LEI"},"type":"IS_ULTIMATELY_CONSOLIDATED_BY","status":"ACTIVE","periods":[{"startDate":"2022-12-31T23:00:00Z","endDate":"2023-12-30T23:00:00Z","type":"ACCOUNTING_PERIOD"},{"startDate":"2017-08-20T22:00:00Z","type":"RELATIONSHIP_PERIOD"},{"startDate":"2024-02-27T23:00:00Z","type":"DOCUMENT_FILING_PERIOD"}]},"registration":{"initialRegistrationDate":"2017-08-28T12:33:24Z","lastUpdateDate":"2024-07-23T13:29:13Z","status":"PUBLISHED","nextRenewalDate":"2025-09-14T09:17:00Z","managingLou":"5299000J2N45DDNE4Y28","corroborationLevel":"FULLY_CORROBORATED","corroborationDocuments":"ACCOUNTS_FILING","corroborationReference":null},"extension":{"deletedAt":null}},"relationships":{"start-node":{"links":{"related":"https:\/\/api.gleif.org\/api\/v1\/lei-records\/529900XSXWY28D0B2H29"}},"end-node":{"links":{"related":"https:\/\/api.gleif.org\/api\/v1\/lei-records\/851WYGNLUQLFZBSYGB56"}}}},{"type":"relationship-records","id":"391200XAUXVGCQE5AA06|LEI|IS_ULTIMATELY_CONSOLIDATED_BY|13|8d99200a473466bba7b5d20257f6c2ae8ff4cf375b298cbf2ae3a9756a712000|","attributes":{"validFrom":"2024-06-04T08:00:00Z","validTo":null,"relationship":{"startNode":{"id":"391200XAUXVGCQE5AA06","type":"LEI"},"endNode":{"id":"851WYGNLUQLFZBSYGB56","type":"LEI"},"type":"IS_ULTIMATELY_CONSOLIDATED_BY","status":"ACTIVE","periods":[{"startDate":"2020-12-31T23:00:00Z","endDate":"2021-12-30T23:00:00Z","type":"ACCOUNTING_PERIOD"},{"startDate":"2022-07-17T22:00:00Z","type":"RELATIONSHIP_PERIOD"},{"startDate":"2021-05-30T22:00:00Z","type":"DOCUMENT_FILING_PERIOD"}]},"registration":{"initialRegistrationDate":"2017-07-28T09:22:33Z","lastUpdateDate":"2024-06-04T05:51:43Z","status":"PUBLISHED","nextRenewalDate":"2025-07-28T10:05:11Z","managingLou":"39120001KULK7200U106","corroborationLevel":"FULLY_CORROBORATED","corroborationDocuments":"ACCOUNTS_FILING","corroborationReference":null},"extension":{"deletedAt":null}},"relationships":{"start-node":{"links":{"related":"https:\/\/api.gleif.org\/api\/v1\/lei-records\/391200XAUXVGCQE5AA06"}},"end-node":{"links":{"related":"https:\/\/api.gleif.org\/api\/v1\/lei-records\/851WYGNLUQLFZBSYGB56"}}}},{"type":"relationship-records","id":"259400MT89LRR20IO198|LEI|IS_ULTIMATELY_CONSOLIDATED_BY|5|c49572e01267b7035036dc78a5f1f847a7cd051f70734202fc46d35fa3af4a45|","attributes":{"validFrom":"2023-10-26T08:00:00Z","validTo":null,"relationship":{"startNode":{"id":"259400MT89LRR20IO198","type":"LEI"},"endNode":{"id":"851WYGNLUQLFZBSYGB56","type":"LEI"},"type":"IS_ULTIMATELY_CONSOLIDATED_BY","status":"ACTIVE","periods":[{"startDate":"2020-12-31T23:00:00Z","endDate":"2021-06-29T22:00:00Z","type":"ACCOUNTING_PERIOD"},{"startDate":"2002-01-08T23:00:00Z","type":"RELATIONSHIP_PERIOD"},{"startDate":"2021-08-02T22:00:00Z","type":"DOCUMENT_FILING_PERIOD"}]},"registration":{"initialRegistrationDate":"2002-01-08T23:00:00Z","lastUpdateDate":"2022-09-16T21:49:25Z","status":"LAPSED","nextRenewalDate":"2022-09-16T12:20:05Z","managingLou":"259400L3KBYEVNHEJF55","corroborationLevel":"FULLY_CORROBORATED","corroborationDocuments":"ACCOUNTS_FILING","corroborationReference":null},"extension":{"deletedAt":null}},"relationships":{"start-node":{"links":{"related":"https:\/\/api.gleif.org\/api\/v1\/lei-records\/259400MT89LRR20IO198"}},"end-node":{"links":{"related":"https:\/\/api.gleif.org\/api\/v1\/lei-records\/851WYGNLUQLFZBSYGB56"}}}},{"type":"relationship-records","id":"2594001HDOZJ494FNI81|LEI|IS_ULTIMATELY_CONSOLIDATED_BY|7|a6e45254224026468179be8dc1249b2db9a7b5428a6c284dcb23b8c1ffc6bf56|","attributes":{"validFrom":"2023-10-26T08:00:00Z","validTo":null,"relationship":{"startNode":{"id":"2594001HDOZJ494FNI81","type":"LEI"},"endNode":{"id":"851WYGNLUQLFZBSYGB56","type":"LEI"},"type":"IS_ULTIMATELY_CONSOLIDATED_BY","status":"ACTIVE","periods":[{"startDate":"2017-12-31T23:00:00Z","endDate":"2018-12-30T23:00:00Z","type":"ACCOUNTING_PERIOD"},{"startDate":"2015-09-10T22:00:00Z","type":"RELATIONSHIP_PERIOD"}]},"registration":{"initialRegistrationDate":"2021-11-10T13:56:01Z","lastUpdateDate":"2022-03-01T09:15:11Z","status":"LAPSED","nextRenewalDate":"2019-02-14T17:46:27Z","managingLou":"259400L3KBYEVNHEJF55","corroborationLevel":"FULLY_CORROBORATED","corroborationDocuments":"ACCOUNTS_FILING","corroborationReference":null},"extension":{"deletedAt":null}},"relationships":{"start-node":{"links":{"related":"https:\/\/api.gleif.org\/api\/v1\/lei-records\/2594001HDOZJ494FNI81"}},"end-node":{"links":{"related":"https:\/\/api.gleif.org\/api\/v1\/lei-records\/851WYGNLUQLFZBSYGB56"}}}},{"type":"relationship-records","id":"259400KUS42ILTO8GN80|LEI|IS_ULTIMATELY_CONSOLIDATED_BY|5|2aeb9bc06a2ed6a0bce544e8d9c502cc1440ade45dec4af9aaf5c9cc42f90e48|","attributes":{"validFrom":"2023-10-26T08:00:00Z","validTo":null,"relationship":{"startNode":{"id":"259400KUS42ILTO8GN80","type":"LEI"},"endNode":{"id":"851WYGNLUQLFZBSYGB56","type":"LEI"},"type":"IS_ULTIMATELY_CONSOLIDATED_BY","status":"ACTIVE","periods":[{"startDate":"2019-12-31T23:00:00Z","endDate":"2020-09-29T22:00:00Z","type":"ACCOUNTING_PERIOD"},{"startDate":"2020-02-03T23:00:00Z","type":"RELATIONSHIP_PERIOD"}]},"registration":{"initialRegistrationDate":"2022-02-06T22:49:06Z","lastUpdateDate":"2022-03-01T09:15:11Z","status":"LAPSED","nextRenewalDate":"2022-02-06T14:46:30Z","managingLou":"259400L3KBYEVNHEJF55","corroborationLevel":"FULLY_CORROBORATED","corroborationDocuments":"ACCOUNTS_FILING","corroborationReference":null},"extension":{"deletedAt":null}},"relationships":{"start-node":{"links":{"related":"https:\/\/api.gleif.org\/api\/v1\/lei-records\/259400KUS42ILTO8GN80"}},"end-node":{"links":{"related":"https:\/\/api.gleif.org\/api\/v1\/lei-records\/851WYGNLUQLFZBSYGB56"}}}},{"type":"relationship-records","id":"529900MW1O27ER2XU354|LEI|IS_ULTIMATELY_CONSOLIDATED_BY|10|baa4b2ef4faaa4c81de48ce2342404e5608c0002eade7e1fa19e08dc878f5fc7|","attributes":{"validFrom":"2024-08-01T08:00:00Z","validTo":null,"relationship":{"startNode":{"id":"529900MW1O27ER2XU354","type":"LEI"},"endNode":{"id":"851WYGNLUQLFZBSYGB56","type":"LEI"},"type":"IS_ULTIMATELY_CONSOLIDATED_BY","status":"ACTIVE","periods":[{"startDate":"2022-12-31T23:00:00Z","endDate":"2023-12-30T23:00:00Z","type":"ACCOUNTING_PERIOD"},{"startDate":"2018-02-04T23:00:00Z","type":"RELATIONSHIP_PERIOD"},{"startDate":"2024-02-27T23:00:00Z","type":"DOCUMENT_FILING_PERIOD"}]},"registration":{"initialRegistrationDate":"2018-02-08T13:37:34Z","lastUpdateDate":"2024-07-31T15:14:10Z","status":"PUBLISHED","nextRenewalDate":"2025-07-31T15:14:09Z","managingLou":"5299000J2N45DDNE4Y28","corroborationLevel":"FULLY_CORROBORATED","corroborationDocuments":"ACCOUNTS_FILING","corroborationReference":null},"extension":{"deletedAt":null}},"relationships":{"start-node":{"links":{"related":"https:\/\/api.gleif.org\/api\/v1\/lei-records\/529900MW1O27ER2XU354"}},"end-node":{"links":{"related":"https:\/\/api.gleif.org\/api\/v1\/lei-records\/851WYGNLUQLFZBSYGB56"}}}},{"type":"relationship-records","id":"529900KR9Q3M1P017C91|LEI|IS_ULTIMATELY_CONSOLIDATED_BY|7|4b1d55f7062d80d6ded071532dbc7a42ee1932aeb1211b2e0199dc1168c30fe3|","attributes":{"validFrom":"2024-09-17T08:00:00Z","validTo":null,"relationship":{"startNode":{"id":"529900KR9Q3M1P017C91","type":"LEI"},"endNode":{"id":"851WYGNLUQLFZBSYGB56","type":"LEI"},"type":"IS_ULTIMATELY_CONSOLIDATED_BY","status":"ACTIVE","periods":[{"startDate":"2022-12-31T23:00:00Z","endDate":"2023-12-30T23:00:00Z","type":"ACCOUNTING_PERIOD"},{"startDate":"2018-09-27T22:00:00Z","type":"RELATIONSHIP_PERIOD"},{"startDate":"2024-02-27T23:00:00Z","type":"DOCUMENT_FILING_PERIOD"}]},"registration":{"initialRegistrationDate":"2018-11-07T14:25:44Z","lastUpdateDate":"2024-09-16T12:57:24Z","status":"PUBLISHED","nextRenewalDate":"2025-11-07T14:25:44Z","managingLou":"5299000J2N45DDNE4Y28","corroborationLevel":"FULLY_CORROBORATED","corroborationDocuments":"ACCOUNTS_FILING","corroborationReference":null},"extension":{"deletedAt":null}},"relationships":{"start-node":{"links":{"related":"https:\/\/api.gleif.org\/api\/v1\/lei-records\/529900KR9Q3M1P017C91"}},"end-node":{"links":{"related":"https:\/\/api.gleif.org\/api\/v1\/lei-records\/851WYGNLUQLFZBSYGB56"}}}},{"type":"relationship-records","id":"529900KWBBYMEJAYUO52|LEI|IS_ULTIMATELY_CONSOLIDATED_BY|10|ea0c9a6875ca166690d1480d5ba95ae740155657453f03056090f71e223673e5|","attributes":{"validFrom":"2024-09-12T08:00:00Z","validTo":null,"relationship":{"startNode":{"id":"529900KWBBYMEJAYUO52","type":"LEI"},"endNode":{"id":"851WYGNLUQLFZBSYGB56","type":"LEI"},"type":"IS_ULTIMATELY_CONSOLIDATED_BY","status":"ACTIVE","periods":[{"startDate":"2022-12-31T23:00:00Z","endDate":"2023-12-30T23:00:00Z","type":"ACCOUNTING_PERIOD"},{"startDate":"2015-12-31T23:00:00Z","type":"RELATIONSHIP_PERIOD"},{"startDate":"2024-02-27T23:00:00Z","type":"DOCUMENT_FILING_PERIOD"}]},"registration":{"initialRegistrationDate":"2017-10-17T08:34:28Z","lastUpdateDate":"2024-09-11T12:07:22Z","status":"PUBLISHED","nextRenewalDate":"2025-09-21T07:03:29Z","managingLou":"5299000J2N45DDNE4Y28","corroborationLevel":"FULLY_CORROBORATED","corroborationDocuments":"ACCOUNTS_FILING","corroborationReference":null},"extension":{"deletedAt":null}},"relationships":{"start-node":{"links":{"related":"https:\/\/api.gleif.org\/api\/v1\/lei-records\/529900KWBBYMEJAYUO52"}},"end-node":{"links":{"related":"https:\/\/api.gleif.org\/api\/v1\/lei-records\/851WYGNLUQLFZBSYGB56"}}}},{"type":"relationship-records","id":"529900S9BOW0CD9FCW95|LEI|IS_ULTIMATELY_CONSOLIDATED_BY|10|054e736ccecf1095c32b4dfaeafaaac1d4513495e453d50b52ebd6f6e5cd66e4|","attributes":{"validFrom":"2024-09-12T08:00:00Z","validTo":null,"relationship":{"startNode":{"id":"529900S9BOW0CD9FCW95","type":"LEI"},"endNode":{"id":"851WYGNLUQLFZBSYGB56","type":"LEI"},"type":"IS_ULTIMATELY_CONSOLIDATED_BY","status":"ACTIVE","periods":[{"startDate":"2022-12-31T23:00:00Z","endDate":"2023-12-30T23:00:00Z","type":"ACCOUNTING_PERIOD"},{"startDate":"2017-09-11T22:00:00Z","type":"RELATIONSHIP_PERIOD"},{"startDate":"2024-02-27T23:00:00Z","type":"DOCUMENT_FILING_PERIOD"}]},"registration":{"initialRegistrationDate":"2017-10-04T10:45:31Z","lastUpdateDate":"2024-09-11T12:07:15Z","status":"PUBLISHED","nextRenewalDate":"2025-09-21T07:05:24Z","managingLou":"5299000J2N45DDNE4Y28","corroborationLevel":"FULLY_CORROBORATED","corroborationDocuments":"ACCOUNTS_FILING","corroborationReference":null},"extension":{"deletedAt":null}},"relationships":{"start-node":{"links":{"related":"https:\/\/api.gleif.org\/api\/v1\/lei-records\/529900S9BOW0CD9FCW95"}},"end-node":{"links":{"related":"https:\/\/api.gleif.org\/api\/v1\/lei-records\/851WYGNLUQLFZBSYGB56"}}}},{"type":"relationship-records","id":"5299009ZI826MEUZM858|LEI|IS_ULTIMATELY_CONSOLIDATED_BY|4|dacc7b0bd0070e237000f9d9443e1c608ae2748101e9e691685246134a696da3|","attributes":{"validFrom":"2024-09-26T08:00:00Z","validTo":null,"relationship":{"startNode":{"id":"5299009ZI826MEUZM858","type":"LEI"},"endNode":{"id":"851WYGNLUQLFZBSYGB56","type":"LEI"},"type":"IS_ULTIMATELY_CONSOLIDATED_BY","status":"ACTIVE","periods":[{"startDate":"2022-12-31T23:00:00Z","endDate":"2023-12-30T23:00:00Z","type":"ACCOUNTING_PERIOD"},{"startDate":"2021-11-14T23:00:00Z","type":"RELATIONSHIP_PERIOD"},{"startDate":"2024-02-27T23:00:00Z","type":"DOCUMENT_FILING_PERIOD"}]},"registration":{"initialRegistrationDate":"2021-11-15T14:01:15Z","lastUpdateDate":"2024-09-25T13:17:25Z","status":"PUBLISHED","nextRenewalDate":"2025-11-15T14:01:15Z","managingLou":"5299000J2N45DDNE4Y28","corroborationLevel":"FULLY_CORROBORATED","corroborationDocuments":"ACCOUNTS_FILING","corroborationReference":null},"extension":{"deletedAt":null}},"relationships":{"start-node":{"links":{"related":"https:\/\/api.gleif.org\/api\/v1\/lei-records\/5299009ZI826MEUZM858"}},"end-node":{"links":{"related":"https:\/\/api.gleif.org\/api\/v1\/lei-records\/851WYGNLUQLFZBSYGB56"}}}},{"type":"relationship-records","id":"529900ZGCYN3U4YVB894|LEI|IS_ULTIMATELY_CONSOLIDATED_BY|10|fac0d05b918cce10022031b88b239dc4b7ac1d7d39a25f914141b01f330f47f9|","attributes":{"validFrom":"2024-09-21T08:00:00Z","validTo":null,"relationship":{"startNode":{"id":"529900ZGCYN3U4YVB894","type":"LEI"},"endNode":{"id":"851WYGNLUQLFZBSYGB56","type":"LEI"},"type":"IS_ULTIMATELY_CONSOLIDATED_BY","status":"ACTIVE","periods":[{"startDate":"2021-12-31T23:00:00Z","endDate":"2022-12-30T23:00:00Z","type":"ACCOUNTING_PERIOD"},{"startDate":"2017-09-11T22:00:00Z","type":"RELATIONSHIP_PERIOD"},{"startDate":"2023-03-06T23:00:00Z","type":"DOCUMENT_FILING_PERIOD"}]},"registration":{"initialRegistrationDate":"2017-10-04T10:42:04Z","lastUpdateDate":"2024-09-20T23:30:03Z","status":"LAPSED","nextRenewalDate":"2024-09-21T07:05:54Z","managingLou":"5299000J2N45DDNE4Y28","corroborationLevel":"FULLY_CORROBORATED","corroborationDocuments":"ACCOUNTS_FILING","corroborationReference":null},"extension":{"deletedAt":null}},"relationships":{"start-node":{"links":{"related":"https:\/\/api.gleif.org\/api\/v1\/lei-records\/529900ZGCYN3U4YVB894"}},"end-node":{"links":{"related":"https:\/\/api.gleif.org\/api\/v1\/lei-records\/851WYGNLUQLFZBSYGB56"}}}}]}